countercpu.vcd
$version Generated by VerilatedVcd $end
$date Mon Nov 25 00:58:38 2024 $end
$timescale 1ps $end

 $scope module TOP $end
  $var wire 32 W a0 [31:0] $end
  $var wire  1 U clk $end
  $var wire  1 V rst $end
  $scope module TOPcountercpu $end
   $var wire  3 O ALUctrl [2:0] $end
   $var wire 32 ^ ALUop1 [31:0] $end
   $var wire 32 _ ALUop2 [31:0] $end
   $var wire 32 ] ALUout [31:0] $end
   $var wire  1 M ALUsrc $end
   $var wire 32 K ImmExt [31:0] $end
   $var wire 32 X PC [31:0] $end
   $var wire  1 N PCsrc $end
   $var wire  1 L RegWrite $end
   $var wire  1 P Zero $end
   $var wire 32 W a0 [31:0] $end
   $var wire  1 U clk $end
   $var wire 32 C instr [31:0] $end
   $var wire  7 D opcode [6:0] $end
   $var wire  5 G rd [4:0] $end
   $var wire  5 E rs1 [4:0] $end
   $var wire  5 F rs2 [4:0] $end
   $var wire  1 V rst $end
   $scope module alutop $end
    $var wire  3 O ALUctrl [2:0] $end
    $var wire 32 H ALUop1 [31:0] $end
    $var wire 32 Q ALUop2 [31:0] $end
    $var wire 32 R ALUout [31:0] $end
    $var wire  1 M ALUsrc $end
    $var wire 32 K ImmExt [31:0] $end
    $var wire  1 L RegWrite $end
    $var wire  1 P Zero $end
    $var wire 32 W a0 [31:0] $end
    $var wire  1 U clk $end
    $var wire  5 G rd [4:0] $end
    $var wire 32 Y regOp2 [31:0] $end
    $var wire  5 E rs1 [4:0] $end
    $var wire  5 F rs2 [4:0] $end
    $scope module ALU $end
     $var wire  4 S ALUctrl [3:0] $end
     $var wire 32 H ALUop1 [31:0] $end
     $var wire 32 Q ALUop2 [31:0] $end
     $var wire 32 ` DATAWIDTH [31:0] $end
     $var wire 32 R SUM [31:0] $end
     $var wire  1 P Zero $end
    $upscope $end
    $scope module ALUMux $end
     $var wire  1 M ALUsrc $end
     $var wire 32 Q Aluop2 [31:0] $end
     $var wire 32 K ImmExt [31:0] $end
     $var wire 32 Y regOp2 [31:0] $end
    $upscope $end
    $scope module RegFile $end
     $var wire  5 E AD1 [4:0] $end
     $var wire  5 F AD2 [4:0] $end
     $var wire  5 G AD3 [4:0] $end
     $var wire 32 H RD1 [31:0] $end
     $var wire 32 Y RD2 [31:0] $end
     $var wire 32 R WD3 [31:0] $end
     $var wire  1 L WE3 $end
     $var wire 32 W a0 [31:0] $end
     $var wire  1 U clk $end
     $var wire 32 # registerarr[0] [31:0] $end
     $var wire 32 - registerarr[10] [31:0] $end
     $var wire 32 . registerarr[11] [31:0] $end
     $var wire 32 / registerarr[12] [31:0] $end
     $var wire 32 0 registerarr[13] [31:0] $end
     $var wire 32 1 registerarr[14] [31:0] $end
     $var wire 32 2 registerarr[15] [31:0] $end
     $var wire 32 3 registerarr[16] [31:0] $end
     $var wire 32 4 registerarr[17] [31:0] $end
     $var wire 32 5 registerarr[18] [31:0] $end
     $var wire 32 6 registerarr[19] [31:0] $end
     $var wire 32 $ registerarr[1] [31:0] $end
     $var wire 32 7 registerarr[20] [31:0] $end
     $var wire 32 8 registerarr[21] [31:0] $end
     $var wire 32 9 registerarr[22] [31:0] $end
     $var wire 32 : registerarr[23] [31:0] $end
     $var wire 32 ; registerarr[24] [31:0] $end
     $var wire 32 < registerarr[25] [31:0] $end
     $var wire 32 = registerarr[26] [31:0] $end
     $var wire 32 > registerarr[27] [31:0] $end
     $var wire 32 ? registerarr[28] [31:0] $end
     $var wire 32 @ registerarr[29] [31:0] $end
     $var wire 32 % registerarr[2] [31:0] $end
     $var wire 32 A registerarr[30] [31:0] $end
     $var wire 32 B registerarr[31] [31:0] $end
     $var wire 32 & registerarr[3] [31:0] $end
     $var wire 32 ' registerarr[4] [31:0] $end
     $var wire 32 ( registerarr[5] [31:0] $end
     $var wire 32 ) registerarr[6] [31:0] $end
     $var wire 32 * registerarr[7] [31:0] $end
     $var wire 32 + registerarr[8] [31:0] $end
     $var wire 32 , registerarr[9] [31:0] $end
    $upscope $end
   $upscope $end
   $scope module instrtop $end
    $var wire 32 ` ADDRESS_WIDTH [31:0] $end
    $var wire  3 O ALUctrl [2:0] $end
    $var wire  1 M ALUsrc $end
    $var wire 32 ` DATA_WIDTH [31:0] $end
    $var wire 32 K ImmExt [31:0] $end
    $var wire  2 T ImmSrc [1:0] $end
    $var wire 25 I Instr [31:7] $end
    $var wire 32 X PC [31:0] $end
    $var wire  1 N PCsrc $end
    $var wire  1 L RegWrite $end
    $var wire  1 P Zero $end
    $var wire 32 C instr [31:0] $end
    $var wire  7 D opcode [6:0] $end
    $scope module control_unit $end
     $var wire  3 O ALUctrl [2:0] $end
     $var wire  1 M ALUsrc $end
     $var wire  2 T ImmSrc [1:0] $end
     $var wire  2 J InstrType [1:0] $end
     $var wire  1 N PCsrc $end
     $var wire  1 L RegWrite $end
     $var wire  1 P Zero $end
     $var wire  7 D opcode [6:0] $end
    $upscope $end
    $scope module extend $end
     $var wire 32 K ImmExt [31:0] $end
     $var wire  2 T ImmSrc [1:0] $end
     $var wire 25 I Instr [31:7] $end
     $var wire 32 ` WIDTH [31:0] $end
    $upscope $end
    $scope module instr_mem $end
     $var wire 32 X A [31:0] $end
     $var wire 32 C RD [31:0] $end
    $upscope $end
   $upscope $end
   $scope module pctop $end
    $var wire 32 K ImmExt [31:0] $end
    $var wire 32 X PC [31:0] $end
    $var wire  1 N PCsrc $end
    $var wire 32 [ branch_PC [31:0] $end
    $var wire  1 U clk $end
    $var wire 32 Z inc_PC [31:0] $end
    $var wire 32 \ next_PC [31:0] $end
    $var wire  1 V rst $end
    $scope module PCMux $end
     $var wire  1 N PCsrc $end
     $var wire 32 [ branch_PC [31:0] $end
     $var wire 32 Z inc_PC [31:0] $end
     $var wire 32 \ next_PC [31:0] $end
    $upscope $end
    $scope module PCReg $end
     $var wire 32 X PC [31:0] $end
     $var wire  1 U clk $end
     $var wire 32 \ next_PC [31:0] $end
     $var wire  1 V rst $end
    $upscope $end
   $upscope $end
  $upscope $end
 $upscope $end
$enddefinitions $end


#0
b00000000000000000000000000000000 #
b00000000000000000000000000000000 $
b00000000000000000000000000000000 %
b00000000000000000000000000000000 &
b00000000000000000000000000000000 '
b00000000000000000000000000000000 (
b00000000000000000000000000000000 )
b00000000000000000000000000000000 *
b00000000000000000000000000000000 +
b00000000000000000000000000000000 ,
b00000000000000000000000000000000 -
b00000000000000000000000000000000 .
b00000000000000000000000000000000 /
b00000000000000000000000000000000 0
b00000000000000000000000000000000 1
b00000000000000000000000000000000 2
b00000000000000000000000000000000 3
b00000000000000000000000000000000 4
b00000000000000000000000000000000 5
b00000000000000000000000000000000 6
b00000000000000000000000000000000 7
b00000000000000000000000000000000 8
b00000000000000000000000000000000 9
b00000000000000000000000000000000 :
b00000000000000000000000000000000 ;
b00000000000000000000000000000000 <
b00000000000000000000000000000000 =
b00000000000000000000000000000000 >
b00000000000000000000000000000000 ?
b00000000000000000000000000000000 @
b00000000000000000000000000000000 A
b00000000000000000000000000000000 B
b00000000000000000000000000000000 C
b0000000 D
b00000 E
b00000 F
b00000 G
b00000000000000000000000000000000 H
b0000000000000000000000000 I
b10 J
b00000000000000000000000000000000 K
0L
0M
0N
b000 O
1P
b00000000000000000000000000000000 Q
b00000000000000000000000000000000 R
b0000 S
b00 T
0U
0V
b00000000000000000000000000000000 W
b00000000000000000000000000000000 X
b00000000000000000000000000000000 Y
b00000000000000000000000000000100 Z
b00000000000000000000000000000000 [
b00000000000000000000000000000100 \
b00000000000000000000000000000000 ]
b00000000000000000000000000000000 ^
b00000000000000000000000000000000 _
b00000000000000000000000000100000 `
#1
b00001111111100000000001100010011 C
b0010011 D
b11111 F
b00110 G
b0000111111110000000000110 I
b00 J
b00000000000000000000000011111111 K
1L
1M
0P
b00000000000000000000000011111111 Q
b00000000000000000000000011111111 R
1U
b00000000000000000000000011111111 [
#2
0U
#3
b00000000000000000000000011111111 )
b00000000000000000000010100010011 C
b00000 F
b01010 G
b0000000000000000000001010 I
b00000000000000000000000000000000 K
1P
b00000000000000000000000000000000 Q
b00000000000000000000000000000000 R
1U
b00000000000000000000000000000100 X
b00000000000000000000000000001000 Z
b00000000000000000000000000000100 [
b00000000000000000000000000001000 \
#4
0U
#5
b00000000000000000000010110010011 C
b01011 G
b0000000000000000000001011 I
1U
b00000000000000000000000000001000 X
b00000000000000000000000000001100 Z
b00000000000000000000000000001000 [
b00000000000000000000000000001100 \
#6
0U
#7
b00000000000001011000010100010011 C
b01011 E
b01010 G
b0000000000000101100001010 I
1U
b00000000000000000000000000001100 X
b00000000000000000000000000010000 Z
b00000000000000000000000000001100 [
b00000000000000000000000000010000 \
#8
0U
#9
b00000000000101011000010110010011 C
b00001 F
b01011 G
b0000000000010101100001011 I
b00000000000000000000000000000001 K
0P
b00000000000000000000000000000001 Q
b00000000000000000000000000000001 R
1U
b00000000000000000000000000010000 X
b00000000000000000000000000010100 Z
b00000000000000000000000000010001 [
b00000000000000000000000000010100 \
#10
0U
#11
b00000000000000000000000000000001 .
b11111110011001011001110011100011 C
b1100011 D
b00110 F
b11001 G
b00000000000000000000000000000001 H
b1111111001100101100111001 I
b01 J
b11111111111111111111111111111000 K
0L
0M
1N
b001 O
b00000000000000000000000011111111 Q
b11111111111111111111111100000010 R
b0001 S
b10 T
1U
b00000000000000000000000000010100 X
b00000000000000000000000011111111 Y
b00000000000000000000000000011000 Z
b00000000000000000000000000001100 [
b00000000000000000000000000001100 \
#12
0U
#13
b00000000000001011000010100010011 C
b0010011 D
b00000 F
b01010 G
b0000000000000101100001010 I
b00 J
b00000000000000000000000000000000 K
1L
1M
0N
b000 O
b00000000000000000000000000000000 Q
b00000000000000000000000000000001 R
b0000 S
b00 T
1U
b00000000000000000000000000001100 X
b00000000000000000000000000000000 Y
b00000000000000000000000000010000 Z
b00000000000000000000000000010000 \
#14
0U
#15
b00000000000101011000010110010011 C
b00001 F
b01011 G
b0000000000010101100001011 I
b00000000000000000000000000000001 K
b00000000000000000000000000000001 Q
b00000000000000000000000000000010 R
1U
b00000000000000000000000000010000 X
b00000000000000000000000000010100 Z
b00000000000000000000000000010001 [
b00000000000000000000000000010100 \
#16
0U
#17
b00000000000000000000000000000001 -
b00000000000000000000000000000010 .
b11111110011001011001110011100011 C
b1100011 D
b00110 F
b11001 G
b00000000000000000000000000000010 H
b1111111001100101100111001 I
b01 J
b11111111111111111111111111111000 K
0L
0M
1N
b001 O
b00000000000000000000000011111111 Q
b11111111111111111111111100000011 R
b0001 S
b10 T
1U
b00000000000000000000000000000001 W
b00000000000000000000000000010100 X
b00000000000000000000000011111111 Y
b00000000000000000000000000011000 Z
b00000000000000000000000000001100 [
b00000000000000000000000000001100 \
#18
0U
#19
b00000000000001011000010100010011 C
b0010011 D
b00000 F
b01010 G
b0000000000000101100001010 I
b00 J
b00000000000000000000000000000000 K
1L
1M
0N
b000 O
b00000000000000000000000000000000 Q
b00000000000000000000000000000010 R
b0000 S
b00 T
1U
b00000000000000000000000000001100 X
b00000000000000000000000000000000 Y
b00000000000000000000000000010000 Z
b00000000000000000000000000010000 \
#20
0U
#21
b00000000000101011000010110010011 C
b00001 F
b01011 G
b0000000000010101100001011 I
b00000000000000000000000000000001 K
b00000000000000000000000000000001 Q
b00000000000000000000000000000011 R
1U
b00000000000000000000000000010000 X
b00000000000000000000000000010100 Z
b00000000000000000000000000010001 [
b00000000000000000000000000010100 \
#22
0U
#23
b00000000000000000000000000000010 -
b00000000000000000000000000000011 .
b11111110011001011001110011100011 C
b1100011 D
b00110 F
b11001 G
b00000000000000000000000000000011 H
b1111111001100101100111001 I
b01 J
b11111111111111111111111111111000 K
0L
0M
1N
b001 O
b00000000000000000000000011111111 Q
b11111111111111111111111100000100 R
b0001 S
b10 T
1U
b00000000000000000000000000000010 W
b00000000000000000000000000010100 X
b00000000000000000000000011111111 Y
b00000000000000000000000000011000 Z
b00000000000000000000000000001100 [
b00000000000000000000000000001100 \
#24
0U
#25
b00000000000001011000010100010011 C
b0010011 D
b00000 F
b01010 G
b0000000000000101100001010 I
b00 J
b00000000000000000000000000000000 K
1L
1M
0N
b000 O
b00000000000000000000000000000000 Q
b00000000000000000000000000000011 R
b0000 S
b00 T
1U
b00000000000000000000000000001100 X
b00000000000000000000000000000000 Y
b00000000000000000000000000010000 Z
b00000000000000000000000000010000 \
#26
0U
#27
b00000000000101011000010110010011 C
b00001 F
b01011 G
b0000000000010101100001011 I
b00000000000000000000000000000001 K
b00000000000000000000000000000001 Q
b00000000000000000000000000000100 R
1U
b00000000000000000000000000010000 X
b00000000000000000000000000010100 Z
b00000000000000000000000000010001 [
b00000000000000000000000000010100 \
#28
0U
#29
b00000000000000000000000000000011 -
b00000000000000000000000000000100 .
b11111110011001011001110011100011 C
b1100011 D
b00110 F
b11001 G
b00000000000000000000000000000100 H
b1111111001100101100111001 I
b01 J
b11111111111111111111111111111000 K
0L
0M
1N
b001 O
b00000000000000000000000011111111 Q
b11111111111111111111111100000101 R
b0001 S
b10 T
1U
b00000000000000000000000000000011 W
b00000000000000000000000000010100 X
b00000000000000000000000011111111 Y
b00000000000000000000000000011000 Z
b00000000000000000000000000001100 [
b00000000000000000000000000001100 \
#30
0U
#31
b00000000000001011000010100010011 C
b0010011 D
b00000 F
b01010 G
b0000000000000101100001010 I
b00 J
b00000000000000000000000000000000 K
1L
1M
0N
b000 O
b00000000000000000000000000000000 Q
b00000000000000000000000000000100 R
b0000 S
b00 T
1U
b00000000000000000000000000001100 X
b00000000000000000000000000000000 Y
b00000000000000000000000000010000 Z
b00000000000000000000000000010000 \
#32
0U
#33
b00000000000101011000010110010011 C
b00001 F
b01011 G
b0000000000010101100001011 I
b00000000000000000000000000000001 K
b00000000000000000000000000000001 Q
b00000000000000000000000000000101 R
1U
b00000000000000000000000000010000 X
b00000000000000000000000000010100 Z
b00000000000000000000000000010001 [
b00000000000000000000000000010100 \
#34
0U
#35
b00000000000000000000000000000100 -
b00000000000000000000000000000101 .
b11111110011001011001110011100011 C
b1100011 D
b00110 F
b11001 G
b00000000000000000000000000000101 H
b1111111001100101100111001 I
b01 J
b11111111111111111111111111111000 K
0L
0M
1N
b001 O
b00000000000000000000000011111111 Q
b11111111111111111111111100000110 R
b0001 S
b10 T
1U
b00000000000000000000000000000100 W
b00000000000000000000000000010100 X
b00000000000000000000000011111111 Y
b00000000000000000000000000011000 Z
b00000000000000000000000000001100 [
b00000000000000000000000000001100 \
#36
0U
#37
b00000000000001011000010100010011 C
b0010011 D
b00000 F
b01010 G
b0000000000000101100001010 I
b00 J
b00000000000000000000000000000000 K
1L
1M
0N
b000 O
b00000000000000000000000000000000 Q
b00000000000000000000000000000101 R
b0000 S
b00 T
1U
b00000000000000000000000000001100 X
b00000000000000000000000000000000 Y
b00000000000000000000000000010000 Z
b00000000000000000000000000010000 \
#38
0U
#39
b00000000000101011000010110010011 C
b00001 F
b01011 G
b0000000000010101100001011 I
b00000000000000000000000000000001 K
b00000000000000000000000000000001 Q
b00000000000000000000000000000110 R
1U
b00000000000000000000000000010000 X
b00000000000000000000000000010100 Z
b00000000000000000000000000010001 [
b00000000000000000000000000010100 \
#40
0U
#41
b00000000000000000000000000000101 -
b00000000000000000000000000000110 .
b11111110011001011001110011100011 C
b1100011 D
b00110 F
b11001 G
b00000000000000000000000000000110 H
b1111111001100101100111001 I
b01 J
b11111111111111111111111111111000 K
0L
0M
1N
b001 O
b00000000000000000000000011111111 Q
b11111111111111111111111100000111 R
b0001 S
b10 T
1U
b00000000000000000000000000000101 W
b00000000000000000000000000010100 X
b00000000000000000000000011111111 Y
b00000000000000000000000000011000 Z
b00000000000000000000000000001100 [
b00000000000000000000000000001100 \
#42
0U
#43
b00000000000001011000010100010011 C
b0010011 D
b00000 F
b01010 G
b0000000000000101100001010 I
b00 J
b00000000000000000000000000000000 K
1L
1M
0N
b000 O
b00000000000000000000000000000000 Q
b00000000000000000000000000000110 R
b0000 S
b00 T
1U
b00000000000000000000000000001100 X
b00000000000000000000000000000000 Y
b00000000000000000000000000010000 Z
b00000000000000000000000000010000 \
#44
0U
#45
b00000000000101011000010110010011 C
b00001 F
b01011 G
b0000000000010101100001011 I
b00000000000000000000000000000001 K
b00000000000000000000000000000001 Q
b00000000000000000000000000000111 R
1U
b00000000000000000000000000010000 X
b00000000000000000000000000010100 Z
b00000000000000000000000000010001 [
b00000000000000000000000000010100 \
#46
0U
#47
b00000000000000000000000000000110 -
b00000000000000000000000000000111 .
b11111110011001011001110011100011 C
b1100011 D
b00110 F
b11001 G
b00000000000000000000000000000111 H
b1111111001100101100111001 I
b01 J
b11111111111111111111111111111000 K
0L
0M
1N
b001 O
b00000000000000000000000011111111 Q
b11111111111111111111111100001000 R
b0001 S
b10 T
1U
b00000000000000000000000000000110 W
b00000000000000000000000000010100 X
b00000000000000000000000011111111 Y
b00000000000000000000000000011000 Z
b00000000000000000000000000001100 [
b00000000000000000000000000001100 \
#48
0U
#49
b00000000000001011000010100010011 C
b0010011 D
b00000 F
b01010 G
b0000000000000101100001010 I
b00 J
b00000000000000000000000000000000 K
1L
1M
0N
b000 O
b00000000000000000000000000000000 Q
b00000000000000000000000000000111 R
b0000 S
b00 T
1U
b00000000000000000000000000001100 X
b00000000000000000000000000000000 Y
b00000000000000000000000000010000 Z
b00000000000000000000000000010000 \
#50
0U
#51
b00000000000101011000010110010011 C
b00001 F
b01011 G
b0000000000010101100001011 I
b00000000000000000000000000000001 K
b00000000000000000000000000000001 Q
b00000000000000000000000000001000 R
1U
b00000000000000000000000000010000 X
b00000000000000000000000000010100 Z
b00000000000000000000000000010001 [
b00000000000000000000000000010100 \
#52
0U
#53
b00000000000000000000000000000111 -
b00000000000000000000000000001000 .
b11111110011001011001110011100011 C
b1100011 D
b00110 F
b11001 G
b00000000000000000000000000001000 H
b1111111001100101100111001 I
b01 J
b11111111111111111111111111111000 K
0L
0M
1N
b001 O
b00000000000000000000000011111111 Q
b11111111111111111111111100001001 R
b0001 S
b10 T
1U
b00000000000000000000000000000111 W
b00000000000000000000000000010100 X
b00000000000000000000000011111111 Y
b00000000000000000000000000011000 Z
b00000000000000000000000000001100 [
b00000000000000000000000000001100 \
#54
0U
#55
b00000000000001011000010100010011 C
b0010011 D
b00000 F
b01010 G
b0000000000000101100001010 I
b00 J
b00000000000000000000000000000000 K
1L
1M
0N
b000 O
b00000000000000000000000000000000 Q
b00000000000000000000000000001000 R
b0000 S
b00 T
1U
b00000000000000000000000000001100 X
b00000000000000000000000000000000 Y
b00000000000000000000000000010000 Z
b00000000000000000000000000010000 \
#56
0U
#57
b00000000000101011000010110010011 C
b00001 F
b01011 G
b0000000000010101100001011 I
b00000000000000000000000000000001 K
b00000000000000000000000000000001 Q
b00000000000000000000000000001001 R
1U
b00000000000000000000000000010000 X
b00000000000000000000000000010100 Z
b00000000000000000000000000010001 [
b00000000000000000000000000010100 \
#58
0U
#59
b00000000000000000000000000001000 -
b00000000000000000000000000001001 .
b11111110011001011001110011100011 C
b1100011 D
b00110 F
b11001 G
b00000000000000000000000000001001 H
b1111111001100101100111001 I
b01 J
b11111111111111111111111111111000 K
0L
0M
1N
b001 O
b00000000000000000000000011111111 Q
b11111111111111111111111100001010 R
b0001 S
b10 T
1U
b00000000000000000000000000001000 W
b00000000000000000000000000010100 X
b00000000000000000000000011111111 Y
b00000000000000000000000000011000 Z
b00000000000000000000000000001100 [
b00000000000000000000000000001100 \
#60
0U
#61
b00000000000001011000010100010011 C
b0010011 D
b00000 F
b01010 G
b0000000000000101100001010 I
b00 J
b00000000000000000000000000000000 K
1L
1M
0N
b000 O
b00000000000000000000000000000000 Q
b00000000000000000000000000001001 R
b0000 S
b00 T
1U
b00000000000000000000000000001100 X
b00000000000000000000000000000000 Y
b00000000000000000000000000010000 Z
b00000000000000000000000000010000 \
#62
0U
#63
b00000000000101011000010110010011 C
b00001 F
b01011 G
b0000000000010101100001011 I
b00000000000000000000000000000001 K
b00000000000000000000000000000001 Q
b00000000000000000000000000001010 R
1U
b00000000000000000000000000010000 X
b00000000000000000000000000010100 Z
b00000000000000000000000000010001 [
b00000000000000000000000000010100 \
#64
0U
#65
b00000000000000000000000000001001 -
b00000000000000000000000000001010 .
b11111110011001011001110011100011 C
b1100011 D
b00110 F
b11001 G
b00000000000000000000000000001010 H
b1111111001100101100111001 I
b01 J
b11111111111111111111111111111000 K
0L
0M
1N
b001 O
b00000000000000000000000011111111 Q
b11111111111111111111111100001011 R
b0001 S
b10 T
1U
b00000000000000000000000000001001 W
b00000000000000000000000000010100 X
b00000000000000000000000011111111 Y
b00000000000000000000000000011000 Z
b00000000000000000000000000001100 [
b00000000000000000000000000001100 \
#66
0U
#67
b00000000000001011000010100010011 C
b0010011 D
b00000 F
b01010 G
b0000000000000101100001010 I
b00 J
b00000000000000000000000000000000 K
1L
1M
0N
b000 O
b00000000000000000000000000000000 Q
b00000000000000000000000000001010 R
b0000 S
b00 T
1U
b00000000000000000000000000001100 X
b00000000000000000000000000000000 Y
b00000000000000000000000000010000 Z
b00000000000000000000000000010000 \
#68
0U
#69
b00000000000101011000010110010011 C
b00001 F
b01011 G
b0000000000010101100001011 I
b00000000000000000000000000000001 K
b00000000000000000000000000000001 Q
b00000000000000000000000000001011 R
1U
b00000000000000000000000000010000 X
b00000000000000000000000000010100 Z
b00000000000000000000000000010001 [
b00000000000000000000000000010100 \
#70
0U
#71
b00000000000000000000000000001010 -
b00000000000000000000000000001011 .
b11111110011001011001110011100011 C
b1100011 D
b00110 F
b11001 G
b00000000000000000000000000001011 H
b1111111001100101100111001 I
b01 J
b11111111111111111111111111111000 K
0L
0M
1N
b001 O
b00000000000000000000000011111111 Q
b11111111111111111111111100001100 R
b0001 S
b10 T
1U
b00000000000000000000000000001010 W
b00000000000000000000000000010100 X
b00000000000000000000000011111111 Y
b00000000000000000000000000011000 Z
b00000000000000000000000000001100 [
b00000000000000000000000000001100 \
#72
0U
#73
b00000000000001011000010100010011 C
b0010011 D
b00000 F
b01010 G
b0000000000000101100001010 I
b00 J
b00000000000000000000000000000000 K
1L
1M
0N
b000 O
b00000000000000000000000000000000 Q
b00000000000000000000000000001011 R
b0000 S
b00 T
1U
b00000000000000000000000000001100 X
b00000000000000000000000000000000 Y
b00000000000000000000000000010000 Z
b00000000000000000000000000010000 \
#74
0U
#75
b00000000000101011000010110010011 C
b00001 F
b01011 G
b0000000000010101100001011 I
b00000000000000000000000000000001 K
b00000000000000000000000000000001 Q
b00000000000000000000000000001100 R
1U
b00000000000000000000000000010000 X
b00000000000000000000000000010100 Z
b00000000000000000000000000010001 [
b00000000000000000000000000010100 \
#76
0U
#77
b00000000000000000000000000001011 -
b00000000000000000000000000001100 .
b11111110011001011001110011100011 C
b1100011 D
b00110 F
b11001 G
b00000000000000000000000000001100 H
b1111111001100101100111001 I
b01 J
b11111111111111111111111111111000 K
0L
0M
1N
b001 O
b00000000000000000000000011111111 Q
b11111111111111111111111100001101 R
b0001 S
b10 T
1U
b00000000000000000000000000001011 W
b00000000000000000000000000010100 X
b00000000000000000000000011111111 Y
b00000000000000000000000000011000 Z
b00000000000000000000000000001100 [
b00000000000000000000000000001100 \
#78
0U
#79
b00000000000001011000010100010011 C
b0010011 D
b00000 F
b01010 G
b0000000000000101100001010 I
b00 J
b00000000000000000000000000000000 K
1L
1M
0N
b000 O
b00000000000000000000000000000000 Q
b00000000000000000000000000001100 R
b0000 S
b00 T
1U
b00000000000000000000000000001100 X
b00000000000000000000000000000000 Y
b00000000000000000000000000010000 Z
b00000000000000000000000000010000 \
#80
0U
#81
b00000000000101011000010110010011 C
b00001 F
b01011 G
b0000000000010101100001011 I
b00000000000000000000000000000001 K
b00000000000000000000000000000001 Q
b00000000000000000000000000001101 R
1U
b00000000000000000000000000010000 X
b00000000000000000000000000010100 Z
b00000000000000000000000000010001 [
b00000000000000000000000000010100 \
#82
0U
#83
b00000000000000000000000000001100 -
b00000000000000000000000000001101 .
b11111110011001011001110011100011 C
b1100011 D
b00110 F
b11001 G
b00000000000000000000000000001101 H
b1111111001100101100111001 I
b01 J
b11111111111111111111111111111000 K
0L
0M
1N
b001 O
b00000000000000000000000011111111 Q
b11111111111111111111111100001110 R
b0001 S
b10 T
1U
b00000000000000000000000000001100 W
b00000000000000000000000000010100 X
b00000000000000000000000011111111 Y
b00000000000000000000000000011000 Z
b00000000000000000000000000001100 [
b00000000000000000000000000001100 \
#84
0U
#85
b00000000000001011000010100010011 C
b0010011 D
b00000 F
b01010 G
b0000000000000101100001010 I
b00 J
b00000000000000000000000000000000 K
1L
1M
0N
b000 O
b00000000000000000000000000000000 Q
b00000000000000000000000000001101 R
b0000 S
b00 T
1U
b00000000000000000000000000001100 X
b00000000000000000000000000000000 Y
b00000000000000000000000000010000 Z
b00000000000000000000000000010000 \
#86
0U
#87
b00000000000101011000010110010011 C
b00001 F
b01011 G
b0000000000010101100001011 I
b00000000000000000000000000000001 K
b00000000000000000000000000000001 Q
b00000000000000000000000000001110 R
1U
b00000000000000000000000000010000 X
b00000000000000000000000000010100 Z
b00000000000000000000000000010001 [
b00000000000000000000000000010100 \
#88
0U
#89
b00000000000000000000000000001101 -
b00000000000000000000000000001110 .
b11111110011001011001110011100011 C
b1100011 D
b00110 F
b11001 G
b00000000000000000000000000001110 H
b1111111001100101100111001 I
b01 J
b11111111111111111111111111111000 K
0L
0M
1N
b001 O
b00000000000000000000000011111111 Q
b11111111111111111111111100001111 R
b0001 S
b10 T
1U
b00000000000000000000000000001101 W
b00000000000000000000000000010100 X
b00000000000000000000000011111111 Y
b00000000000000000000000000011000 Z
b00000000000000000000000000001100 [
b00000000000000000000000000001100 \
#90
0U
#91
b00000000000001011000010100010011 C
b0010011 D
b00000 F
b01010 G
b0000000000000101100001010 I
b00 J
b00000000000000000000000000000000 K
1L
1M
0N
b000 O
b00000000000000000000000000000000 Q
b00000000000000000000000000001110 R
b0000 S
b00 T
1U
b00000000000000000000000000001100 X
b00000000000000000000000000000000 Y
b00000000000000000000000000010000 Z
b00000000000000000000000000010000 \
#92
0U
#93
b00000000000101011000010110010011 C
b00001 F
b01011 G
b0000000000010101100001011 I
b00000000000000000000000000000001 K
b00000000000000000000000000000001 Q
b00000000000000000000000000001111 R
1U
b00000000000000000000000000010000 X
b00000000000000000000000000010100 Z
b00000000000000000000000000010001 [
b00000000000000000000000000010100 \
#94
0U
#95
b00000000000000000000000000001110 -
b00000000000000000000000000001111 .
b11111110011001011001110011100011 C
b1100011 D
b00110 F
b11001 G
b00000000000000000000000000001111 H
b1111111001100101100111001 I
b01 J
b11111111111111111111111111111000 K
0L
0M
1N
b001 O
b00000000000000000000000011111111 Q
b11111111111111111111111100010000 R
b0001 S
b10 T
1U
b00000000000000000000000000001110 W
b00000000000000000000000000010100 X
b00000000000000000000000011111111 Y
b00000000000000000000000000011000 Z
b00000000000000000000000000001100 [
b00000000000000000000000000001100 \
#96
0U
#97
b00000000000001011000010100010011 C
b0010011 D
b00000 F
b01010 G
b0000000000000101100001010 I
b00 J
b00000000000000000000000000000000 K
1L
1M
0N
b000 O
b00000000000000000000000000000000 Q
b00000000000000000000000000001111 R
b0000 S
b00 T
1U
b00000000000000000000000000001100 X
b00000000000000000000000000000000 Y
b00000000000000000000000000010000 Z
b00000000000000000000000000010000 \
#98
0U
#99
b00000000000101011000010110010011 C
b00001 F
b01011 G
b0000000000010101100001011 I
b00000000000000000000000000000001 K
b00000000000000000000000000000001 Q
b00000000000000000000000000010000 R
1U
b00000000000000000000000000010000 X
b00000000000000000000000000010100 Z
b00000000000000000000000000010001 [
b00000000000000000000000000010100 \
#100
0U
#101
b00000000000000000000000000001111 -
b00000000000000000000000000010000 .
b11111110011001011001110011100011 C
b1100011 D
b00110 F
b11001 G
b00000000000000000000000000010000 H
b1111111001100101100111001 I
b01 J
b11111111111111111111111111111000 K
0L
0M
1N
b001 O
b00000000000000000000000011111111 Q
b11111111111111111111111100010001 R
b0001 S
b10 T
1U
b00000000000000000000000000001111 W
b00000000000000000000000000010100 X
b00000000000000000000000011111111 Y
b00000000000000000000000000011000 Z
b00000000000000000000000000001100 [
b00000000000000000000000000001100 \
#102
0U
#103
b00000000000001011000010100010011 C
b0010011 D
b00000 F
b01010 G
b0000000000000101100001010 I
b00 J
b00000000000000000000000000000000 K
1L
1M
0N
b000 O
b00000000000000000000000000000000 Q
b00000000000000000000000000010000 R
b0000 S
b00 T
1U
b00000000000000000000000000001100 X
b00000000000000000000000000000000 Y
b00000000000000000000000000010000 Z
b00000000000000000000000000010000 \
#104
0U
#105
b00000000000101011000010110010011 C
b00001 F
b01011 G
b0000000000010101100001011 I
b00000000000000000000000000000001 K
b00000000000000000000000000000001 Q
b00000000000000000000000000010001 R
1U
b00000000000000000000000000010000 X
b00000000000000000000000000010100 Z
b00000000000000000000000000010001 [
b00000000000000000000000000010100 \
#106
0U
#107
b00000000000000000000000000010000 -
b00000000000000000000000000010001 .
b11111110011001011001110011100011 C
b1100011 D
b00110 F
b11001 G
b00000000000000000000000000010001 H
b1111111001100101100111001 I
b01 J
b11111111111111111111111111111000 K
0L
0M
1N
b001 O
b00000000000000000000000011111111 Q
b11111111111111111111111100010010 R
b0001 S
b10 T
1U
b00000000000000000000000000010000 W
b00000000000000000000000000010100 X
b00000000000000000000000011111111 Y
b00000000000000000000000000011000 Z
b00000000000000000000000000001100 [
b00000000000000000000000000001100 \
#108
0U
