CPUTOP.vcd
$version Generated by VerilatedVcd $end
$date Fri Nov 29 12:10:04 2024 $end
$timescale 1ps $end

 $scope module TOP $end
  $var wire 32 i a0 [31:0] $end
  $var wire  1 g clk $end
  $var wire  1 h rst $end
  $scope module CPUTOP $end
   $var wire  4 M ALUControl [3:0] $end
   $var wire  1 K ALUSrc $end
   $var wire 32 k ALUout [31:0] $end
   $var wire 32 I ImmExt [31:0] $end
   $var wire 32 H Instr [31:0] $end
   $var wire  1 Q MemWrite $end
   $var wire 32 G PC [31:0] $end
   $var wire 32 n PCJALR [31:0] $end
   $var wire 32 P PCPlus4 [31:0] $end
   $var wire  2 L PCSrc [1:0] $end
   $var wire  1 J RegWrite $end
   $var wire  2 R ResultSrc [1:0] $end
   $var wire  2 o SizeSrc [1:0] $end
   $var wire 32 l SrcA [31:0] $end
   $var wire 32 m SrcB [31:0] $end
   $var wire  1 N Zero $end
   $var wire 32 i a0 [31:0] $end
   $var wire  1 g clk $end
   $var wire  7 O op [6:0] $end
   $var wire  5 W rd [4:0] $end
   $var wire  5 U rs1 [4:0] $end
   $var wire  5 V rs2 [4:0] $end
   $var wire  1 h rst $end
   $var wire  1 S signedLess $end
   $var wire  1 T unsignedLess $end
   $scope module ALUTop $end
    $var wire  4 M ALUControl [3:0] $end
    $var wire 32 Z ALUResult [31:0] $end
    $var wire  1 K ALUSrc $end
    $var wire 32 I ImmExt [31:0] $end
    $var wire  1 p LoadSign $end
    $var wire  1 Q MemWrite $end
    $var wire 32 P PCPlus4 [31:0] $end
    $var wire 32 j RD2 [31:0] $end
    $var wire 32 [ ReadData [31:0] $end
    $var wire  1 J RegWrite $end
    $var wire 32 \ Result [31:0] $end
    $var wire  2 R ResultSrc [1:0] $end
    $var wire  2 q SizeSrc [1:0] $end
    $var wire 32 X SrcA [31:0] $end
    $var wire 32 Y SrcB [31:0] $end
    $var wire 32 r WriteData [31:0] $end
    $var wire  1 N Zero $end
    $var wire 32 i a0 [31:0] $end
    $var wire  1 g clk $end
    $var wire  5 W rd [4:0] $end
    $var wire  5 U rs1 [4:0] $end
    $var wire  5 V rs2 [4:0] $end
    $var wire  1 S signedLess $end
    $var wire  1 T unsignedLess $end
    $scope module ALU $end
     $var wire  4 M ALUControl [3:0] $end
     $var wire 32 Z ALUResult [31:0] $end
     $var wire 32 X SrcA [31:0] $end
     $var wire 32 Y SrcB [31:0] $end
     $var wire  1 N Zero $end
     $var wire  1 S signedLess $end
     $var wire  1 T unsignedLess $end
    $upscope $end
    $scope module ALUMux1 $end
     $var wire  1 K ALUSrc $end
     $var wire 32 I ImmExt [31:0] $end
     $var wire 32 j RD2 [31:0] $end
     $var wire 32 Y SrcB [31:0] $end
    $upscope $end
    $scope module ALUMux2 $end
     $var wire 32 Z ALUResult [31:0] $end
     $var wire 32 P PCPlus4 [31:0] $end
     $var wire 32 [ ReadData [31:0] $end
     $var wire 32 \ Result [31:0] $end
     $var wire  2 R ResultSrc [1:0] $end
    $upscope $end
    $scope module DataMemory $end
     $var wire 32 Z ALUResult [31:0] $end
     $var wire  1 p LoadSign $end
     $var wire  1 Q MemWrite $end
     $var wire 32 [ ReadData [31:0] $end
     $var wire  2 q SizeSrc [1:0] $end
     $var wire 32 r WriteData [31:0] $end
     $var wire 17 ] address [16:0] $end
     $var wire  1 g clk $end
    $upscope $end
    $scope module RegisterFile $end
     $var wire  5 U A1 [4:0] $end
     $var wire  5 V A2 [4:0] $end
     $var wire  5 W A3 [4:0] $end
     $var wire 32 X RD1 [31:0] $end
     $var wire 32 j RD2 [31:0] $end
     $var wire 32 \ WD3 [31:0] $end
     $var wire  1 J WE3 $end
     $var wire 32 i a0 [31:0] $end
     $var wire  1 g clk $end
     $var wire 32 ' registerarr[0] [31:0] $end
     $var wire 32 1 registerarr[10] [31:0] $end
     $var wire 32 2 registerarr[11] [31:0] $end
     $var wire 32 3 registerarr[12] [31:0] $end
     $var wire 32 4 registerarr[13] [31:0] $end
     $var wire 32 5 registerarr[14] [31:0] $end
     $var wire 32 6 registerarr[15] [31:0] $end
     $var wire 32 7 registerarr[16] [31:0] $end
     $var wire 32 8 registerarr[17] [31:0] $end
     $var wire 32 9 registerarr[18] [31:0] $end
     $var wire 32 : registerarr[19] [31:0] $end
     $var wire 32 ( registerarr[1] [31:0] $end
     $var wire 32 ; registerarr[20] [31:0] $end
     $var wire 32 < registerarr[21] [31:0] $end
     $var wire 32 = registerarr[22] [31:0] $end
     $var wire 32 > registerarr[23] [31:0] $end
     $var wire 32 ? registerarr[24] [31:0] $end
     $var wire 32 @ registerarr[25] [31:0] $end
     $var wire 32 A registerarr[26] [31:0] $end
     $var wire 32 B registerarr[27] [31:0] $end
     $var wire 32 C registerarr[28] [31:0] $end
     $var wire 32 D registerarr[29] [31:0] $end
     $var wire 32 ) registerarr[2] [31:0] $end
     $var wire 32 E registerarr[30] [31:0] $end
     $var wire 32 F registerarr[31] [31:0] $end
     $var wire 32 * registerarr[3] [31:0] $end
     $var wire 32 + registerarr[4] [31:0] $end
     $var wire 32 , registerarr[5] [31:0] $end
     $var wire 32 - registerarr[6] [31:0] $end
     $var wire 32 . registerarr[7] [31:0] $end
     $var wire 32 / registerarr[8] [31:0] $end
     $var wire 32 0 registerarr[9] [31:0] $end
    $upscope $end
   $upscope $end
   $scope module InstrTop $end
    $var wire  4 M ALUControl [3:0] $end
    $var wire  1 K ALUSrc $end
    $var wire 32 I ImmExt [31:0] $end
    $var wire 25 a ImmIn [31:7] $end
    $var wire  3 ` ImmSrc [2:0] $end
    $var wire 32 H Instr [31:0] $end
    $var wire  1 _ LoadSign $end
    $var wire  1 Q MemWrite $end
    $var wire 32 G PC [31:0] $end
    $var wire  2 L PCSrc [1:0] $end
    $var wire  1 J RegWrite $end
    $var wire  2 R ResultSrc [1:0] $end
    $var wire  2 ^ SizeSrc [1:0] $end
    $var wire  1 N Zero $end
    $var wire  3 b funct3 [2:0] $end
    $var wire  7 c funct7 [6:0] $end
    $var wire  7 O op [6:0] $end
    $var wire  1 S signedLess $end
    $var wire  1 T unsignedLess $end
    $scope module ControlUnit $end
     $var wire  4 M ALUControl [3:0] $end
     $var wire  1 K ALUSrc $end
     $var wire  3 ` ImmSrc [2:0] $end
     $var wire  1 _ LoadSign $end
     $var wire  1 Q MemWrite $end
     $var wire  2 L PCSrc [1:0] $end
     $var wire  1 J RegWrite $end
     $var wire  2 R ResultSrc [1:0] $end
     $var wire  2 ^ SizeSrc [1:0] $end
     $var wire  1 N Zero $end
     $var wire  3 b funct3 [2:0] $end
     $var wire  7 c funct7 [6:0] $end
     $var wire  7 O op [6:0] $end
     $var wire  1 S signedLess $end
     $var wire  1 T unsignedLess $end
    $upscope $end
    $scope module Extend $end
     $var wire 32 I ImmExt [31:0] $end
     $var wire 25 a ImmIn [31:7] $end
     $var wire  3 ` ImmSrc [2:0] $end
    $upscope $end
    $scope module HexFileLoader $end
     $scope module unnamedblk1 $end
      $var wire 32 & addr [31:0] $end
      $var wire 32 # file [31:0] $end
      $var wire 32 % instr_word [31:0] $end
      $var wire 32 $ r [31:0] $end
     $upscope $end
    $upscope $end
    $scope module InstructionMemory $end
     $var wire 32 H Instr [31:0] $end
     $var wire 32 G PC [31:0] $end
     $var wire  1 d ValidAddr $end
    $upscope $end
   $upscope $end
   $scope module PCTop $end
    $var wire 32 I ImmExt [31:0] $end
    $var wire 32 G PC [31:0] $end
    $var wire 32 n PCJALR [31:0] $end
    $var wire 32 f PCNext [31:0] $end
    $var wire 32 P PCPlus4 [31:0] $end
    $var wire  2 L PCSrc [1:0] $end
    $var wire 32 e PCTarget [31:0] $end
    $var wire  1 g clk $end
    $var wire  1 h rst $end
    $scope module PCMux $end
     $var wire 32 n PCJALR [31:0] $end
     $var wire 32 f PCNext [31:0] $end
     $var wire 32 P PCPlus4 [31:0] $end
     $var wire  2 L PCSrc [1:0] $end
     $var wire 32 e PCTarget [31:0] $end
    $upscope $end
    $scope module PCReg $end
     $var wire 32 G PC [31:0] $end
     $var wire 32 f PCNext [31:0] $end
     $var wire  1 g clk $end
     $var wire  1 h rst $end
    $upscope $end
   $upscope $end
  $upscope $end
 $upscope $end
$enddefinitions $end


#0
b00000000000000000000000000000000 #
b00000000000000000000000000000000 $
b00000000000000000000000000000000 %
b00000000000000000000000000000000 &
b00000000000000000000000000000000 '
b00000000000000000000000000000000 (
b00000000000000000000000000000000 )
b00000000000000000000000000000000 *
b00000000000000000000000000000000 +
b00000000000000000000000000000000 ,
b00000000000000000000000000000000 -
b00000000000000000000000000000000 .
b00000000000000000000000000000000 /
b00000000000000000000000000000000 0
b00000000000000000000000000000000 1
b00000000000000000000000000000000 2
b00000000000000000000000000000000 3
b00000000000000000000000000000000 4
b00000000000000000000000000000000 5
b00000000000000000000000000000000 6
b00000000000000000000000000000000 7
b00000000000000000000000000000000 8
b00000000000000000000000000000000 9
b00000000000000000000000000000000 :
b00000000000000000000000000000000 ;
b00000000000000000000000000000000 <
b00000000000000000000000000000000 =
b00000000000000000000000000000000 >
b00000000000000000000000000000000 ?
b00000000000000000000000000000000 @
b00000000000000000000000000000000 A
b00000000000000000000000000000000 B
b00000000000000000000000000000000 C
b00000000000000000000000000000000 D
b00000000000000000000000000000000 E
b00000000000000000000000000000000 F
b00000000000000000000000000000000 G
b00000000000000000000000000000000 H
b00000000000000000000000000000000 I
0J
0K
b00 L
b0000 M
0N
b0000000 O
b00000000000000000000000000000100 P
0Q
b00 R
0S
0T
b00000 U
b00000 V
b00000 W
b00000000000000000000000000000000 X
b00000000000000000000000000000000 Y
b00000000000000000000000000000000 Z
b00000000000000000000000000000000 [
b00000000000000000000000000000000 \
b00000000000000000 ]
b00 ^
0_
b000 `
b0000000000000000000000000 a
b000 b
b0000000 c
0d
b00000000000000000000000000000000 e
b00000000000000000000000000000100 f
0g
0h
b00000000000000000000000000000000 i
b00000000000000000000000000000000 j
b00000000000000000000000000000000 k
b00000000000000000000000000000000 l
b00000000000000000000000000000000 m
b00000000000000000000000000000000 n
b00 o
0p
b00 q
b00000000000000000000000000000000 r
#1
b00000000000000000000000000000001 $
b00000000000000000000001111110100 &
b10111111110000000000000000000000 G
b00000000000000000000010100010011 H
1J
1K
b0010011 O
b10111111110000000000000000000100 P
b01010 W
b0000000000000000000001010 a
1d
b10111111110000000000000000000000 e
b10111111110000000000000000000100 f
1g
#2
0g
#3
b10111111110000000000000000000100 G
b00000111010000000000000011101111 H
b00000000000000000000000001110100 I
0K
b01 L
b1101111 O
b10111111110000000000000000001000 P
b10 R
b10100 V
b00001 W
b10111111110000000000000000001000 \
b011 `
b0000011101000000000000001 a
b0000011 c
b10111111110000000000000001111000 e
b10111111110000000000000001111000 f
1g
#4
0g
#5
b10111111110000000000000000001000 (
b10111111110000000000000001111000 G
b00000000000100000000001010010011 H
b00000000000000000000000000000001 I
1K
b00 L
b0010011 O
b10111111110000000000000001111100 P
b00 R
1S
1T
b00001 V
b00101 W
b00000000000000000000000000000001 Y
b00000000000000000000000000000001 Z
b00000000000000000000000000000001 \
b00000000000000001 ]
b000 `
b0000000000010000000000101 a
b0000000 c
b10111111110000000000000001111001 e
b10111111110000000000000001111100 f
1g
b10111111110000000000000000001000 j
#6
0g
#7
b00000000000000000000000000000001 ,
b10111111110000000000000001111100 G
b00000000001000000000001100010011 H
b00000000000000000000000000000010 I
b10111111110000000000000010000000 P
b00010 V
b00110 W
b00000000000000000000000000000010 Y
b00000000000000000000000000000010 Z
b00000000000000000000000000000010 \
b00000000000000010 ]
b0000000000100000000000110 a
b10111111110000000000000001111110 e
b10111111110000000000000010000000 f
1g
b00000000000000000000000000000000 j
#8
0g
#9
b00000000000000000000000000000010 -
b10111111110000000000000010000000 G
b00000000011000101000001110110011 H
b00000000000000000000000000000110 I
0K
b0110011 O
b10111111110000000000000010000100 P
b00101 U
b00110 V
b00111 W
b00000000000000000000000000000001 X
b00000000000000000000000000000011 Z
b00000000000000000000000000000011 \
b00000000000000011 ]
b0000000001100010100000111 a
b10111111110000000000000010000110 e
b10111111110000000000000010000100 f
1g
b00000000000000000000000000000010 j
#10
0g
#11
b00000000000000000000000000000011 .
b10111111110000000000000010000100 G
b00000000001100000000111000010011 H
b00000000000000000000000000000011 I
1K
b0010011 O
b10111111110000000000000010001000 P
b00000 U
b00011 V
b11100 W
b00000000000000000000000000000000 X
b00000000000000000000000000000011 Y
b0000000000110000000011100 a
b10111111110000000000000010000111 e
b10111111110000000000000010001000 f
1g
b00000000000000000000000000000000 j
#12
0g
#13
b00000000000000000000000000000011 C
b10111111110000000000000010001000 G
b00110111110000111001001001100011 H
b00000000000000000000001101100100 I
0J
0K
b0001 M
1N
b1100011 O
b10111111110000000000000010001100 P
0S
0T
b00111 U
b11100 V
b00100 W
b00000000000000000000000000000011 X
b00000000000000000000000000000000 Z
b00000000000000000000000000000000 \
b00000000000000000 ]
b010 `
b0011011111000011100100100 a
b001 b
b0011011 c
b10111111110000000000001111101100 e
b10111111110000000000000010001100 f
1g
b00000000000000000000000000000011 j
#14
0g
#15
b10111111110000000000000010001100 G
b00000000000101010000010100010011 H
b00000000000000000000000000000001 I
1J
1K
b0000 M
0N
b0010011 O
b10111111110000000000000010010000 P
1S
1T
b01010 U
b00001 V
b01010 W
b00000000000000000000000000000000 X
b00000000000000000000000000000001 Y
b00000000000000000000000000000001 Z
b00000000000000000000000000000001 \
b00000000000000001 ]
b000 `
b0000000000010101000001010 a
b000 b
b0000000 c
b10111111110000000000000010001101 e
b10111111110000000000000010010000 f
1g
b10111111110000000000000000001000 j
#16
0g
#17
b00000000000000000000000000000001 1
b10111111110000000000000010010000 G
b00000000000000001000000001100111 H
b00000000000000001000000000000000 I
b10 L
b1100111 O
b10111111110000000000000010010100 P
b10 R
0T
b00001 U
b00000 V
b00000 W
b10111111110000000000000000001000 X
b00000000000000001000000000000000 Y
b10111111110000001000000000001000 Z
b10111111110000000000000010010100 \
b01000000000001000 ]
b011 `
b0000000000000000100000000 a
b10111111110000001000000010010000 e
b00000000000000000000000000000000 f
1g
b00000000000000000000000000000001 i
b00000000000000000000000000000000 j
#18
0g
#19
b00000000000000000000000000000000 G
b00000000000000000000000000000000 H
b00000000000000000000000000000000 I
0J
0K
b00 L
b1111 M
b0000000 O
b00000000000000000000000000000100 P
b00 R
0S
b00000 U
b00000000000000000000000000000000 X
b00000000000000000000000000000000 Y
b00000000000000000000000000000000 Z
b00000000000000000000000000000000 \
b00000000000000000 ]
b111 `
b0000000000000000000000000 a
0d
b00000000000000000000000000000000 e
b00000000000000000000000000000100 f
1g
#20
0g
#21
b00000000000000000000000000000100 G
b00000000000000000000000000001000 P
b00000000000000000000000000000100 e
b00000000000000000000000000001000 f
1g
#22
0g
#23
b00000000000000000000000000001000 G
b00000000000000000000000000001100 P
b00000000000000000000000000001000 e
b00000000000000000000000000001100 f
1g
#24
0g
#25
b00000000000000000000000000001100 G
b00000000000000000000000000010000 P
b00000000000000000000000000001100 e
b00000000000000000000000000010000 f
1g
#26
0g
#27
b00000000000000000000000000010000 G
b00000000000000000000000000010100 P
b00000000000000000000000000010000 e
b00000000000000000000000000010100 f
1g
#28
0g
#29
b00000000000000000000000000010100 G
b00000000000000000000000000011000 P
b00000000000000000000000000010100 e
b00000000000000000000000000011000 f
1g
#30
0g
#31
b00000000000000000000000000011000 G
b00000000000000000000000000011100 P
b00000000000000000000000000011000 e
b00000000000000000000000000011100 f
1g
#32
0g
#33
b00000000000000000000000000011100 G
b00000000000000000000000000100000 P
b00000000000000000000000000011100 e
b00000000000000000000000000100000 f
1g
#34
0g
#35
b00000000000000000000000000100000 G
b00000000000000000000000000100100 P
b00000000000000000000000000100000 e
b00000000000000000000000000100100 f
1g
#36
0g
#37
b00000000000000000000000000100100 G
b00000000000000000000000000101000 P
b00000000000000000000000000100100 e
b00000000000000000000000000101000 f
1g
#38
0g
#39
b00000000000000000000000000101000 G
b00000000000000000000000000101100 P
b00000000000000000000000000101000 e
b00000000000000000000000000101100 f
1g
#40
0g
#41
b00000000000000000000000000101100 G
b00000000000000000000000000110000 P
b00000000000000000000000000101100 e
b00000000000000000000000000110000 f
1g
#42
0g
#43
b00000000000000000000000000110000 G
b00000000000000000000000000110100 P
b00000000000000000000000000110000 e
b00000000000000000000000000110100 f
1g
#44
0g
#45
b00000000000000000000000000110100 G
b00000000000000000000000000111000 P
b00000000000000000000000000110100 e
b00000000000000000000000000111000 f
1g
#46
0g
#47
b00000000000000000000000000111000 G
b00000000000000000000000000111100 P
b00000000000000000000000000111000 e
b00000000000000000000000000111100 f
1g
#48
0g
#49
b00000000000000000000000000111100 G
b00000000000000000000000001000000 P
b00000000000000000000000000111100 e
b00000000000000000000000001000000 f
1g
#50
0g
#51
b00000000000000000000000001000000 G
b00000000000000000000000001000100 P
b00000000000000000000000001000000 e
b00000000000000000000000001000100 f
1g
#52
0g
#53
b00000000000000000000000001000100 G
b00000000000000000000000001001000 P
b00000000000000000000000001000100 e
b00000000000000000000000001001000 f
1g
#54
0g
#55
b00000000000000000000000001001000 G
b00000000000000000000000001001100 P
b00000000000000000000000001001000 e
b00000000000000000000000001001100 f
1g
#56
0g
#57
b00000000000000000000000001001100 G
b00000000000000000000000001010000 P
b00000000000000000000000001001100 e
b00000000000000000000000001010000 f
1g
#58
0g
#59
b00000000000000000000000001010000 G
b00000000000000000000000001010100 P
b00000000000000000000000001010000 e
b00000000000000000000000001010100 f
1g
#60
0g
#61
b00000000000000000000000001010100 G
b00000000000000000000000001011000 P
b00000000000000000000000001010100 e
b00000000000000000000000001011000 f
1g
#62
0g
#63
b00000000000000000000000001011000 G
b00000000000000000000000001011100 P
b00000000000000000000000001011000 e
b00000000000000000000000001011100 f
1g
#64
0g
#65
b00000000000000000000000001011100 G
b00000000000000000000000001100000 P
b00000000000000000000000001011100 e
b00000000000000000000000001100000 f
1g
#66
0g
#67
b00000000000000000000000001100000 G
b00000000000000000000000001100100 P
b00000000000000000000000001100000 e
b00000000000000000000000001100100 f
1g
#68
0g
#69
b00000000000000000000000001100100 G
b00000000000000000000000001101000 P
b00000000000000000000000001100100 e
b00000000000000000000000001101000 f
1g
#70
0g
#71
b00000000000000000000000001101000 G
b00000000000000000000000001101100 P
b00000000000000000000000001101000 e
b00000000000000000000000001101100 f
1g
#72
0g
#73
b00000000000000000000000001101100 G
b00000000000000000000000001110000 P
b00000000000000000000000001101100 e
b00000000000000000000000001110000 f
1g
#74
0g
#75
b00000000000000000000000001110000 G
b00000000000000000000000001110100 P
b00000000000000000000000001110000 e
b00000000000000000000000001110100 f
1g
#76
0g
#77
b00000000000000000000000001110100 G
b00000000000000000000000001111000 P
b00000000000000000000000001110100 e
b00000000000000000000000001111000 f
1g
#78
0g
#79
b00000000000000000000000001111000 G
b00000000000000000000000001111100 P
b00000000000000000000000001111000 e
b00000000000000000000000001111100 f
1g
#80
0g
#81
b00000000000000000000000001111100 G
b00000000000000000000000010000000 P
b00000000000000000000000001111100 e
b00000000000000000000000010000000 f
1g
#82
0g
#83
b00000000000000000000000010000000 G
b00000000000000000000000010000100 P
b00000000000000000000000010000000 e
b00000000000000000000000010000100 f
1g
#84
0g
#85
b00000000000000000000000010000100 G
b00000000000000000000000010001000 P
b00000000000000000000000010000100 e
b00000000000000000000000010001000 f
1g
#86
0g
#87
b00000000000000000000000010001000 G
b00000000000000000000000010001100 P
b00000000000000000000000010001000 e
b00000000000000000000000010001100 f
1g
#88
0g
#89
b00000000000000000000000010001100 G
b00000000000000000000000010010000 P
b00000000000000000000000010001100 e
b00000000000000000000000010010000 f
1g
#90
0g
#91
b00000000000000000000000010010000 G
b00000000000000000000000010010100 P
b00000000000000000000000010010000 e
b00000000000000000000000010010100 f
1g
#92
0g
#93
b00000000000000000000000010010100 G
b00000000000000000000000010011000 P
b00000000000000000000000010010100 e
b00000000000000000000000010011000 f
1g
#94
0g
#95
b00000000000000000000000010011000 G
b00000000000000000000000010011100 P
b00000000000000000000000010011000 e
b00000000000000000000000010011100 f
1g
#96
0g
#97
b00000000000000000000000010011100 G
b00000000000000000000000010100000 P
b00000000000000000000000010011100 e
b00000000000000000000000010100000 f
1g
#98
0g
#99
b00000000000000000000000010100000 G
b00000000000000000000000010100100 P
b00000000000000000000000010100000 e
b00000000000000000000000010100100 f
1g
#100
0g
#101
b00000000000000000000000010100100 G
b00000000000000000000000010101000 P
b00000000000000000000000010100100 e
b00000000000000000000000010101000 f
1g
#102
0g
#103
b00000000000000000000000010101000 G
b00000000000000000000000010101100 P
b00000000000000000000000010101000 e
b00000000000000000000000010101100 f
1g
#104
0g
#105
b00000000000000000000000010101100 G
b00000000000000000000000010110000 P
b00000000000000000000000010101100 e
b00000000000000000000000010110000 f
1g
#106
0g
#107
b00000000000000000000000010110000 G
b00000000000000000000000010110100 P
b00000000000000000000000010110000 e
b00000000000000000000000010110100 f
1g
#108
0g
#109
b00000000000000000000000010110100 G
b00000000000000000000000010111000 P
b00000000000000000000000010110100 e
b00000000000000000000000010111000 f
1g
#110
0g
#111
b00000000000000000000000010111000 G
b00000000000000000000000010111100 P
b00000000000000000000000010111000 e
b00000000000000000000000010111100 f
1g
#112
0g
#113
b00000000000000000000000010111100 G
b00000000000000000000000011000000 P
b00000000000000000000000010111100 e
b00000000000000000000000011000000 f
1g
#114
0g
#115
b00000000000000000000000011000000 G
b00000000000000000000000011000100 P
b00000000000000000000000011000000 e
b00000000000000000000000011000100 f
1g
#116
0g
#117
b00000000000000000000000011000100 G
b00000000000000000000000011001000 P
b00000000000000000000000011000100 e
b00000000000000000000000011001000 f
1g
#118
0g
#119
b00000000000000000000000011001000 G
b00000000000000000000000011001100 P
b00000000000000000000000011001000 e
b00000000000000000000000011001100 f
1g
#120
0g
#121
b00000000000000000000000011001100 G
b00000000000000000000000011010000 P
b00000000000000000000000011001100 e
b00000000000000000000000011010000 f
1g
#122
0g
#123
b00000000000000000000000011010000 G
b00000000000000000000000011010100 P
b00000000000000000000000011010000 e
b00000000000000000000000011010100 f
1g
#124
0g
#125
b00000000000000000000000011010100 G
b00000000000000000000000011011000 P
b00000000000000000000000011010100 e
b00000000000000000000000011011000 f
1g
#126
0g
#127
b00000000000000000000000011011000 G
b00000000000000000000000011011100 P
b00000000000000000000000011011000 e
b00000000000000000000000011011100 f
1g
#128
0g
#129
b00000000000000000000000011011100 G
b00000000000000000000000011100000 P
b00000000000000000000000011011100 e
b00000000000000000000000011100000 f
1g
#130
0g
#131
b00000000000000000000000011100000 G
b00000000000000000000000011100100 P
b00000000000000000000000011100000 e
b00000000000000000000000011100100 f
1g
#132
0g
#133
b00000000000000000000000011100100 G
b00000000000000000000000011101000 P
b00000000000000000000000011100100 e
b00000000000000000000000011101000 f
1g
#134
0g
#135
b00000000000000000000000011101000 G
b00000000000000000000000011101100 P
b00000000000000000000000011101000 e
b00000000000000000000000011101100 f
1g
#136
0g
#137
b00000000000000000000000011101100 G
b00000000000000000000000011110000 P
b00000000000000000000000011101100 e
b00000000000000000000000011110000 f
1g
#138
0g
#139
b00000000000000000000000011110000 G
b00000000000000000000000011110100 P
b00000000000000000000000011110000 e
b00000000000000000000000011110100 f
1g
#140
0g
#141
b00000000000000000000000011110100 G
b00000000000000000000000011111000 P
b00000000000000000000000011110100 e
b00000000000000000000000011111000 f
1g
#142
0g
#143
b00000000000000000000000011111000 G
b00000000000000000000000011111100 P
b00000000000000000000000011111000 e
b00000000000000000000000011111100 f
1g
#144
0g
#145
b00000000000000000000000011111100 G
b00000000000000000000000100000000 P
b00000000000000000000000011111100 e
b00000000000000000000000100000000 f
1g
#146
0g
#147
b00000000000000000000000100000000 G
b00000000000000000000000100000100 P
b00000000000000000000000100000000 e
b00000000000000000000000100000100 f
1g
#148
0g
#149
b00000000000000000000000100000100 G
b00000000000000000000000100001000 P
b00000000000000000000000100000100 e
b00000000000000000000000100001000 f
1g
#150
0g
#151
b00000000000000000000000100001000 G
b00000000000000000000000100001100 P
b00000000000000000000000100001000 e
b00000000000000000000000100001100 f
1g
#152
0g
#153
b00000000000000000000000100001100 G
b00000000000000000000000100010000 P
b00000000000000000000000100001100 e
b00000000000000000000000100010000 f
1g
#154
0g
#155
b00000000000000000000000100010000 G
b00000000000000000000000100010100 P
b00000000000000000000000100010000 e
b00000000000000000000000100010100 f
1g
#156
0g
#157
b00000000000000000000000100010100 G
b00000000000000000000000100011000 P
b00000000000000000000000100010100 e
b00000000000000000000000100011000 f
1g
#158
0g
#159
b00000000000000000000000100011000 G
b00000000000000000000000100011100 P
b00000000000000000000000100011000 e
b00000000000000000000000100011100 f
1g
#160
0g
#161
b00000000000000000000000100011100 G
b00000000000000000000000100100000 P
b00000000000000000000000100011100 e
b00000000000000000000000100100000 f
1g
#162
0g
#163
b00000000000000000000000100100000 G
b00000000000000000000000100100100 P
b00000000000000000000000100100000 e
b00000000000000000000000100100100 f
1g
#164
0g
#165
b00000000000000000000000100100100 G
b00000000000000000000000100101000 P
b00000000000000000000000100100100 e
b00000000000000000000000100101000 f
1g
#166
0g
#167
b00000000000000000000000100101000 G
b00000000000000000000000100101100 P
b00000000000000000000000100101000 e
b00000000000000000000000100101100 f
1g
#168
0g
#169
b00000000000000000000000100101100 G
b00000000000000000000000100110000 P
b00000000000000000000000100101100 e
b00000000000000000000000100110000 f
1g
#170
0g
#171
b00000000000000000000000100110000 G
b00000000000000000000000100110100 P
b00000000000000000000000100110000 e
b00000000000000000000000100110100 f
1g
#172
0g
#173
b00000000000000000000000100110100 G
b00000000000000000000000100111000 P
b00000000000000000000000100110100 e
b00000000000000000000000100111000 f
1g
#174
0g
#175
b00000000000000000000000100111000 G
b00000000000000000000000100111100 P
b00000000000000000000000100111000 e
b00000000000000000000000100111100 f
1g
#176
0g
#177
b00000000000000000000000100111100 G
b00000000000000000000000101000000 P
b00000000000000000000000100111100 e
b00000000000000000000000101000000 f
1g
#178
0g
#179
b00000000000000000000000101000000 G
b00000000000000000000000101000100 P
b00000000000000000000000101000000 e
b00000000000000000000000101000100 f
1g
#180
0g
#181
b00000000000000000000000101000100 G
b00000000000000000000000101001000 P
b00000000000000000000000101000100 e
b00000000000000000000000101001000 f
1g
#182
0g
#183
b00000000000000000000000101001000 G
b00000000000000000000000101001100 P
b00000000000000000000000101001000 e
b00000000000000000000000101001100 f
1g
#184
0g
#185
b00000000000000000000000101001100 G
b00000000000000000000000101010000 P
b00000000000000000000000101001100 e
b00000000000000000000000101010000 f
1g
#186
0g
#187
b00000000000000000000000101010000 G
b00000000000000000000000101010100 P
b00000000000000000000000101010000 e
b00000000000000000000000101010100 f
1g
#188
0g
#189
b00000000000000000000000101010100 G
b00000000000000000000000101011000 P
b00000000000000000000000101010100 e
b00000000000000000000000101011000 f
1g
#190
0g
#191
b00000000000000000000000101011000 G
b00000000000000000000000101011100 P
b00000000000000000000000101011000 e
b00000000000000000000000101011100 f
1g
#192
0g
#193
b00000000000000000000000101011100 G
b00000000000000000000000101100000 P
b00000000000000000000000101011100 e
b00000000000000000000000101100000 f
1g
#194
0g
#195
b00000000000000000000000101100000 G
b00000000000000000000000101100100 P
b00000000000000000000000101100000 e
b00000000000000000000000101100100 f
1g
#196
0g
#197
b00000000000000000000000101100100 G
b00000000000000000000000101101000 P
b00000000000000000000000101100100 e
b00000000000000000000000101101000 f
1g
#198
0g
#199
b00000000000000000000000101101000 G
b00000000000000000000000101101100 P
b00000000000000000000000101101000 e
b00000000000000000000000101101100 f
1g
#200
0g
#201
b00000000000000000000000101101100 G
b00000000000000000000000101110000 P
b00000000000000000000000101101100 e
b00000000000000000000000101110000 f
1g
#202
0g
#203
b00000000000000000000000101110000 G
b00000000000000000000000101110100 P
b00000000000000000000000101110000 e
b00000000000000000000000101110100 f
1g
#204
0g
#205
b00000000000000000000000101110100 G
b00000000000000000000000101111000 P
b00000000000000000000000101110100 e
b00000000000000000000000101111000 f
1g
#206
0g
#207
b00000000000000000000000101111000 G
b00000000000000000000000101111100 P
b00000000000000000000000101111000 e
b00000000000000000000000101111100 f
1g
#208
0g
#209
b00000000000000000000000101111100 G
b00000000000000000000000110000000 P
b00000000000000000000000101111100 e
b00000000000000000000000110000000 f
1g
#210
0g
#211
b00000000000000000000000110000000 G
b00000000000000000000000110000100 P
b00000000000000000000000110000000 e
b00000000000000000000000110000100 f
1g
#212
0g
#213
b00000000000000000000000110000100 G
b00000000000000000000000110001000 P
b00000000000000000000000110000100 e
b00000000000000000000000110001000 f
1g
#214
0g
#215
b00000000000000000000000110001000 G
b00000000000000000000000110001100 P
b00000000000000000000000110001000 e
b00000000000000000000000110001100 f
1g
#216
0g
#217
b00000000000000000000000110001100 G
b00000000000000000000000110010000 P
b00000000000000000000000110001100 e
b00000000000000000000000110010000 f
1g
#218
0g
#219
b00000000000000000000000110010000 G
b00000000000000000000000110010100 P
b00000000000000000000000110010000 e
b00000000000000000000000110010100 f
1g
#220
0g
#221
b00000000000000000000000110010100 G
b00000000000000000000000110011000 P
b00000000000000000000000110010100 e
b00000000000000000000000110011000 f
1g
#222
0g
#223
b00000000000000000000000110011000 G
b00000000000000000000000110011100 P
b00000000000000000000000110011000 e
b00000000000000000000000110011100 f
1g
#224
0g
#225
b00000000000000000000000110011100 G
b00000000000000000000000110100000 P
b00000000000000000000000110011100 e
b00000000000000000000000110100000 f
1g
#226
0g
#227
b00000000000000000000000110100000 G
b00000000000000000000000110100100 P
b00000000000000000000000110100000 e
b00000000000000000000000110100100 f
1g
#228
0g
#229
b00000000000000000000000110100100 G
b00000000000000000000000110101000 P
b00000000000000000000000110100100 e
b00000000000000000000000110101000 f
1g
#230
0g
#231
b00000000000000000000000110101000 G
b00000000000000000000000110101100 P
b00000000000000000000000110101000 e
b00000000000000000000000110101100 f
1g
#232
0g
