CPUTOP.vcd
$version Generated by VerilatedVcd $end
$date Fri Nov 29 16:39:46 2024 $end
$timescale 1ps $end

 $scope module TOP $end
  $var wire 32 j a0 [31:0] $end
  $var wire  1 h clk $end
  $var wire  1 i rst $end
  $scope module CPUTOP $end
   $var wire  4 M ALUControl [3:0] $end
   $var wire  1 K ALUSrc $end
   $var wire 32 I ImmExt [31:0] $end
   $var wire 32 H Instr [31:0] $end
   $var wire  1 V LoadSign $end
   $var wire  1 P MemWrite $end
   $var wire 32 G PC [31:0] $end
   $var wire 32 T PCJALR [31:0] $end
   $var wire 32 O PCPlus4 [31:0] $end
   $var wire  2 L PCSrc [1:0] $end
   $var wire  1 J RegWrite $end
   $var wire  2 Q ResultSrc [1:0] $end
   $var wire  2 U SizeSrc [1:0] $end
   $var wire  1 N Zero $end
   $var wire 32 j a0 [31:0] $end
   $var wire  1 h clk $end
   $var wire  5 Y rd [4:0] $end
   $var wire  5 W rs1 [4:0] $end
   $var wire  5 X rs2 [4:0] $end
   $var wire  1 i rst $end
   $var wire  1 R signedLess $end
   $var wire  1 S unsignedLess $end
   $scope module ALUTop $end
    $var wire  4 M ALUControl [3:0] $end
    $var wire 32 ] ALUResult [31:0] $end
    $var wire  1 K ALUSrc $end
    $var wire 32 I ImmExt [31:0] $end
    $var wire  1 V LoadSign $end
    $var wire  1 P MemWrite $end
    $var wire 32 O PCPlus4 [31:0] $end
    $var wire 32 \ RD2 [31:0] $end
    $var wire 32 ^ ReadData [31:0] $end
    $var wire  1 J RegWrite $end
    $var wire 32 T Result [31:0] $end
    $var wire 32 T ResultExt [31:0] $end
    $var wire  2 Q ResultSrc [1:0] $end
    $var wire  2 U SizeSrc [1:0] $end
    $var wire 32 Z SrcA [31:0] $end
    $var wire 32 [ SrcB [31:0] $end
    $var wire 32 \ WriteData [31:0] $end
    $var wire  1 N Zero $end
    $var wire 32 j a0 [31:0] $end
    $var wire  1 h clk $end
    $var wire  5 Y rd [4:0] $end
    $var wire  5 W rs1 [4:0] $end
    $var wire  5 X rs2 [4:0] $end
    $var wire  1 R signedLess $end
    $var wire  1 S unsignedLess $end
    $scope module ALU $end
     $var wire  4 M ALUControl [3:0] $end
     $var wire 32 ] ALUResult [31:0] $end
     $var wire 32 Z SrcA [31:0] $end
     $var wire 32 [ SrcB [31:0] $end
     $var wire  1 N Zero $end
     $var wire  1 R signedLess $end
     $var wire  1 S unsignedLess $end
    $upscope $end
    $scope module ALUMux1 $end
     $var wire  1 K ALUSrc $end
     $var wire 32 I ImmExt [31:0] $end
     $var wire 32 \ RD2 [31:0] $end
     $var wire 32 [ SrcB [31:0] $end
    $upscope $end
    $scope module ALUMux2 $end
     $var wire 32 ] ALUResult [31:0] $end
     $var wire 32 O PCPlus4 [31:0] $end
     $var wire 32 ^ ReadData [31:0] $end
     $var wire 32 T Result [31:0] $end
     $var wire  2 Q ResultSrc [1:0] $end
    $upscope $end
    $scope module DataMemory $end
     $var wire 32 ] ALUResult [31:0] $end
     $var wire  1 V LoadSign $end
     $var wire  1 P MemWrite $end
     $var wire 32 ^ ReadData [31:0] $end
     $var wire  2 U SizeSrc [1:0] $end
     $var wire 32 \ WriteData [31:0] $end
     $var wire 17 _ address [16:0] $end
     $var wire  1 h clk $end
    $upscope $end
    $scope module RegisterFile $end
     $var wire  5 W A1 [4:0] $end
     $var wire  5 X A2 [4:0] $end
     $var wire  5 Y A3 [4:0] $end
     $var wire 32 Z RD1 [31:0] $end
     $var wire 32 \ RD2 [31:0] $end
     $var wire 32 T WD3 [31:0] $end
     $var wire  1 J WE3 $end
     $var wire 32 j a0 [31:0] $end
     $var wire  1 h clk $end
     $var wire 32 ' registerarr[0] [31:0] $end
     $var wire 32 1 registerarr[10] [31:0] $end
     $var wire 32 2 registerarr[11] [31:0] $end
     $var wire 32 3 registerarr[12] [31:0] $end
     $var wire 32 4 registerarr[13] [31:0] $end
     $var wire 32 5 registerarr[14] [31:0] $end
     $var wire 32 6 registerarr[15] [31:0] $end
     $var wire 32 7 registerarr[16] [31:0] $end
     $var wire 32 8 registerarr[17] [31:0] $end
     $var wire 32 9 registerarr[18] [31:0] $end
     $var wire 32 : registerarr[19] [31:0] $end
     $var wire 32 ( registerarr[1] [31:0] $end
     $var wire 32 ; registerarr[20] [31:0] $end
     $var wire 32 < registerarr[21] [31:0] $end
     $var wire 32 = registerarr[22] [31:0] $end
     $var wire 32 > registerarr[23] [31:0] $end
     $var wire 32 ? registerarr[24] [31:0] $end
     $var wire 32 @ registerarr[25] [31:0] $end
     $var wire 32 A registerarr[26] [31:0] $end
     $var wire 32 B registerarr[27] [31:0] $end
     $var wire 32 C registerarr[28] [31:0] $end
     $var wire 32 D registerarr[29] [31:0] $end
     $var wire 32 ) registerarr[2] [31:0] $end
     $var wire 32 E registerarr[30] [31:0] $end
     $var wire 32 F registerarr[31] [31:0] $end
     $var wire 32 * registerarr[3] [31:0] $end
     $var wire 32 + registerarr[4] [31:0] $end
     $var wire 32 , registerarr[5] [31:0] $end
     $var wire 32 - registerarr[6] [31:0] $end
     $var wire 32 . registerarr[7] [31:0] $end
     $var wire 32 / registerarr[8] [31:0] $end
     $var wire 32 0 registerarr[9] [31:0] $end
    $upscope $end
   $upscope $end
   $scope module InstrTop $end
    $var wire  4 M ALUControl [3:0] $end
    $var wire  1 K ALUSrc $end
    $var wire 32 I ImmExt [31:0] $end
    $var wire 25 b ImmIn [31:7] $end
    $var wire  3 a ImmSrc [2:0] $end
    $var wire 32 H Instr [31:0] $end
    $var wire  1 V LoadSign $end
    $var wire  1 P MemWrite $end
    $var wire 32 G PC [31:0] $end
    $var wire  2 L PCSrc [1:0] $end
    $var wire  1 J RegWrite $end
    $var wire  2 Q ResultSrc [1:0] $end
    $var wire  2 U SizeSrc [1:0] $end
    $var wire  1 N Zero $end
    $var wire  3 c funct3 [2:0] $end
    $var wire  7 d funct7 [6:0] $end
    $var wire  7 ` op [6:0] $end
    $var wire  1 R signedLess $end
    $var wire  1 S unsignedLess $end
    $scope module ControlUnit $end
     $var wire  4 M ALUControl [3:0] $end
     $var wire  1 K ALUSrc $end
     $var wire  3 a ImmSrc [2:0] $end
     $var wire  1 V LoadSign $end
     $var wire  1 P MemWrite $end
     $var wire  2 L PCSrc [1:0] $end
     $var wire  1 J RegWrite $end
     $var wire  2 Q ResultSrc [1:0] $end
     $var wire  2 U SizeSrc [1:0] $end
     $var wire  1 N Zero $end
     $var wire  3 c funct3 [2:0] $end
     $var wire  7 d funct7 [6:0] $end
     $var wire  7 ` op [6:0] $end
     $var wire  1 R signedLess $end
     $var wire  1 S unsignedLess $end
    $upscope $end
    $scope module Extend $end
     $var wire 32 I ImmExt [31:0] $end
     $var wire 25 b ImmIn [31:7] $end
     $var wire  3 a ImmSrc [2:0] $end
    $upscope $end
    $scope module HexFileLoader $end
     $scope module unnamedblk1 $end
      $var wire 32 & addr [31:0] $end
      $var wire 32 # file [31:0] $end
      $var wire 32 % instr_word [31:0] $end
      $var wire 32 $ r [31:0] $end
     $upscope $end
    $upscope $end
    $scope module InstructionMemory $end
     $var wire 32 H Instr [31:0] $end
     $var wire 32 G PC [31:0] $end
     $var wire  1 e ValidAddr $end
    $upscope $end
   $upscope $end
   $scope module PCTop $end
    $var wire 32 I ImmExt [31:0] $end
    $var wire 32 G PC [31:0] $end
    $var wire 32 T PCJALR [31:0] $end
    $var wire 32 g PCNext [31:0] $end
    $var wire 32 O PCPlus4 [31:0] $end
    $var wire  2 L PCSrc [1:0] $end
    $var wire 32 f PCTarget [31:0] $end
    $var wire  1 h clk $end
    $var wire  1 i rst $end
    $scope module PCMux $end
     $var wire 32 T PCJALR [31:0] $end
     $var wire 32 g PCNext [31:0] $end
     $var wire 32 O PCPlus4 [31:0] $end
     $var wire  2 L PCSrc [1:0] $end
     $var wire 32 f PCTarget [31:0] $end
    $upscope $end
    $scope module PCReg $end
     $var wire 32 G PC [31:0] $end
     $var wire 32 g PCNext [31:0] $end
     $var wire  1 h clk $end
     $var wire  1 i rst $end
    $upscope $end
   $upscope $end
  $upscope $end
 $upscope $end
$enddefinitions $end


#0
b00000000000000000000000000000000 #
b00000000000000000000000000000000 $
b00000000000000000000000000000000 %
b00000000000000000000000000000000 &
b00000000000000000000000000000000 '
b00000000000000000000000000000000 (
b00000000000000000000000000000000 )
b00000000000000000000000000000000 *
b00000000000000000000000000000000 +
b00000000000000000000000000000000 ,
b00000000000000000000000000000000 -
b00000000000000000000000000000000 .
b00000000000000000000000000000000 /
b00000000000000000000000000000000 0
b00000000000000000000000000000000 1
b00000000000000000000000000000000 2
b00000000000000000000000000000000 3
b00000000000000000000000000000000 4
b00000000000000000000000000000000 5
b00000000000000000000000000000000 6
b00000000000000000000000000000000 7
b00000000000000000000000000000000 8
b00000000000000000000000000000000 9
b00000000000000000000000000000000 :
b00000000000000000000000000000000 ;
b00000000000000000000000000000000 <
b00000000000000000000000000000000 =
b00000000000000000000000000000000 >
b00000000000000000000000000000000 ?
b00000000000000000000000000000000 @
b00000000000000000000000000000000 A
b00000000000000000000000000000000 B
b00000000000000000000000000000000 C
b00000000000000000000000000000000 D
b00000000000000000000000000000000 E
b00000000000000000000000000000000 F
b00000000000000000000000000000000 G
b00000000000000000000000000000000 H
b00000000000000000000000000000000 I
0J
0K
b00 L
b0000 M
0N
b00000000000000000000000000000100 O
0P
b00 Q
0R
0S
b00000000000000000000000000000000 T
b00 U
0V
b00000 W
b00000 X
b00000 Y
b00000000000000000000000000000000 Z
b00000000000000000000000000000000 [
b00000000000000000000000000000000 \
b00000000000000000000000000000000 ]
b00000000000000000000000000000000 ^
b00000000000000000 _
b0000000 `
b000 a
b0000000000000000000000000 b
b000 c
b0000000 d
0e
b00000000000000000000000000000000 f
b00000000000000000000000000000100 g
0h
0i
b00000000000000000000000000000000 j
#1
b00000000000000000000000000000001 $
b00000000000000000000001111110100 &
b10111111110000000000000000000000 G
b00000000000000000000010100010011 H
1J
1K
b10111111110000000000000000000100 O
b01010 Y
b0010011 `
b0000000000000000000001010 b
1e
b10111111110000000000000000000000 f
b10111111110000000000000000000100 g
1h
#2
0h
#3
b10111111110000000000000000000100 G
b00000111010000000000000011101111 H
b00000000000000000000000001110100 I
0K
b01 L
b10111111110000000000000000001000 O
b10 Q
b10111111110000000000000000001000 T
b10100 X
b00001 Y
b1101111 `
b011 a
b0000011101000000000000001 b
b0000011 d
b10111111110000000000000001111000 f
b10111111110000000000000001111000 g
1h
#4
0h
#5
b10111111110000000000000000001000 (
b10111111110000000000000001111000 G
b00000000000100000000001010010011 H
b00000000000000000000000000000001 I
1K
b00 L
b10111111110000000000000001111100 O
b00 Q
1R
1S
b00000000000000000000000000000001 T
b00001 X
b00101 Y
b00000000000000000000000000000001 [
b10111111110000000000000000001000 \
b00000000000000000000000000000001 ]
b00000000000000001 _
b0010011 `
b000 a
b0000000000010000000000101 b
b0000000 d
b10111111110000000000000001111001 f
b10111111110000000000000001111100 g
1h
#6
0h
#7
b00000000000000000000000000000001 ,
b10111111110000000000000001111100 G
b00000000001000000000001100010011 H
b00000000000000000000000000000010 I
b10111111110000000000000010000000 O
b00000000000000000000000000000010 T
b00010 X
b00110 Y
b00000000000000000000000000000010 [
b00000000000000000000000000000000 \
b00000000000000000000000000000010 ]
b00000000000000010 _
b0000000000100000000000110 b
b10111111110000000000000001111110 f
b10111111110000000000000010000000 g
1h
#8
0h
#9
b00000000000000000000000000000010 -
b10111111110000000000000010000000 G
b00000000011000101000001110110011 H
b00000000000000000000000000000110 I
0K
b10111111110000000000000010000100 O
b00000000000000000000000000000011 T
b00101 W
b00110 X
b00111 Y
b00000000000000000000000000000001 Z
b00000000000000000000000000000010 \
b00000000000000000000000000000011 ]
b00000000000000011 _
b0110011 `
b0000000001100010100000111 b
b10111111110000000000000010000110 f
b10111111110000000000000010000100 g
1h
#10
0h
#11
b00000000000000000000000000000011 .
b10111111110000000000000010000100 G
b00000000001100000000111000010011 H
b00000000000000000000000000000011 I
1K
b10111111110000000000000010001000 O
b00000 W
b00011 X
b11100 Y
b00000000000000000000000000000000 Z
b00000000000000000000000000000011 [
b00000000000000000000000000000000 \
b0010011 `
b0000000000110000000011100 b
b10111111110000000000000010000111 f
b10111111110000000000000010001000 g
1h
#12
0h
#13
b00000000000000000000000000000011 C
b10111111110000000000000010001000 G
b00110111110000111001001001100011 H
b00000000000000000000001101100100 I
0J
0K
b0001 M
1N
b10111111110000000000000010001100 O
0R
0S
b00000000000000000000000000000000 T
b00111 W
b11100 X
b00100 Y
b00000000000000000000000000000011 Z
b00000000000000000000000000000011 \
b00000000000000000000000000000000 ]
b00000000000000000 _
b1100011 `
b010 a
b0011011111000011100100100 b
b001 c
b0011011 d
b10111111110000000000001111101100 f
b10111111110000000000000010001100 g
1h
#14
0h
#15
b10111111110000000000000010001100 G
b00000000000101010000010100010011 H
b00000000000000000000000000000001 I
1J
1K
b0000 M
0N
b10111111110000000000000010010000 O
1R
1S
b00000000000000000000000000000001 T
b01010 W
b00001 X
b01010 Y
b00000000000000000000000000000000 Z
b00000000000000000000000000000001 [
b10111111110000000000000000001000 \
b00000000000000000000000000000001 ]
b00000000000000001 _
b0010011 `
b000 a
b0000000000010101000001010 b
b000 c
b0000000 d
b10111111110000000000000010001101 f
b10111111110000000000000010010000 g
1h
#16
0h
#17
b00000000000000000000000000000001 1
b10111111110000000000000010010000 G
b00000000000000001000000001100111 H
b00000000000000001000000000000000 I
b10 L
b10111111110000000000000010010100 O
b10 Q
0S
b10111111110000000000000010010100 T
b00001 W
b00000 X
b00000 Y
b10111111110000000000000000001000 Z
b00000000000000001000000000000000 [
b00000000000000000000000000000000 \
b10111111110000001000000000001000 ]
b01000000000001000 _
b1100111 `
b011 a
b0000000000000000100000000 b
b10111111110000001000000010010000 f
b10111111110000000000000010010100 g
1h
b00000000000000000000000000000001 j
#18
0h
#19
b10111111110000000000000010010100 G
b00000000010100000000001010010011 H
b00000000000000000000000000000101 I
b00 L
b10111111110000000000000010011000 O
b00 Q
1S
b00000000000000000000000000000101 T
b00000 W
b00101 X
b00101 Y
b00000000000000000000000000000000 Z
b00000000000000000000000000000101 [
b00000000000000000000000000000001 \
b00000000000000000000000000000101 ]
b00000000000000101 _
b0010011 `
b000 a
b0000000001010000000000101 b
b10111111110000000000000010011001 f
b10111111110000000000000010011000 g
1h
#20
0h
#21
b00000000000000000000000000000101 ,
b10111111110000000000000010011000 G
b00000000001100000000001100010011 H
b00000000000000000000000000000011 I
b10111111110000000000000010011100 O
b00000000000000000000000000000011 T
b00011 X
b00110 Y
b00000000000000000000000000000011 [
b00000000000000000000000000000000 \
b00000000000000000000000000000011 ]
b00000000000000011 _
b0000000000110000000000110 b
b10111111110000000000000010011011 f
b10111111110000000000000010011100 g
1h
#22
0h
#23
b00000000000000000000000000000011 -
b10111111110000000000000010011100 G
b01000000011000101000001110110011 H
b00000000000000000000010000000110 I
0K
b0001 M
b10111111110000000000000010100000 O
0R
0S
b00000000000000000000000000000010 T
b00101 W
b00110 X
b00111 Y
b00000000000000000000000000000101 Z
b00000000000000000000000000000011 \
b00000000000000000000000000000010 ]
b00000000000000010 _
b0110011 `
b0100000001100010100000111 b
b0100000 d
b10111111110000000000010010100010 f
b10111111110000000000000010100000 g
1h
#24
0h
#25
b00000000000000000000000000000010 .
b10111111110000000000000010100000 G
b00000000001000000000111000010011 H
b00000000000000000000000000000010 I
1K
b0000 M
b10111111110000000000000010100100 O
1R
1S
b00000 W
b00010 X
b11100 Y
b00000000000000000000000000000000 Z
b00000000000000000000000000000010 [
b00000000000000000000000000000000 \
b0010011 `
b0000000000100000000011100 b
b0000000 d
b10111111110000000000000010100010 f
b10111111110000000000000010100100 g
1h
#26
0h
#27
b00000000000000000000000000000010 C
b10111111110000000000000010100100 G
b00110101110000111001010001100011 H
b00000000000000000000001101001000 I
0J
0K
b0001 M
1N
b10111111110000000000000010101000 O
0R
0S
b00000000000000000000000000000000 T
b00111 W
b11100 X
b01000 Y
b00000000000000000000000000000010 Z
b00000000000000000000000000000010 \
b00000000000000000000000000000000 ]
b00000000000000000 _
b1100011 `
b010 a
b0011010111000011100101000 b
b001 c
b0011010 d
b10111111110000000000001111101100 f
b10111111110000000000000010101000 g
1h
#28
0h
#29
b10111111110000000000000010101000 G
b00000000000101010000010100010011 H
b00000000000000000000000000000001 I
1J
1K
b0000 M
0N
b10111111110000000000000010101100 O
b00000000000000000000000000000010 T
b01010 W
b00001 X
b01010 Y
b00000000000000000000000000000001 Z
b00000000000000000000000000000001 [
b10111111110000000000000000001000 \
b00000000000000000000000000000010 ]
b00000000000000010 _
b0010011 `
b000 a
b0000000000010101000001010 b
b000 c
b0000000 d
b10111111110000000000000010101001 f
b10111111110000000000000010101100 g
1h
#30
0h
#31
b00000000000000000000000000000010 1
b10111111110000000000000010101100 G
b00000000000000001000000001100111 H
b00000000000000001000000000000000 I
b10 L
b10111111110000000000000010110000 O
b10 Q
1R
b10111111110000000000000010110000 T
b00001 W
b00000 X
b00000 Y
b10111111110000000000000000001000 Z
b00000000000000001000000000000000 [
b00000000000000000000000000000000 \
b10111111110000001000000000001000 ]
b01000000000001000 _
b1100111 `
b011 a
b0000000000000000100000000 b
b10111111110000001000000010101100 f
b10111111110000000000000010110000 g
1h
b00000000000000000000000000000010 j
#32
0h
#33
b10111111110000000000000010110000 G
b00000000101000000000001010010011 H
b00000000000000000000000000001010 I
b00 L
b10111111110000000000000010110100 O
b00 Q
1S
b00000000000000000000000000001010 T
b00000 W
b01010 X
b00101 Y
b00000000000000000000000000000000 Z
b00000000000000000000000000001010 [
b00000000000000000000000000000010 \
b00000000000000000000000000001010 ]
b00000000000001010 _
b0010011 `
b000 a
b0000000010100000000000101 b
b10111111110000000000000010111010 f
b10111111110000000000000010110100 g
1h
#34
0h
#35
b00000000000000000000000000001010 ,
b10111111110000000000000010110100 G
b00000000110000000000001100010011 H
b00000000000000000000000000001100 I
b10111111110000000000000010111000 O
b00000000000000000000000000001100 T
b01100 X
b00110 Y
b00000000000000000000000000001100 [
b00000000000000000000000000000000 \
b00000000000000000000000000001100 ]
b00000000000001100 _
b0000000011000000000000110 b
b10111111110000000000000011000000 f
b10111111110000000000000010111000 g
1h
#36
0h
#37
b00000000000000000000000000001100 -
b10111111110000000000000010111000 G
b00000000011000101100001110110011 H
b00000000000000000000000000000110 I
0K
b0100 M
b10111111110000000000000010111100 O
b00000000000000000000000000000110 T
b00101 W
b00110 X
b00111 Y
b00000000000000000000000000001010 Z
b00000000000000000000000000001100 \
b00000000000000000000000000000110 ]
b00000000000000110 _
b0110011 `
b0000000001100010110000111 b
b100 c
b10111111110000000000000010111110 f
b10111111110000000000000010111100 g
1h
#38
0h
#39
b00000000000000000000000000000110 .
b10111111110000000000000010111100 G
b00000000011000000000111000010011 H
1K
b0000 M
b10111111110000000000000011000000 O
b00000 W
b11100 Y
b00000000000000000000000000000000 Z
b00000000000000000000000000000110 [
b0010011 `
b0000000001100000000011100 b
b000 c
b10111111110000000000000011000010 f
b10111111110000000000000011000000 g
1h
#40
0h
#41
b00000000000000000000000000000110 C
b10111111110000000000000011000000 G
b00110011110000111001011001100011 H
b00000000000000000000001100101100 I
0J
0K
b0001 M
1N
b10111111110000000000000011000100 O
0R
0S
b00000000000000000000000000000000 T
b00111 W
b11100 X
b01100 Y
b00000000000000000000000000000110 Z
b00000000000000000000000000000110 \
b00000000000000000000000000000000 ]
b00000000000000000 _
b1100011 `
b010 a
b0011001111000011100101100 b
b001 c
b0011001 d
b10111111110000000000001111101100 f
b10111111110000000000000011000100 g
1h
#42
0h
#43
b10111111110000000000000011000100 G
b00000000000101010000010100010011 H
b00000000000000000000000000000001 I
1J
1K
b0000 M
0N
b10111111110000000000000011001000 O
b00000000000000000000000000000011 T
b01010 W
b00001 X
b01010 Y
b00000000000000000000000000000010 Z
b00000000000000000000000000000001 [
b10111111110000000000000000001000 \
b00000000000000000000000000000011 ]
b00000000000000011 _
b0010011 `
b000 a
b0000000000010101000001010 b
b000 c
b0000000 d
b10111111110000000000000011000101 f
b10111111110000000000000011001000 g
1h
#44
0h
#45
b00000000000000000000000000000011 1
b10111111110000000000000011001000 G
b00000000000000001000000001100111 H
b00000000000000001000000000000000 I
b10 L
b10111111110000000000000011001100 O
b10 Q
1R
b10111111110000000000000011001100 T
b00001 W
b00000 X
b00000 Y
b10111111110000000000000000001000 Z
b00000000000000001000000000000000 [
b00000000000000000000000000000000 \
b10111111110000001000000000001000 ]
b01000000000001000 _
b1100111 `
b011 a
b0000000000000000100000000 b
b10111111110000001000000011001000 f
b10111111110000000000000011001100 g
1h
b00000000000000000000000000000011 j
#46
0h
#47
b10111111110000000000000011001100 G
b00000000101000000000001010010011 H
b00000000000000000000000000001010 I
b00 L
b10111111110000000000000011010000 O
b00 Q
1S
b00000000000000000000000000001010 T
b00000 W
b01010 X
b00101 Y
b00000000000000000000000000000000 Z
b00000000000000000000000000001010 [
b00000000000000000000000000000011 \
b00000000000000000000000000001010 ]
b00000000000001010 _
b0010011 `
b000 a
b0000000010100000000000101 b
b10111111110000000000000011010110 f
b10111111110000000000000011010000 g
1h
#48
0h
#49
b10111111110000000000000011010000 G
b00000000110000000000001100010011 H
b00000000000000000000000000001100 I
b10111111110000000000000011010100 O
b00000000000000000000000000001100 T
b01100 X
b00110 Y
b00000000000000000000000000001100 [
b00000000000000000000000000000000 \
b00000000000000000000000000001100 ]
b00000000000001100 _
b0000000011000000000000110 b
b10111111110000000000000011011100 f
b10111111110000000000000011010100 g
1h
#50
0h
#51
b10111111110000000000000011010100 G
b00000000011000101110001110110011 H
b00000000000000000000000000000110 I
0K
b0011 M
b10111111110000000000000011011000 O
b00000000000000000000000000001110 T
b00101 W
b00110 X
b00111 Y
b00000000000000000000000000001010 Z
b00000000000000000000000000001100 \
b00000000000000000000000000001110 ]
b00000000000001110 _
b0110011 `
b0000000001100010111000111 b
b110 c
b10111111110000000000000011011010 f
b10111111110000000000000011011000 g
1h
#52
0h
#53
b00000000000000000000000000001110 .
b10111111110000000000000011011000 G
b00000000111000000000111000010011 H
b00000000000000000000000000001110 I
1K
b0000 M
b10111111110000000000000011011100 O
b00000 W
b01110 X
b11100 Y
b00000000000000000000000000000000 Z
b00000000000000000000000000001110 [
b00000000000000000000000000000000 \
b0010011 `
b0000000011100000000011100 b
b000 c
b10111111110000000000000011100110 f
b10111111110000000000000011011100 g
1h
#54
0h
#55
b00000000000000000000000000001110 C
b10111111110000000000000011011100 G
b00110001110000111001100001100011 H
b00000000000000000000001100010000 I
0J
0K
b0001 M
1N
b10111111110000000000000011100000 O
0R
0S
b00000000000000000000000000000000 T
b00111 W
b11100 X
b10000 Y
b00000000000000000000000000001110 Z
b00000000000000000000000000001110 \
b00000000000000000000000000000000 ]
b00000000000000000 _
b1100011 `
b010 a
b0011000111000011100110000 b
b001 c
b0011000 d
b10111111110000000000001111101100 f
b10111111110000000000000011100000 g
1h
#56
0h
#57
b10111111110000000000000011100000 G
b00000000000101010000010100010011 H
b00000000000000000000000000000001 I
1J
1K
b0000 M
0N
b10111111110000000000000011100100 O
b00000000000000000000000000000100 T
b01010 W
b00001 X
b01010 Y
b00000000000000000000000000000011 Z
b00000000000000000000000000000001 [
b10111111110000000000000000001000 \
b00000000000000000000000000000100 ]
b00000000000000100 _
b0010011 `
b000 a
b0000000000010101000001010 b
b000 c
b0000000 d
b10111111110000000000000011100001 f
b10111111110000000000000011100100 g
1h
#58
0h
#59
b00000000000000000000000000000100 1
b10111111110000000000000011100100 G
b00000000000000001000000001100111 H
b00000000000000001000000000000000 I
b10 L
b10111111110000000000000011101000 O
b10 Q
1R
b10111111110000000000000011101000 T
b00001 W
b00000 X
b00000 Y
b10111111110000000000000000001000 Z
b00000000000000001000000000000000 [
b00000000000000000000000000000000 \
b10111111110000001000000000001000 ]
b01000000000001000 _
b1100111 `
b011 a
b0000000000000000100000000 b
b10111111110000001000000011100100 f
b10111111110000000000000011101000 g
1h
b00000000000000000000000000000100 j
#60
0h
#61
b10111111110000000000000011101000 G
b00000000101000000000001010010011 H
b00000000000000000000000000001010 I
b00 L
b10111111110000000000000011101100 O
b00 Q
1S
b00000000000000000000000000001010 T
b00000 W
b01010 X
b00101 Y
b00000000000000000000000000000000 Z
b00000000000000000000000000001010 [
b00000000000000000000000000000100 \
b00000000000000000000000000001010 ]
b00000000000001010 _
b0010011 `
b000 a
b0000000010100000000000101 b
b10111111110000000000000011110010 f
b10111111110000000000000011101100 g
1h
#62
0h
#63
b10111111110000000000000011101100 G
b00000000110000000000001100010011 H
b00000000000000000000000000001100 I
b10111111110000000000000011110000 O
b00000000000000000000000000001100 T
b01100 X
b00110 Y
b00000000000000000000000000001100 [
b00000000000000000000000000000000 \
b00000000000000000000000000001100 ]
b00000000000001100 _
b0000000011000000000000110 b
b10111111110000000000000011111000 f
b10111111110000000000000011110000 g
1h
#64
0h
#65
b10111111110000000000000011110000 G
b00000000011000101111001110110011 H
b00000000000000000000000000000110 I
0K
b0010 M
b10111111110000000000000011110100 O
b00000000000000000000000000001000 T
b00101 W
b00110 X
b00111 Y
b00000000000000000000000000001010 Z
b00000000000000000000000000001100 \
b00000000000000000000000000001000 ]
b00000000000001000 _
b0110011 `
b0000000001100010111100111 b
b111 c
b10111111110000000000000011110110 f
b10111111110000000000000011110100 g
1h
#66
0h
#67
b00000000000000000000000000001000 .
b10111111110000000000000011110100 G
b00000000100000000000111000010011 H
b00000000000000000000000000001000 I
1K
b0000 M
b10111111110000000000000011111000 O
b00000 W
b01000 X
b11100 Y
b00000000000000000000000000000000 Z
b00000000000000000000000000001000 [
b00000000000000000000000000000000 \
b0010011 `
b0000000010000000000011100 b
b000 c
b10111111110000000000000011111100 f
b10111111110000000000000011111000 g
1h
#68
0h
#69
b00000000000000000000000000001000 C
b10111111110000000000000011111000 G
b00101111110000111001101001100011 H
b00000000000000000000001011110100 I
0J
0K
b0001 M
1N
b10111111110000000000000011111100 O
0R
0S
b00000000000000000000000000000000 T
b00111 W
b11100 X
b10100 Y
b00000000000000000000000000001000 Z
b00000000000000000000000000001000 \
b00000000000000000000000000000000 ]
b00000000000000000 _
b1100011 `
b010 a
b0010111111000011100110100 b
b001 c
b0010111 d
b10111111110000000000001111101100 f
b10111111110000000000000011111100 g
1h
#70
0h
#71
b10111111110000000000000011111100 G
b00000000000101010000010100010011 H
b00000000000000000000000000000001 I
1J
1K
b0000 M
0N
b10111111110000000000000100000000 O
b00000000000000000000000000000101 T
b01010 W
b00001 X
b01010 Y
b00000000000000000000000000000100 Z
b00000000000000000000000000000001 [
b10111111110000000000000000001000 \
b00000000000000000000000000000101 ]
b00000000000000101 _
b0010011 `
b000 a
b0000000000010101000001010 b
b000 c
b0000000 d
b10111111110000000000000011111101 f
b10111111110000000000000100000000 g
1h
#72
0h
#73
b00000000000000000000000000000101 1
b10111111110000000000000100000000 G
b00000000000000001000000001100111 H
b00000000000000001000000000000000 I
b10 L
b10111111110000000000000100000100 O
b10 Q
1R
b10111111110000000000000100000100 T
b00001 W
b00000 X
b00000 Y
b10111111110000000000000000001000 Z
b00000000000000001000000000000000 [
b00000000000000000000000000000000 \
b10111111110000001000000000001000 ]
b01000000000001000 _
b1100111 `
b011 a
b0000000000000000100000000 b
b10111111110000001000000100000000 f
b10111111110000000000000100000100 g
1h
b00000000000000000000000000000101 j
#74
0h
#75
b10111111110000000000000100000100 G
b00000000000100000000001010010011 H
b00000000000000000000000000000001 I
b00 L
b10111111110000000000000100001000 O
b00 Q
1S
b00000000000000000000000000000001 T
b00000 W
b00001 X
b00101 Y
b00000000000000000000000000000000 Z
b00000000000000000000000000000001 [
b10111111110000000000000000001000 \
b00000000000000000000000000000001 ]
b00000000000000001 _
b0010011 `
b000 a
b0000000000010000000000101 b
b10111111110000000000000100000101 f
b10111111110000000000000100001000 g
1h
#76
0h
#77
b00000000000000000000000000000001 ,
b10111111110000000000000100001000 G
b00000000001100000000001100010011 H
b00000000000000000000000000000011 I
b10111111110000000000000100001100 O
b00000000000000000000000000000011 T
b00011 X
b00110 Y
b00000000000000000000000000000011 [
b00000000000000000000000000000000 \
b00000000000000000000000000000011 ]
b00000000000000011 _
b0000000000110000000000110 b
b10111111110000000000000100001011 f
b10111111110000000000000100001100 g
1h
#78
0h
#79
b00000000000000000000000000000011 -
b10111111110000000000000100001100 G
b00000000011000101001001110110011 H
b00000000000000000000000000000110 I
0K
b1000 M
b10111111110000000000000100010000 O
b00000000000000000000000000001000 T
b00101 W
b00110 X
b00111 Y
b00000000000000000000000000000001 Z
b00000000000000000000000000000011 \
b00000000000000000000000000001000 ]
b00000000000001000 _
b0110011 `
b0000000001100010100100111 b
b001 c
b10111111110000000000000100010010 f
b10111111110000000000000100010000 g
1h
#80
0h
#81
b10111111110000000000000100010000 G
b00000000100000000000111000010011 H
b00000000000000000000000000001000 I
1K
b0000 M
b10111111110000000000000100010100 O
b00000 W
b01000 X
b11100 Y
b00000000000000000000000000000000 Z
b00000000000000000000000000001000 [
b00000000000000000000000000000000 \
b0010011 `
b0000000010000000000011100 b
b000 c
b10111111110000000000000100011000 f
b10111111110000000000000100010100 g
1h
#82
0h
#83
b10111111110000000000000100010100 G
b00101101110000111001110001100011 H
b00000000000000000000001011011000 I
0J
0K
b0001 M
1N
b10111111110000000000000100011000 O
0R
0S
b00000000000000000000000000000000 T
b00111 W
b11100 X
b11000 Y
b00000000000000000000000000001000 Z
b00000000000000000000000000001000 \
b00000000000000000000000000000000 ]
b00000000000000000 _
b1100011 `
b010 a
b0010110111000011100111000 b
b001 c
b0010110 d
b10111111110000000000001111101100 f
b10111111110000000000000100011000 g
1h
#84
0h
