CPUTOP.vcd
$version Generated by VerilatedVcd $end
$date Thu Nov 28 07:13:53 2024 $end
$timescale 1ps $end

 $scope module TOP $end
  $var wire 32 m a0 [31:0] $end
  $var wire  1 k clk $end
  $var wire  1 l rst $end
  $scope module CPUTOP $end
   $var wire  3 M ALUControl [2:0] $end
   $var wire  1 K ALUSrc $end
   $var wire 32 o ALUout [31:0] $end
   $var wire 32 I ImmExt [31:0] $end
   $var wire 32 H Instr [31:0] $end
   $var wire  1 P MemWrite $end
   $var wire 32 G PC [31:0] $end
   $var wire 32 s PCJALR [31:0] $end
   $var wire 32 r PCPlus4 [31:0] $end
   $var wire  1 L PCSrc $end
   $var wire  1 J RegWrite $end
   $var wire  2 Q ResultSrc [1:0] $end
   $var wire  2 t SizeSrc [1:0] $end
   $var wire 32 p SrcA [31:0] $end
   $var wire 32 q SrcB [31:0] $end
   $var wire  1 N Zero $end
   $var wire 32 m a0 [31:0] $end
   $var wire  1 k clk $end
   $var wire  7 O op [6:0] $end
   $var wire  5 V rd [4:0] $end
   $var wire  5 T rs1 [4:0] $end
   $var wire  5 U rs2 [4:0] $end
   $var wire  1 l rst $end
   $var wire  1 R signedLess $end
   $var wire  1 S unsignedLess $end
   $scope module ALUTop $end
    $var wire  4 W ALUControl [3:0] $end
    $var wire 32 Z ALUResult [31:0] $end
    $var wire  1 K ALUSrc $end
    $var wire 32 I ImmExt [31:0] $end
    $var wire  1 u LoadSign $end
    $var wire  1 P MemWrite $end
    $var wire 32 r PCPlus4 [31:0] $end
    $var wire 32 n RD2 [31:0] $end
    $var wire 32 [ ReadData [31:0] $end
    $var wire  1 J RegWrite $end
    $var wire 32 \ Result [31:0] $end
    $var wire  2 x ResultSrc [1:0] $end
    $var wire  2 v SizeSrc [1:0] $end
    $var wire 32 X SrcA [31:0] $end
    $var wire 32 Y SrcB [31:0] $end
    $var wire 32 w WriteData [31:0] $end
    $var wire  1 N Zero $end
    $var wire 32 m a0 [31:0] $end
    $var wire  1 k clk $end
    $var wire  5 V rd [4:0] $end
    $var wire  5 T rs1 [4:0] $end
    $var wire  5 U rs2 [4:0] $end
    $var wire  1 R signedLess $end
    $var wire  1 S unsignedLess $end
    $scope module ALU $end
     $var wire  4 W ALUControl [3:0] $end
     $var wire 32 Z SUM [31:0] $end
     $var wire 32 X SrcA [31:0] $end
     $var wire 32 Y SrcB [31:0] $end
     $var wire  1 N Zero $end
     $var wire  1 R signedLess $end
     $var wire  1 S unsignedLess $end
    $upscope $end
    $scope module ALUMux1 $end
     $var wire  1 K ALUSrc $end
     $var wire 32 I ImmExt [31:0] $end
     $var wire 32 n RD2 [31:0] $end
     $var wire 32 Y SrcB [31:0] $end
    $upscope $end
    $scope module ALUMux2 $end
     $var wire 32 Z ALUResult [31:0] $end
     $var wire 32 r PCPlus4 [31:0] $end
     $var wire 32 [ ReadData [31:0] $end
     $var wire 32 \ Result [31:0] $end
     $var wire  2 x ResultSrc [1:0] $end
    $upscope $end
    $scope module DataMemory $end
     $var wire 17 ] ALUResult [16:0] $end
     $var wire  1 u LoadSign $end
     $var wire  1 P MemWrite $end
     $var wire 32 [ ReadData [31:0] $end
     $var wire  2 v SizeSrc [1:0] $end
     $var wire 32 w WriteData [31:0] $end
     $var wire 17 ] address [16:0] $end
     $var wire  1 k clk $end
    $upscope $end
    $scope module RegisterFile $end
     $var wire  5 T A1 [4:0] $end
     $var wire  5 U A2 [4:0] $end
     $var wire  5 V A3 [4:0] $end
     $var wire 32 X RD1 [31:0] $end
     $var wire 32 n RD2 [31:0] $end
     $var wire 32 \ WD3 [31:0] $end
     $var wire  1 J WE3 $end
     $var wire 32 m a0 [31:0] $end
     $var wire  1 k clk $end
     $var wire 32 ' registerarr[0] [31:0] $end
     $var wire 32 1 registerarr[10] [31:0] $end
     $var wire 32 2 registerarr[11] [31:0] $end
     $var wire 32 3 registerarr[12] [31:0] $end
     $var wire 32 4 registerarr[13] [31:0] $end
     $var wire 32 5 registerarr[14] [31:0] $end
     $var wire 32 6 registerarr[15] [31:0] $end
     $var wire 32 7 registerarr[16] [31:0] $end
     $var wire 32 8 registerarr[17] [31:0] $end
     $var wire 32 9 registerarr[18] [31:0] $end
     $var wire 32 : registerarr[19] [31:0] $end
     $var wire 32 ( registerarr[1] [31:0] $end
     $var wire 32 ; registerarr[20] [31:0] $end
     $var wire 32 < registerarr[21] [31:0] $end
     $var wire 32 = registerarr[22] [31:0] $end
     $var wire 32 > registerarr[23] [31:0] $end
     $var wire 32 ? registerarr[24] [31:0] $end
     $var wire 32 @ registerarr[25] [31:0] $end
     $var wire 32 A registerarr[26] [31:0] $end
     $var wire 32 B registerarr[27] [31:0] $end
     $var wire 32 C registerarr[28] [31:0] $end
     $var wire 32 D registerarr[29] [31:0] $end
     $var wire 32 ) registerarr[2] [31:0] $end
     $var wire 32 E registerarr[30] [31:0] $end
     $var wire 32 F registerarr[31] [31:0] $end
     $var wire 32 * registerarr[3] [31:0] $end
     $var wire 32 + registerarr[4] [31:0] $end
     $var wire 32 , registerarr[5] [31:0] $end
     $var wire 32 - registerarr[6] [31:0] $end
     $var wire 32 . registerarr[7] [31:0] $end
     $var wire 32 / registerarr[8] [31:0] $end
     $var wire 32 0 registerarr[9] [31:0] $end
    $upscope $end
   $upscope $end
   $scope module InstrTop $end
    $var wire  4 _ ALUControl [3:0] $end
    $var wire  1 K ALUSrc $end
    $var wire 32 I ImmExt [31:0] $end
    $var wire 25 c ImmIn [31:7] $end
    $var wire  3 b ImmSrc [2:0] $end
    $var wire 32 H Instr [31:0] $end
    $var wire  1 a LoadSign $end
    $var wire  1 P MemWrite $end
    $var wire 32 G PC [31:0] $end
    $var wire  2 ^ PCSrc [1:0] $end
    $var wire  1 J RegWrite $end
    $var wire  2 Q ResultSrc [1:0] $end
    $var wire  2 ` SizeSrc [1:0] $end
    $var wire  1 N Zero $end
    $var wire  3 d funct3 [2:0] $end
    $var wire  7 e funct7 [6:0] $end
    $var wire  7 O op [6:0] $end
    $var wire  1 R signedLess $end
    $var wire  1 S unsignedLess $end
    $scope module ControlUnit $end
     $var wire  4 _ ALUControl [3:0] $end
     $var wire  1 K ALUSrc $end
     $var wire  3 b ImmSrc [2:0] $end
     $var wire  1 a LoadSign $end
     $var wire  1 P MemWrite $end
     $var wire  2 ^ PCSrc [1:0] $end
     $var wire  1 J RegWrite $end
     $var wire  2 Q ResultSrc [1:0] $end
     $var wire  2 ` SizeSrc [1:0] $end
     $var wire  1 N Zero $end
     $var wire  3 d funct3 [2:0] $end
     $var wire  7 e funct7 [6:0] $end
     $var wire  7 O op [6:0] $end
     $var wire  1 R signedLess $end
     $var wire  1 S unsignedLess $end
    $upscope $end
    $scope module Extend $end
     $var wire 32 I ImmExt [31:0] $end
     $var wire 25 c ImmIn [31:7] $end
     $var wire  3 b ImmSrc [2:0] $end
    $upscope $end
    $scope module HexFileLoader $end
     $scope module unnamedblk1 $end
      $var wire 32 & addr [31:0] $end
      $var wire 32 # file [31:0] $end
      $var wire 32 % instr_word [31:0] $end
      $var wire 32 $ r [31:0] $end
     $upscope $end
    $upscope $end
    $scope module InstructionMemory $end
     $var wire 32 H Instr [31:0] $end
     $var wire 32 G PC [31:0] $end
     $var wire  1 f ValidAddr $end
    $upscope $end
   $upscope $end
   $scope module PCTop $end
    $var wire 32 I ImmExt [31:0] $end
    $var wire 32 G PC [31:0] $end
    $var wire 32 s PCJALR [31:0] $end
    $var wire 32 j PCNext [31:0] $end
    $var wire 32 h PCPlus4 [31:0] $end
    $var wire  2 g PCSrc [1:0] $end
    $var wire 32 i PCTarget [31:0] $end
    $var wire  1 k clk $end
    $var wire  1 l rst $end
    $scope module PCMux $end
     $var wire 32 s PCJALR [31:0] $end
     $var wire 32 j PCNext [31:0] $end
     $var wire 32 h PCPlus4 [31:0] $end
     $var wire  2 g PCSrc [1:0] $end
     $var wire 32 i PCTarget [31:0] $end
    $upscope $end
    $scope module PCReg $end
     $var wire 32 G PC [31:0] $end
     $var wire 32 j PCNext [31:0] $end
     $var wire  1 k clk $end
     $var wire  1 l rst $end
    $upscope $end
   $upscope $end
  $upscope $end
 $upscope $end
$enddefinitions $end


#0
b00000000000000000000000000000000 #
b00000000000000000000000000000000 $
b00000000000000000000000000000000 %
b00000000000000000000000000000000 &
b00000000000000000000000000000000 '
b00000000000000000000000000000000 (
b00000000000000000000000000000000 )
b00000000000000000000000000000000 *
b00000000000000000000000000000000 +
b00000000000000000000000000000000 ,
b00000000000000000000000000000000 -
b00000000000000000000000000000000 .
b00000000000000000000000000000000 /
b00000000000000000000000000000000 0
b00000000000000000000000000000000 1
b00000000000000000000000000000000 2
b00000000000000000000000000000000 3
b00000000000000000000000000000000 4
b00000000000000000000000000000000 5
b00000000000000000000000000000000 6
b00000000000000000000000000000000 7
b00000000000000000000000000000000 8
b00000000000000000000000000000000 9
b00000000000000000000000000000000 :
b00000000000000000000000000000000 ;
b00000000000000000000000000000000 <
b00000000000000000000000000000000 =
b00000000000000000000000000000000 >
b00000000000000000000000000000000 ?
b00000000000000000000000000000000 @
b00000000000000000000000000000000 A
b00000000000000000000000000000000 B
b00000000000000000000000000000000 C
b00000000000000000000000000000000 D
b00000000000000000000000000000000 E
b00000000000000000000000000000000 F
b00000000000000000000000000000000 G
b00000000000000000000000000000000 H
b00000000000000000000000000000000 I
0J
0K
0L
b000 M
0N
b0000000 O
0P
b00 Q
0R
0S
b00000 T
b00000 U
b00000 V
b0000 W
b00000000000000000000000000000000 X
b00000000000000000000000000000000 Y
b00000000000000000000000000000000 Z
b00000000000000000000000000000000 [
b00000000000000000000000000000000 \
b00000000000000000 ]
b00 ^
b0000 _
b00 `
0a
b000 b
b0000000000000000000000000 c
b000 d
b0000000 e
0f
b00 g
b00000000000000000000000000000100 h
b00000000000000000000000000000000 i
b00000000000000000000000000000100 j
0k
0l
b00000000000000000000000000000000 m
b00000000000000000000000000000000 n
b00000000000000000000000000000000 o
b00000000000000000000000000000000 p
b00000000000000000000000000000000 q
b00000000000000000000000000000000 r
b00000000000000000000000000000000 s
b00 t
0u
b00 v
b00000000000000000000000000000000 w
b00 x
#1
b00000000000000000000000000000001 $
b11111110000000110001100011100011 %
b00000000000000000000000000011100 &
b10111111110000000000000000000000 G
b00001111111100000000001100010011 H
b00000000000000000000000011111111 I
1J
1K
b0010011 O
1R
1S
b11111 U
b00110 V
b00000000000000000000000011111111 Y
b00000000000000000000000011111111 Z
b00000000000000000000000011111111 \
b00000000011111111 ]
b0000111111110000000000110 c
b0000111 e
1f
b10111111110000000000000000000100 h
b10111111110000000000000011111111 i
b10111111110000000000000000000100 j
1k
#2
0k
#3
b00000000000000000000000011111111 -
b10111111110000000000000000000100 G
b00000000000000000000010100010011 H
b00000000000000000000000000000000 I
0R
0S
b00000 U
b01010 V
b00000000000000000000000000000000 Y
b00000000000000000000000000000000 Z
b00000000000000000000000000000000 \
b00000000000000000 ]
b0000000000000000000001010 c
b0000000 e
b10111111110000000000000000001000 h
b10111111110000000000000000000100 i
b10111111110000000000000000001000 j
1k
#4
0k
#5
b10111111110000000000000000001000 G
b00000000000000000000010110010011 H
b01011 V
b0000000000000000000001011 c
b10111111110000000000000000001100 h
b10111111110000000000000000001000 i
b10111111110000000000000000001100 j
1k
#6
0k
#7
b10111111110000000000000000001100 G
b00000000000001011000010100010011 H
b01011 T
b01010 V
b0000000000000101100001010 c
b10111111110000000000000000010000 h
b10111111110000000000000000001100 i
b10111111110000000000000000010000 j
1k
#8
0k
#9
b10111111110000000000000000010000 G
b00000000000101011000010110010011 H
b00000000000000000000000000000001 I
1R
1S
b00001 U
b01011 V
b00000000000000000000000000000001 Y
b00000000000000000000000000000001 Z
b00000000000000000000000000000001 \
b00000000000000001 ]
b0000000000010101100001011 c
b10111111110000000000000000010100 h
b10111111110000000000000000010001 i
b10111111110000000000000000010100 j
1k
#10
0k
#11
b00000000000000000000000000000001 2
b10111111110000000000000000010100 G
b11111110011001011001110011100011 H
b11111111111111111111111111111000 I
0J
0K
1L
b001 M
b1100011 O
b00110 U
b11001 V
b0001 W
b00000000000000000000000000000001 X
b00000000000000000000000011111111 Y
b11111111111111111111111100000010 Z
b11111111111111111111111100000010 \
b11111111100000010 ]
b01 ^
b0001 _
b010 b
b1111111001100101100111001 c
b001 d
b1111111 e
b01 g
b10111111110000000000000000011000 h
b10111111110000000000000000001100 i
b10111111110000000000000000001100 j
1k
b00000000000000000000000011111111 n
#12
0k
#13
b10111111110000000000000000001100 G
b00000000000001011000010100010011 H
b00000000000000000000000000000000 I
1J
1K
0L
b000 M
b0010011 O
0R
0S
b00000 U
b01010 V
b0000 W
b00000000000000000000000000000000 Y
b00000000000000000000000000000001 Z
b00000000000000000000000000000001 \
b00000000000000001 ]
b00 ^
b0000 _
b000 b
b0000000000000101100001010 c
b000 d
b0000000 e
b00 g
b10111111110000000000000000010000 h
b10111111110000000000000000010000 j
1k
b00000000000000000000000000000000 n
#14
0k
#15
b10111111110000000000000000010000 G
b00000000000101011000010110010011 H
b00000000000000000000000000000001 I
b00001 U
b01011 V
b00000000000000000000000000000001 Y
b00000000000000000000000000000010 Z
b00000000000000000000000000000010 \
b00000000000000010 ]
b0000000000010101100001011 c
b10111111110000000000000000010100 h
b10111111110000000000000000010001 i
b10111111110000000000000000010100 j
1k
#16
0k
#17
b00000000000000000000000000000001 1
b00000000000000000000000000000010 2
b10111111110000000000000000010100 G
b11111110011001011001110011100011 H
b11111111111111111111111111111000 I
0J
0K
1L
b001 M
b1100011 O
1R
1S
b00110 U
b11001 V
b0001 W
b00000000000000000000000000000010 X
b00000000000000000000000011111111 Y
b11111111111111111111111100000011 Z
b11111111111111111111111100000011 \
b11111111100000011 ]
b01 ^
b0001 _
b010 b
b1111111001100101100111001 c
b001 d
b1111111 e
b01 g
b10111111110000000000000000011000 h
b10111111110000000000000000001100 i
b10111111110000000000000000001100 j
1k
b00000000000000000000000000000001 m
b00000000000000000000000011111111 n
#18
0k
#19
b10111111110000000000000000001100 G
b00000000000001011000010100010011 H
b00000000000000000000000000000000 I
1J
1K
0L
b000 M
b0010011 O
0R
0S
b00000 U
b01010 V
b0000 W
b00000000000000000000000000000000 Y
b00000000000000000000000000000010 Z
b00000000000000000000000000000010 \
b00000000000000010 ]
b00 ^
b0000 _
b000 b
b0000000000000101100001010 c
b000 d
b0000000 e
b00 g
b10111111110000000000000000010000 h
b10111111110000000000000000010000 j
1k
b00000000000000000000000000000000 n
#20
0k
#21
b10111111110000000000000000010000 G
b00000000000101011000010110010011 H
b00000000000000000000000000000001 I
b00001 U
b01011 V
b00000000000000000000000000000001 Y
b00000000000000000000000000000011 Z
b00000000000000000000000000000011 \
b00000000000000011 ]
b0000000000010101100001011 c
b10111111110000000000000000010100 h
b10111111110000000000000000010001 i
b10111111110000000000000000010100 j
1k
#22
0k
#23
b00000000000000000000000000000010 1
b00000000000000000000000000000011 2
b10111111110000000000000000010100 G
b11111110011001011001110011100011 H
b11111111111111111111111111111000 I
0J
0K
1L
b001 M
b1100011 O
1R
1S
b00110 U
b11001 V
b0001 W
b00000000000000000000000000000011 X
b00000000000000000000000011111111 Y
b11111111111111111111111100000100 Z
b11111111111111111111111100000100 \
b11111111100000100 ]
b01 ^
b0001 _
b010 b
b1111111001100101100111001 c
b001 d
b1111111 e
b01 g
b10111111110000000000000000011000 h
b10111111110000000000000000001100 i
b10111111110000000000000000001100 j
1k
b00000000000000000000000000000010 m
b00000000000000000000000011111111 n
#24
0k
#25
b10111111110000000000000000001100 G
b00000000000001011000010100010011 H
b00000000000000000000000000000000 I
1J
1K
0L
b000 M
b0010011 O
0R
0S
b00000 U
b01010 V
b0000 W
b00000000000000000000000000000000 Y
b00000000000000000000000000000011 Z
b00000000000000000000000000000011 \
b00000000000000011 ]
b00 ^
b0000 _
b000 b
b0000000000000101100001010 c
b000 d
b0000000 e
b00 g
b10111111110000000000000000010000 h
b10111111110000000000000000010000 j
1k
b00000000000000000000000000000000 n
#26
0k
#27
b10111111110000000000000000010000 G
b00000000000101011000010110010011 H
b00000000000000000000000000000001 I
b00001 U
b01011 V
b00000000000000000000000000000001 Y
b00000000000000000000000000000100 Z
b00000000000000000000000000000100 \
b00000000000000100 ]
b0000000000010101100001011 c
b10111111110000000000000000010100 h
b10111111110000000000000000010001 i
b10111111110000000000000000010100 j
1k
#28
0k
#29
b00000000000000000000000000000011 1
b00000000000000000000000000000100 2
b10111111110000000000000000010100 G
b11111110011001011001110011100011 H
b11111111111111111111111111111000 I
0J
0K
1L
b001 M
b1100011 O
1R
1S
b00110 U
b11001 V
b0001 W
b00000000000000000000000000000100 X
b00000000000000000000000011111111 Y
b11111111111111111111111100000101 Z
b11111111111111111111111100000101 \
b11111111100000101 ]
b01 ^
b0001 _
b010 b
b1111111001100101100111001 c
b001 d
b1111111 e
b01 g
b10111111110000000000000000011000 h
b10111111110000000000000000001100 i
b10111111110000000000000000001100 j
1k
b00000000000000000000000000000011 m
b00000000000000000000000011111111 n
#30
0k
#31
b10111111110000000000000000001100 G
b00000000000001011000010100010011 H
b00000000000000000000000000000000 I
1J
1K
0L
b000 M
b0010011 O
0R
0S
b00000 U
b01010 V
b0000 W
b00000000000000000000000000000000 Y
b00000000000000000000000000000100 Z
b00000000000000000000000000000100 \
b00000000000000100 ]
b00 ^
b0000 _
b000 b
b0000000000000101100001010 c
b000 d
b0000000 e
b00 g
b10111111110000000000000000010000 h
b10111111110000000000000000010000 j
1k
b00000000000000000000000000000000 n
#32
0k
#33
b10111111110000000000000000010000 G
b00000000000101011000010110010011 H
b00000000000000000000000000000001 I
b00001 U
b01011 V
b00000000000000000000000000000001 Y
b00000000000000000000000000000101 Z
b00000000000000000000000000000101 \
b00000000000000101 ]
b0000000000010101100001011 c
b10111111110000000000000000010100 h
b10111111110000000000000000010001 i
b10111111110000000000000000010100 j
1k
#34
0k
#35
b00000000000000000000000000000100 1
b00000000000000000000000000000101 2
b10111111110000000000000000010100 G
b11111110011001011001110011100011 H
b11111111111111111111111111111000 I
0J
0K
1L
b001 M
b1100011 O
1R
1S
b00110 U
b11001 V
b0001 W
b00000000000000000000000000000101 X
b00000000000000000000000011111111 Y
b11111111111111111111111100000110 Z
b11111111111111111111111100000110 \
b11111111100000110 ]
b01 ^
b0001 _
b010 b
b1111111001100101100111001 c
b001 d
b1111111 e
b01 g
b10111111110000000000000000011000 h
b10111111110000000000000000001100 i
b10111111110000000000000000001100 j
1k
b00000000000000000000000000000100 m
b00000000000000000000000011111111 n
#36
0k
#37
b10111111110000000000000000001100 G
b00000000000001011000010100010011 H
b00000000000000000000000000000000 I
1J
1K
0L
b000 M
b0010011 O
0R
0S
b00000 U
b01010 V
b0000 W
b00000000000000000000000000000000 Y
b00000000000000000000000000000101 Z
b00000000000000000000000000000101 \
b00000000000000101 ]
b00 ^
b0000 _
b000 b
b0000000000000101100001010 c
b000 d
b0000000 e
b00 g
b10111111110000000000000000010000 h
b10111111110000000000000000010000 j
1k
b00000000000000000000000000000000 n
#38
0k
#39
b10111111110000000000000000010000 G
b00000000000101011000010110010011 H
b00000000000000000000000000000001 I
b00001 U
b01011 V
b00000000000000000000000000000001 Y
b00000000000000000000000000000110 Z
b00000000000000000000000000000110 \
b00000000000000110 ]
b0000000000010101100001011 c
b10111111110000000000000000010100 h
b10111111110000000000000000010001 i
b10111111110000000000000000010100 j
1k
#40
0k
#41
b00000000000000000000000000000101 1
b00000000000000000000000000000110 2
b10111111110000000000000000010100 G
b11111110011001011001110011100011 H
b11111111111111111111111111111000 I
0J
0K
1L
b001 M
b1100011 O
1R
1S
b00110 U
b11001 V
b0001 W
b00000000000000000000000000000110 X
b00000000000000000000000011111111 Y
b11111111111111111111111100000111 Z
b11111111111111111111111100000111 \
b11111111100000111 ]
b01 ^
b0001 _
b010 b
b1111111001100101100111001 c
b001 d
b1111111 e
b01 g
b10111111110000000000000000011000 h
b10111111110000000000000000001100 i
b10111111110000000000000000001100 j
1k
b00000000000000000000000000000101 m
b00000000000000000000000011111111 n
#42
0k
#43
b10111111110000000000000000001100 G
b00000000000001011000010100010011 H
b00000000000000000000000000000000 I
1J
1K
0L
b000 M
b0010011 O
0R
0S
b00000 U
b01010 V
b0000 W
b00000000000000000000000000000000 Y
b00000000000000000000000000000110 Z
b00000000000000000000000000000110 \
b00000000000000110 ]
b00 ^
b0000 _
b000 b
b0000000000000101100001010 c
b000 d
b0000000 e
b00 g
b10111111110000000000000000010000 h
b10111111110000000000000000010000 j
1k
b00000000000000000000000000000000 n
#44
0k
#45
b10111111110000000000000000010000 G
b00000000000101011000010110010011 H
b00000000000000000000000000000001 I
b00001 U
b01011 V
b00000000000000000000000000000001 Y
b00000000000000000000000000000111 Z
b00000000000000000000000000000111 \
b00000000000000111 ]
b0000000000010101100001011 c
b10111111110000000000000000010100 h
b10111111110000000000000000010001 i
b10111111110000000000000000010100 j
1k
#46
0k
#47
b00000000000000000000000000000110 1
b00000000000000000000000000000111 2
b10111111110000000000000000010100 G
b11111110011001011001110011100011 H
b11111111111111111111111111111000 I
0J
0K
1L
b001 M
b1100011 O
1R
1S
b00110 U
b11001 V
b0001 W
b00000000000000000000000000000111 X
b00000000000000000000000011111111 Y
b11111111111111111111111100001000 Z
b11111111111111111111111100001000 \
b11111111100001000 ]
b01 ^
b0001 _
b010 b
b1111111001100101100111001 c
b001 d
b1111111 e
b01 g
b10111111110000000000000000011000 h
b10111111110000000000000000001100 i
b10111111110000000000000000001100 j
1k
b00000000000000000000000000000110 m
b00000000000000000000000011111111 n
#48
0k
#49
b10111111110000000000000000001100 G
b00000000000001011000010100010011 H
b00000000000000000000000000000000 I
1J
1K
0L
b000 M
b0010011 O
0R
0S
b00000 U
b01010 V
b0000 W
b00000000000000000000000000000000 Y
b00000000000000000000000000000111 Z
b00000000000000000000000000000111 \
b00000000000000111 ]
b00 ^
b0000 _
b000 b
b0000000000000101100001010 c
b000 d
b0000000 e
b00 g
b10111111110000000000000000010000 h
b10111111110000000000000000010000 j
1k
b00000000000000000000000000000000 n
#50
0k
#51
b10111111110000000000000000010000 G
b00000000000101011000010110010011 H
b00000000000000000000000000000001 I
b00001 U
b01011 V
b00000000000000000000000000000001 Y
b00000000000000000000000000001000 Z
b00000000000000000000000000001000 \
b00000000000001000 ]
b0000000000010101100001011 c
b10111111110000000000000000010100 h
b10111111110000000000000000010001 i
b10111111110000000000000000010100 j
1k
#52
0k
#53
b00000000000000000000000000000111 1
b00000000000000000000000000001000 2
b10111111110000000000000000010100 G
b11111110011001011001110011100011 H
b11111111111111111111111111111000 I
0J
0K
1L
b001 M
b1100011 O
1R
1S
b00110 U
b11001 V
b0001 W
b00000000000000000000000000001000 X
b00000000000000000000000011111111 Y
b11111111111111111111111100001001 Z
b11111111111111111111111100001001 \
b11111111100001001 ]
b01 ^
b0001 _
b010 b
b1111111001100101100111001 c
b001 d
b1111111 e
b01 g
b10111111110000000000000000011000 h
b10111111110000000000000000001100 i
b10111111110000000000000000001100 j
1k
b00000000000000000000000000000111 m
b00000000000000000000000011111111 n
#54
0k
#55
b10111111110000000000000000001100 G
b00000000000001011000010100010011 H
b00000000000000000000000000000000 I
1J
1K
0L
b000 M
b0010011 O
0R
0S
b00000 U
b01010 V
b0000 W
b00000000000000000000000000000000 Y
b00000000000000000000000000001000 Z
b00000000000000000000000000001000 \
b00000000000001000 ]
b00 ^
b0000 _
b000 b
b0000000000000101100001010 c
b000 d
b0000000 e
b00 g
b10111111110000000000000000010000 h
b10111111110000000000000000010000 j
1k
b00000000000000000000000000000000 n
#56
0k
#57
b10111111110000000000000000010000 G
b00000000000101011000010110010011 H
b00000000000000000000000000000001 I
b00001 U
b01011 V
b00000000000000000000000000000001 Y
b00000000000000000000000000001001 Z
b00000000000000000000000000001001 \
b00000000000001001 ]
b0000000000010101100001011 c
b10111111110000000000000000010100 h
b10111111110000000000000000010001 i
b10111111110000000000000000010100 j
1k
#58
0k
#59
b00000000000000000000000000001000 1
b00000000000000000000000000001001 2
b10111111110000000000000000010100 G
b11111110011001011001110011100011 H
b11111111111111111111111111111000 I
0J
0K
1L
b001 M
b1100011 O
1R
1S
b00110 U
b11001 V
b0001 W
b00000000000000000000000000001001 X
b00000000000000000000000011111111 Y
b11111111111111111111111100001010 Z
b11111111111111111111111100001010 \
b11111111100001010 ]
b01 ^
b0001 _
b010 b
b1111111001100101100111001 c
b001 d
b1111111 e
b01 g
b10111111110000000000000000011000 h
b10111111110000000000000000001100 i
b10111111110000000000000000001100 j
1k
b00000000000000000000000000001000 m
b00000000000000000000000011111111 n
#60
0k
#61
b10111111110000000000000000001100 G
b00000000000001011000010100010011 H
b00000000000000000000000000000000 I
1J
1K
0L
b000 M
b0010011 O
0R
0S
b00000 U
b01010 V
b0000 W
b00000000000000000000000000000000 Y
b00000000000000000000000000001001 Z
b00000000000000000000000000001001 \
b00000000000001001 ]
b00 ^
b0000 _
b000 b
b0000000000000101100001010 c
b000 d
b0000000 e
b00 g
b10111111110000000000000000010000 h
b10111111110000000000000000010000 j
1k
b00000000000000000000000000000000 n
#62
0k
#63
b10111111110000000000000000010000 G
b00000000000101011000010110010011 H
b00000000000000000000000000000001 I
b00001 U
b01011 V
b00000000000000000000000000000001 Y
b00000000000000000000000000001010 Z
b00000000000000000000000000001010 \
b00000000000001010 ]
b0000000000010101100001011 c
b10111111110000000000000000010100 h
b10111111110000000000000000010001 i
b10111111110000000000000000010100 j
1k
#64
0k
#65
b00000000000000000000000000001001 1
b00000000000000000000000000001010 2
b10111111110000000000000000010100 G
b11111110011001011001110011100011 H
b11111111111111111111111111111000 I
0J
0K
1L
b001 M
b1100011 O
1R
1S
b00110 U
b11001 V
b0001 W
b00000000000000000000000000001010 X
b00000000000000000000000011111111 Y
b11111111111111111111111100001011 Z
b11111111111111111111111100001011 \
b11111111100001011 ]
b01 ^
b0001 _
b010 b
b1111111001100101100111001 c
b001 d
b1111111 e
b01 g
b10111111110000000000000000011000 h
b10111111110000000000000000001100 i
b10111111110000000000000000001100 j
1k
b00000000000000000000000000001001 m
b00000000000000000000000011111111 n
#66
0k
#67
b10111111110000000000000000001100 G
b00000000000001011000010100010011 H
b00000000000000000000000000000000 I
1J
1K
0L
b000 M
b0010011 O
0R
0S
b00000 U
b01010 V
b0000 W
b00000000000000000000000000000000 Y
b00000000000000000000000000001010 Z
b00000000000000000000000000001010 \
b00000000000001010 ]
b00 ^
b0000 _
b000 b
b0000000000000101100001010 c
b000 d
b0000000 e
b00 g
b10111111110000000000000000010000 h
b10111111110000000000000000010000 j
1k
b00000000000000000000000000000000 n
#68
0k
#69
b10111111110000000000000000010000 G
b00000000000101011000010110010011 H
b00000000000000000000000000000001 I
b00001 U
b01011 V
b00000000000000000000000000000001 Y
b00000000000000000000000000001011 Z
b00000000000000000000000000001011 \
b00000000000001011 ]
b0000000000010101100001011 c
b10111111110000000000000000010100 h
b10111111110000000000000000010001 i
b10111111110000000000000000010100 j
1k
#70
0k
#71
b00000000000000000000000000001010 1
b00000000000000000000000000001011 2
b10111111110000000000000000010100 G
b11111110011001011001110011100011 H
b11111111111111111111111111111000 I
0J
0K
1L
b001 M
b1100011 O
1R
1S
b00110 U
b11001 V
b0001 W
b00000000000000000000000000001011 X
b00000000000000000000000011111111 Y
b11111111111111111111111100001100 Z
b11111111111111111111111100001100 \
b11111111100001100 ]
b01 ^
b0001 _
b010 b
b1111111001100101100111001 c
b001 d
b1111111 e
b01 g
b10111111110000000000000000011000 h
b10111111110000000000000000001100 i
b10111111110000000000000000001100 j
1k
b00000000000000000000000000001010 m
b00000000000000000000000011111111 n
#72
0k
#73
b10111111110000000000000000001100 G
b00000000000001011000010100010011 H
b00000000000000000000000000000000 I
1J
1K
0L
b000 M
b0010011 O
0R
0S
b00000 U
b01010 V
b0000 W
b00000000000000000000000000000000 Y
b00000000000000000000000000001011 Z
b00000000000000000000000000001011 \
b00000000000001011 ]
b00 ^
b0000 _
b000 b
b0000000000000101100001010 c
b000 d
b0000000 e
b00 g
b10111111110000000000000000010000 h
b10111111110000000000000000010000 j
1k
b00000000000000000000000000000000 n
#74
0k
#75
b10111111110000000000000000010000 G
b00000000000101011000010110010011 H
b00000000000000000000000000000001 I
b00001 U
b01011 V
b00000000000000000000000000000001 Y
b00000000000000000000000000001100 Z
b00000000000000000000000000001100 \
b00000000000001100 ]
b0000000000010101100001011 c
b10111111110000000000000000010100 h
b10111111110000000000000000010001 i
b10111111110000000000000000010100 j
1k
#76
0k
#77
b00000000000000000000000000001011 1
b00000000000000000000000000001100 2
b10111111110000000000000000010100 G
b11111110011001011001110011100011 H
b11111111111111111111111111111000 I
0J
0K
1L
b001 M
b1100011 O
1R
1S
b00110 U
b11001 V
b0001 W
b00000000000000000000000000001100 X
b00000000000000000000000011111111 Y
b11111111111111111111111100001101 Z
b11111111111111111111111100001101 \
b11111111100001101 ]
b01 ^
b0001 _
b010 b
b1111111001100101100111001 c
b001 d
b1111111 e
b01 g
b10111111110000000000000000011000 h
b10111111110000000000000000001100 i
b10111111110000000000000000001100 j
1k
b00000000000000000000000000001011 m
b00000000000000000000000011111111 n
#78
0k
#79
b10111111110000000000000000001100 G
b00000000000001011000010100010011 H
b00000000000000000000000000000000 I
1J
1K
0L
b000 M
b0010011 O
0R
0S
b00000 U
b01010 V
b0000 W
b00000000000000000000000000000000 Y
b00000000000000000000000000001100 Z
b00000000000000000000000000001100 \
b00000000000001100 ]
b00 ^
b0000 _
b000 b
b0000000000000101100001010 c
b000 d
b0000000 e
b00 g
b10111111110000000000000000010000 h
b10111111110000000000000000010000 j
1k
b00000000000000000000000000000000 n
#80
0k
