CPUTOP.vcd
$version Generated by VerilatedVcd $end
$date Sun Dec  1 17:45:06 2024 $end
$timescale 1ps $end

 $scope module TOP $end
  $var wire 32 k a0 [31:0] $end
  $var wire  1 i clk $end
  $var wire  1 j rst $end
  $scope module CPUTOP $end
   $var wire  4 N ALUControl [3:0] $end
   $var wire  1 K ALUSrcA $end
   $var wire  1 L ALUSrcB $end
   $var wire 32 I ImmExt [31:0] $end
   $var wire 32 H Instr [31:0] $end
   $var wire  1 W LoadSign $end
   $var wire  1 Q MemWrite $end
   $var wire 32 G PC [31:0] $end
   $var wire 32 U PCJALR [31:0] $end
   $var wire 32 P PCPlus4 [31:0] $end
   $var wire  2 M PCSrc [1:0] $end
   $var wire  1 J RegWrite $end
   $var wire  2 R ResultSrc [1:0] $end
   $var wire  2 V SizeSrc [1:0] $end
   $var wire  1 O Zero $end
   $var wire 32 k a0 [31:0] $end
   $var wire  1 i clk $end
   $var wire  5 Z rd [4:0] $end
   $var wire  5 X rs1 [4:0] $end
   $var wire  5 Y rs2 [4:0] $end
   $var wire  1 j rst $end
   $var wire  1 S signedLess $end
   $var wire  1 T unsignedLess $end
   $scope module ALUTop $end
    $var wire  4 N ALUControl [3:0] $end
    $var wire 32 U ALUResult [31:0] $end
    $var wire  1 K ALUSrcA $end
    $var wire  1 L ALUSrcB $end
    $var wire 32 I ImmExt [31:0] $end
    $var wire  1 W LoadSign $end
    $var wire  1 Q MemWrite $end
    $var wire 32 G PC [31:0] $end
    $var wire 32 P PCPlus4 [31:0] $end
    $var wire 32 l RD1 [31:0] $end
    $var wire 32 ] RD2 [31:0] $end
    $var wire 32 ^ ReadData [31:0] $end
    $var wire  1 J RegWrite $end
    $var wire 32 _ Result [31:0] $end
    $var wire 32 U ResultExt [31:0] $end
    $var wire  2 R ResultSrc [1:0] $end
    $var wire  2 V SizeSrc [1:0] $end
    $var wire 32 [ SrcA [31:0] $end
    $var wire 32 \ SrcB [31:0] $end
    $var wire 32 ] WriteData [31:0] $end
    $var wire  1 O Zero $end
    $var wire 32 k a0 [31:0] $end
    $var wire  1 i clk $end
    $var wire  5 Z rd [4:0] $end
    $var wire  5 X rs1 [4:0] $end
    $var wire  5 Y rs2 [4:0] $end
    $var wire  1 S signedLess $end
    $var wire  1 T unsignedLess $end
    $scope module ALU $end
     $var wire  4 N ALUControl [3:0] $end
     $var wire 32 U ALUResult [31:0] $end
     $var wire 32 [ SrcA [31:0] $end
     $var wire 32 \ SrcB [31:0] $end
     $var wire  1 O Zero $end
     $var wire  1 S signedLess $end
     $var wire  1 T unsignedLess $end
    $upscope $end
    $scope module ALUMux1 $end
     $var wire  1 K ALUSrcA $end
     $var wire 32 G PC [31:0] $end
     $var wire 32 l RD1 [31:0] $end
     $var wire 32 [ SrcA [31:0] $end
    $upscope $end
    $scope module ALUMux2 $end
     $var wire  1 L ALUSrcB $end
     $var wire 32 I ImmExt [31:0] $end
     $var wire 32 ] RD2 [31:0] $end
     $var wire 32 \ SrcB [31:0] $end
    $upscope $end
    $scope module ALUMux3 $end
     $var wire 32 U ALUResult [31:0] $end
     $var wire 32 P PCPlus4 [31:0] $end
     $var wire 32 ^ ReadData [31:0] $end
     $var wire 32 _ Result [31:0] $end
     $var wire  2 R ResultSrc [1:0] $end
    $upscope $end
    $scope module DataMemory $end
     $var wire 32 U ALUResult [31:0] $end
     $var wire  1 W LoadSign $end
     $var wire  1 Q MemWrite $end
     $var wire 32 ^ ReadData [31:0] $end
     $var wire  2 V SizeSrc [1:0] $end
     $var wire 32 ] WriteData [31:0] $end
     $var wire 17 ` address [16:0] $end
     $var wire  1 i clk $end
    $upscope $end
    $scope module RegisterFile $end
     $var wire  5 X A1 [4:0] $end
     $var wire  5 Y A2 [4:0] $end
     $var wire  5 Z A3 [4:0] $end
     $var wire 32 l RD1 [31:0] $end
     $var wire 32 ] RD2 [31:0] $end
     $var wire 32 _ WD3 [31:0] $end
     $var wire  1 J WE3 $end
     $var wire 32 k a0 [31:0] $end
     $var wire  1 i clk $end
     $var wire 32 ' registerarr[0] [31:0] $end
     $var wire 32 1 registerarr[10] [31:0] $end
     $var wire 32 2 registerarr[11] [31:0] $end
     $var wire 32 3 registerarr[12] [31:0] $end
     $var wire 32 4 registerarr[13] [31:0] $end
     $var wire 32 5 registerarr[14] [31:0] $end
     $var wire 32 6 registerarr[15] [31:0] $end
     $var wire 32 7 registerarr[16] [31:0] $end
     $var wire 32 8 registerarr[17] [31:0] $end
     $var wire 32 9 registerarr[18] [31:0] $end
     $var wire 32 : registerarr[19] [31:0] $end
     $var wire 32 ( registerarr[1] [31:0] $end
     $var wire 32 ; registerarr[20] [31:0] $end
     $var wire 32 < registerarr[21] [31:0] $end
     $var wire 32 = registerarr[22] [31:0] $end
     $var wire 32 > registerarr[23] [31:0] $end
     $var wire 32 ? registerarr[24] [31:0] $end
     $var wire 32 @ registerarr[25] [31:0] $end
     $var wire 32 A registerarr[26] [31:0] $end
     $var wire 32 B registerarr[27] [31:0] $end
     $var wire 32 C registerarr[28] [31:0] $end
     $var wire 32 D registerarr[29] [31:0] $end
     $var wire 32 ) registerarr[2] [31:0] $end
     $var wire 32 E registerarr[30] [31:0] $end
     $var wire 32 F registerarr[31] [31:0] $end
     $var wire 32 * registerarr[3] [31:0] $end
     $var wire 32 + registerarr[4] [31:0] $end
     $var wire 32 , registerarr[5] [31:0] $end
     $var wire 32 - registerarr[6] [31:0] $end
     $var wire 32 . registerarr[7] [31:0] $end
     $var wire 32 / registerarr[8] [31:0] $end
     $var wire 32 0 registerarr[9] [31:0] $end
    $upscope $end
   $upscope $end
   $scope module InstrTop $end
    $var wire  4 N ALUControl [3:0] $end
    $var wire  1 K ALUSrcA $end
    $var wire  1 L ALUSrcB $end
    $var wire 32 I ImmExt [31:0] $end
    $var wire 25 c ImmIn [31:7] $end
    $var wire  3 b ImmSrc [2:0] $end
    $var wire 32 H Instr [31:0] $end
    $var wire  1 W LoadSign $end
    $var wire  1 Q MemWrite $end
    $var wire 32 G PC [31:0] $end
    $var wire  2 M PCSrc [1:0] $end
    $var wire  1 J RegWrite $end
    $var wire  2 R ResultSrc [1:0] $end
    $var wire  2 V SizeSrc [1:0] $end
    $var wire  1 O Zero $end
    $var wire  3 d funct3 [2:0] $end
    $var wire  7 e funct7 [6:0] $end
    $var wire  7 a op [6:0] $end
    $var wire  1 S signedLess $end
    $var wire  1 T unsignedLess $end
    $scope module ControlUnit $end
     $var wire  4 N ALUControl [3:0] $end
     $var wire  1 K ALUSrcA $end
     $var wire  1 L ALUSrcB $end
     $var wire  3 b ImmSrc [2:0] $end
     $var wire  1 W LoadSign $end
     $var wire  1 Q MemWrite $end
     $var wire  2 M PCSrc [1:0] $end
     $var wire  1 J RegWrite $end
     $var wire  2 R ResultSrc [1:0] $end
     $var wire  2 V SizeSrc [1:0] $end
     $var wire  1 O Zero $end
     $var wire  3 d funct3 [2:0] $end
     $var wire  7 e funct7 [6:0] $end
     $var wire  7 a op [6:0] $end
     $var wire  1 S signedLess $end
     $var wire  1 T unsignedLess $end
    $upscope $end
    $scope module Extend $end
     $var wire 32 I ImmExt [31:0] $end
     $var wire 25 c ImmIn [31:7] $end
     $var wire  3 b ImmSrc [2:0] $end
    $upscope $end
    $scope module HexFileLoader $end
     $scope module unnamedblk1 $end
      $var wire 32 & addr [31:0] $end
      $var wire 32 # file [31:0] $end
      $var wire 32 % instr_word [31:0] $end
      $var wire 32 $ r [31:0] $end
     $upscope $end
    $upscope $end
    $scope module InstructionMemory $end
     $var wire 32 H Instr [31:0] $end
     $var wire 32 G PC [31:0] $end
     $var wire  1 f ValidAddr $end
    $upscope $end
   $upscope $end
   $scope module PCTop $end
    $var wire 32 I ImmExt [31:0] $end
    $var wire 32 G PC [31:0] $end
    $var wire 32 U PCJALR [31:0] $end
    $var wire 32 h PCNext [31:0] $end
    $var wire 32 P PCPlus4 [31:0] $end
    $var wire  2 M PCSrc [1:0] $end
    $var wire 32 g PCTarget [31:0] $end
    $var wire  1 i clk $end
    $var wire  1 j rst $end
    $scope module PCMux $end
     $var wire 32 U PCJALR [31:0] $end
     $var wire 32 h PCNext [31:0] $end
     $var wire 32 P PCPlus4 [31:0] $end
     $var wire  2 M PCSrc [1:0] $end
     $var wire 32 g PCTarget [31:0] $end
    $upscope $end
    $scope module PCReg $end
     $var wire 32 G PC [31:0] $end
     $var wire 32 h PCNext [31:0] $end
     $var wire  1 i clk $end
     $var wire  1 j rst $end
    $upscope $end
   $upscope $end
  $upscope $end
 $upscope $end
$enddefinitions $end


#0
b00000000000000000000000000000000 #
b00000000000000000000000000000000 $
b00000000000000000000000000000000 %
b00000000000000000000000000000000 &
b00000000000000000000000000000000 '
b00000000000000000000000000000000 (
b00000000000000000000000000000000 )
b00000000000000000000000000000000 *
b00000000000000000000000000000000 +
b00000000000000000000000000000000 ,
b00000000000000000000000000000000 -
b00000000000000000000000000000000 .
b00000000000000000000000000000000 /
b00000000000000000000000000000000 0
b00000000000000000000000000000000 1
b00000000000000000000000000000000 2
b00000000000000000000000000000000 3
b00000000000000000000000000000000 4
b00000000000000000000000000000000 5
b00000000000000000000000000000000 6
b00000000000000000000000000000000 7
b00000000000000000000000000000000 8
b00000000000000000000000000000000 9
b00000000000000000000000000000000 :
b00000000000000000000000000000000 ;
b00000000000000000000000000000000 <
b00000000000000000000000000000000 =
b00000000000000000000000000000000 >
b00000000000000000000000000000000 ?
b00000000000000000000000000000000 @
b00000000000000000000000000000000 A
b00000000000000000000000000000000 B
b00000000000000000000000000000000 C
b00000000000000000000000000000000 D
b00000000000000000000000000000000 E
b00000000000000000000000000000000 F
b00000000000000000000000000000000 G
b00000000000000000000000000000000 H
b00000000000000000000000000000000 I
0J
0K
0L
b00 M
b0000 N
0O
b00000000000000000000000000000100 P
0Q
b00 R
0S
0T
b00000000000000000000000000000000 U
b00 V
0W
b00000 X
b00000 Y
b00000 Z
b00000000000000000000000000000000 [
b00000000000000000000000000000000 \
b00000000000000000000000000000000 ]
b00000000000000000000000000000000 ^
b00000000000000000000000000000000 _
b00000000000000000 `
b0000000 a
b000 b
b0000000000000000000000000 c
b000 d
b0000000 e
0f
b00000000000000000000000000000000 g
b00000000000000000000000000000100 h
0i
0j
b00000000000000000000000000000000 k
b00000000000000000000000000000000 l
#1
b00000000000000000000000000000001 $
b00000000000000000000001111110100 &
b10111111110000000000000000000000 G
b00000000000000000000010100010011 H
1J
1L
b10111111110000000000000000000100 P
b01010 Z
b0010011 a
b0000000000000000000001010 c
1f
b10111111110000000000000000000000 g
b10111111110000000000000000000100 h
1i
#2
0i
#3
b10111111110000000000000000000100 G
b00000111010000000000000011101111 H
b00000000000000000000000001110100 I
0L
b01 M
b10111111110000000000000000001000 P
b10 R
b10100 Y
b00001 Z
b10111111110000000000000000001000 _
b1101111 a
b011 b
b0000011101000000000000001 c
b0000011 e
b10111111110000000000000001111000 g
b10111111110000000000000001111000 h
1i
#4
0i
#5
b10111111110000000000000000001000 (
b10111111110000000000000001111000 G
b00000000000100000000001010010011 H
b00000000000000000000000000000001 I
1L
b00 M
b10111111110000000000000001111100 P
b00 R
1S
1T
b00000000000000000000000000000001 U
b00001 Y
b00101 Z
b00000000000000000000000000000001 \
b10111111110000000000000000001000 ]
b00000000000000000000000000000001 _
b00000000000000001 `
b0010011 a
b000 b
b0000000000010000000000101 c
b0000000 e
b10111111110000000000000001111001 g
b10111111110000000000000001111100 h
1i
#6
0i
#7
b00000000000000000000000000000001 ,
b10111111110000000000000001111100 G
b00000000001000000000001100010011 H
b00000000000000000000000000000010 I
b10111111110000000000000010000000 P
b00000000000000000000000000000010 U
b00010 Y
b00110 Z
b00000000000000000000000000000010 \
b00000000000000000000000000000000 ]
b00000000000000000000000000000010 _
b00000000000000010 `
b0000000000100000000000110 c
b10111111110000000000000001111110 g
b10111111110000000000000010000000 h
1i
#8
0i
#9
b00000000000000000000000000000010 -
b10111111110000000000000010000000 G
b00000000011000101000001110110011 H
b00000000000000000000000000000110 I
0L
b10111111110000000000000010000100 P
b00000000000000000000000000000011 U
b00101 X
b00110 Y
b00111 Z
b00000000000000000000000000000001 [
b00000000000000000000000000000010 ]
b00000000000000000000000000000011 _
b00000000000000011 `
b0110011 a
b0000000001100010100000111 c
b10111111110000000000000010000110 g
b10111111110000000000000010000100 h
1i
b00000000000000000000000000000001 l
#10
0i
#11
b00000000000000000000000000000011 .
b10111111110000000000000010000100 G
b00000000001100000000111000010011 H
b00000000000000000000000000000011 I
1L
b10111111110000000000000010001000 P
b00000 X
b00011 Y
b11100 Z
b00000000000000000000000000000000 [
b00000000000000000000000000000011 \
b00000000000000000000000000000000 ]
b0010011 a
b0000000000110000000011100 c
b10111111110000000000000010000111 g
b10111111110000000000000010001000 h
1i
b00000000000000000000000000000000 l
#12
0i
#13
b00000000000000000000000000000011 C
b10111111110000000000000010001000 G
b00110111110000111001001001100011 H
b00000000000000000000001101100100 I
0J
0L
b0001 N
1O
b10111111110000000000000010001100 P
0S
0T
b00000000000000000000000000000000 U
b00111 X
b11100 Y
b00100 Z
b00000000000000000000000000000011 [
b00000000000000000000000000000011 ]
b00000000000000000000000000000000 _
b00000000000000000 `
b1100011 a
b010 b
b0011011111000011100100100 c
b001 d
b0011011 e
b10111111110000000000001111101100 g
b10111111110000000000000010001100 h
1i
b00000000000000000000000000000011 l
#14
0i
#15
b10111111110000000000000010001100 G
b00000000000101010000010100010011 H
b00000000000000000000000000000001 I
1J
1L
b0000 N
0O
b10111111110000000000000010010000 P
1S
1T
b00000000000000000000000000000001 U
b01010 X
b00001 Y
b01010 Z
b00000000000000000000000000000000 [
b00000000000000000000000000000001 \
b10111111110000000000000000001000 ]
b00000000000000000000000000000001 _
b00000000000000001 `
b0010011 a
b000 b
b0000000000010101000001010 c
b000 d
b0000000 e
b10111111110000000000000010001101 g
b10111111110000000000000010010000 h
1i
b00000000000000000000000000000000 l
#16
0i
#17
b00000000000000000000000000000001 1
b10111111110000000000000010010000 G
b00000000000000001000000001100111 H
b00000000000000000000000000000000 I
b10 M
b10111111110000000000000010010100 P
b10 R
0T
b10111111110000000000000000001000 U
b00001 X
b00000 Y
b00000 Z
b10111111110000000000000000001000 [
b00000000000000000000000000000000 \
b00000000000000000000000000000000 ]
b10111111110000000000000010010100 _
b00000000000001000 `
b1100111 a
b0000000000000000100000000 c
b10111111110000000000000010010000 g
b10111111110000000000000000001000 h
1i
b00000000000000000000000000000001 k
b10111111110000000000000000001000 l
#18
0i
#19
b10111111110000000000000000001000 G
b00001000110000000000000011101111 H
b00000000000000000000000010001100 I
0L
b01 M
b10111111110000000000000000001100 P
0S
b00000000000000000000000000000000 U
b00000 X
b01100 Y
b00001 Z
b00000000000000000000000000000000 [
b10111111110000000000000000001100 _
b00000000000000000 `
b1101111 a
b011 b
b0000100011000000000000001 c
b0000100 e
b10111111110000000000000010010100 g
b10111111110000000000000010010100 h
1i
b00000000000000000000000000000000 l
#20
0i
#21
b10111111110000000000000000001100 (
b10111111110000000000000010010100 G
b00000000010100000000001010010011 H
b00000000000000000000000000000101 I
1L
b00 M
b10111111110000000000000010011000 P
b00 R
1S
1T
b00000000000000000000000000000101 U
b00101 Y
b00101 Z
b00000000000000000000000000000101 \
b00000000000000000000000000000001 ]
b00000000000000000000000000000101 _
b00000000000000101 `
b0010011 a
b000 b
b0000000001010000000000101 c
b0000000 e
b10111111110000000000000010011001 g
b10111111110000000000000010011000 h
1i
#22
0i
#23
b00000000000000000000000000000101 ,
b10111111110000000000000010011000 G
b00000000001100000000001100010011 H
b00000000000000000000000000000011 I
b10111111110000000000000010011100 P
b00000000000000000000000000000011 U
b00011 Y
b00110 Z
b00000000000000000000000000000011 \
b00000000000000000000000000000000 ]
b00000000000000000000000000000011 _
b00000000000000011 `
b0000000000110000000000110 c
b10111111110000000000000010011011 g
b10111111110000000000000010011100 h
1i
#24
0i
#25
b00000000000000000000000000000011 -
b10111111110000000000000010011100 G
b01000000011000101000001110110011 H
b00000000000000000000010000000110 I
0L
b0001 N
b10111111110000000000000010100000 P
0S
0T
b00000000000000000000000000000010 U
b00101 X
b00110 Y
b00111 Z
b00000000000000000000000000000101 [
b00000000000000000000000000000011 ]
b00000000000000000000000000000010 _
b00000000000000010 `
b0110011 a
b0100000001100010100000111 c
b0100000 e
b10111111110000000000010010100010 g
b10111111110000000000000010100000 h
1i
b00000000000000000000000000000101 l
#26
0i
#27
b00000000000000000000000000000010 .
b10111111110000000000000010100000 G
b00000000001000000000111000010011 H
b00000000000000000000000000000010 I
1L
b0000 N
b10111111110000000000000010100100 P
1S
1T
b00000 X
b00010 Y
b11100 Z
b00000000000000000000000000000000 [
b00000000000000000000000000000010 \
b00000000000000000000000000000000 ]
b0010011 a
b0000000000100000000011100 c
b0000000 e
b10111111110000000000000010100010 g
b10111111110000000000000010100100 h
1i
b00000000000000000000000000000000 l
#28
0i
#29
b00000000000000000000000000000010 C
b10111111110000000000000010100100 G
b00110101110000111001010001100011 H
b00000000000000000000001101001000 I
0J
0L
b0001 N
1O
b10111111110000000000000010101000 P
0S
0T
b00000000000000000000000000000000 U
b00111 X
b11100 Y
b01000 Z
b00000000000000000000000000000010 [
b00000000000000000000000000000010 ]
b00000000000000000000000000000000 _
b00000000000000000 `
b1100011 a
b010 b
b0011010111000011100101000 c
b001 d
b0011010 e
b10111111110000000000001111101100 g
b10111111110000000000000010101000 h
1i
b00000000000000000000000000000010 l
#30
0i
#31
b10111111110000000000000010101000 G
b00000000000101010000010100010011 H
b00000000000000000000000000000001 I
1J
1L
b0000 N
0O
b10111111110000000000000010101100 P
b00000000000000000000000000000010 U
b01010 X
b00001 Y
b01010 Z
b00000000000000000000000000000001 [
b00000000000000000000000000000001 \
b10111111110000000000000000001100 ]
b00000000000000000000000000000010 _
b00000000000000010 `
b0010011 a
b000 b
b0000000000010101000001010 c
b000 d
b0000000 e
b10111111110000000000000010101001 g
b10111111110000000000000010101100 h
1i
b00000000000000000000000000000001 l
#32
0i
#33
b00000000000000000000000000000010 1
b10111111110000000000000010101100 G
b00000000000000001000000001100111 H
b00000000000000000000000000000000 I
b10 M
b10111111110000000000000010110000 P
b10 R
1S
b10111111110000000000000000001100 U
b00001 X
b00000 Y
b00000 Z
b10111111110000000000000000001100 [
b00000000000000000000000000000000 \
b00000000000000000000000000000000 ]
b10111111110000000000000010110000 _
b00000000000001100 `
b1100111 a
b0000000000000000100000000 c
b10111111110000000000000010101100 g
b10111111110000000000000000001100 h
1i
b00000000000000000000000000000010 k
b10111111110000000000000000001100 l
#34
0i
#35
b10111111110000000000000000001100 G
b00001010010000000000000011101111 H
b00000000000000000000000010100100 I
0L
b01 M
b10111111110000000000000000010000 P
0S
b00000000000000000000000000000000 U
b00000 X
b00100 Y
b00001 Z
b00000000000000000000000000000000 [
b10111111110000000000000000010000 _
b00000000000000000 `
b1101111 a
b011 b
b0000101001000000000000001 c
b0000101 e
b10111111110000000000000010110000 g
b10111111110000000000000010110000 h
1i
b00000000000000000000000000000000 l
#36
0i
#37
b10111111110000000000000000010000 (
b10111111110000000000000010110000 G
b00000000101000000000001010010011 H
b00000000000000000000000000001010 I
1L
b00 M
b10111111110000000000000010110100 P
b00 R
1S
1T
b00000000000000000000000000001010 U
b01010 Y
b00101 Z
b00000000000000000000000000001010 \
b00000000000000000000000000000010 ]
b00000000000000000000000000001010 _
b00000000000001010 `
b0010011 a
b000 b
b0000000010100000000000101 c
b0000000 e
b10111111110000000000000010111010 g
b10111111110000000000000010110100 h
1i
#38
0i
#39
b00000000000000000000000000001010 ,
b10111111110000000000000010110100 G
b00000000110000000000001100010011 H
b00000000000000000000000000001100 I
b10111111110000000000000010111000 P
b00000000000000000000000000001100 U
b01100 Y
b00110 Z
b00000000000000000000000000001100 \
b00000000000000000000000000000000 ]
b00000000000000000000000000001100 _
b00000000000001100 `
b0000000011000000000000110 c
b10111111110000000000000011000000 g
b10111111110000000000000010111000 h
1i
#40
0i
#41
b00000000000000000000000000001100 -
b10111111110000000000000010111000 G
b00000000011000101100001110110011 H
b00000000000000000000000000000110 I
0L
b0100 N
b10111111110000000000000010111100 P
b00000000000000000000000000000110 U
b00101 X
b00110 Y
b00111 Z
b00000000000000000000000000001010 [
b00000000000000000000000000001100 ]
b00000000000000000000000000000110 _
b00000000000000110 `
b0110011 a
b0000000001100010110000111 c
b100 d
b10111111110000000000000010111110 g
b10111111110000000000000010111100 h
1i
b00000000000000000000000000001010 l
#42
0i
#43
b00000000000000000000000000000110 .
b10111111110000000000000010111100 G
b00000000011000000000111000010011 H
1L
b0000 N
b10111111110000000000000011000000 P
b00000 X
b11100 Z
b00000000000000000000000000000000 [
b00000000000000000000000000000110 \
b0010011 a
b0000000001100000000011100 c
b000 d
b10111111110000000000000011000010 g
b10111111110000000000000011000000 h
1i
b00000000000000000000000000000000 l
#44
0i
#45
b00000000000000000000000000000110 C
b10111111110000000000000011000000 G
b00110011110000111001011001100011 H
b00000000000000000000001100101100 I
0J
0L
b0001 N
1O
b10111111110000000000000011000100 P
0S
0T
b00000000000000000000000000000000 U
b00111 X
b11100 Y
b01100 Z
b00000000000000000000000000000110 [
b00000000000000000000000000000110 ]
b00000000000000000000000000000000 _
b00000000000000000 `
b1100011 a
b010 b
b0011001111000011100101100 c
b001 d
b0011001 e
b10111111110000000000001111101100 g
b10111111110000000000000011000100 h
1i
b00000000000000000000000000000110 l
#46
0i
#47
b10111111110000000000000011000100 G
b00000000000101010000010100010011 H
b00000000000000000000000000000001 I
1J
1L
b0000 N
0O
b10111111110000000000000011001000 P
b00000000000000000000000000000011 U
b01010 X
b00001 Y
b01010 Z
b00000000000000000000000000000010 [
b00000000000000000000000000000001 \
b10111111110000000000000000010000 ]
b00000000000000000000000000000011 _
b00000000000000011 `
b0010011 a
b000 b
b0000000000010101000001010 c
b000 d
b0000000 e
b10111111110000000000000011000101 g
b10111111110000000000000011001000 h
1i
b00000000000000000000000000000010 l
#48
0i
#49
b00000000000000000000000000000011 1
b10111111110000000000000011001000 G
b00000000000000001000000001100111 H
b00000000000000000000000000000000 I
b10 M
b10111111110000000000000011001100 P
b10 R
1S
b10111111110000000000000000010000 U
b00001 X
b00000 Y
b00000 Z
b10111111110000000000000000010000 [
b00000000000000000000000000000000 \
b00000000000000000000000000000000 ]
b10111111110000000000000011001100 _
b00000000000010000 `
b1100111 a
b0000000000000000100000000 c
b10111111110000000000000011001000 g
b10111111110000000000000000010000 h
1i
b00000000000000000000000000000011 k
b10111111110000000000000000010000 l
#50
0i
#51
b10111111110000000000000000010000 G
b00001011110000000000000011101111 H
b00000000000000000000000010111100 I
0L
b01 M
b10111111110000000000000000010100 P
1T
b00000000000000000000000000000110 U
b00000 X
b11100 Y
b00001 Z
b00000000000000000000000000000000 [
b00000000000000000000000000000110 \
b00000000000000000000000000000110 ]
b10111111110000000000000000010100 _
b00000000000000110 `
b1101111 a
b011 b
b0000101111000000000000001 c
b0000101 e
b10111111110000000000000011001100 g
b10111111110000000000000011001100 h
1i
b00000000000000000000000000000000 l
#52
0i
#53
b10111111110000000000000000010100 (
b10111111110000000000000011001100 G
b00000000101000000000001010010011 H
b00000000000000000000000000001010 I
1L
b00 M
b10111111110000000000000011010000 P
b00 R
b00000000000000000000000000001010 U
b01010 Y
b00101 Z
b00000000000000000000000000001010 \
b00000000000000000000000000000011 ]
b00000000000000000000000000001010 _
b00000000000001010 `
b0010011 a
b000 b
b0000000010100000000000101 c
b0000000 e
b10111111110000000000000011010110 g
b10111111110000000000000011010000 h
1i
#54
0i
#55
b10111111110000000000000011010000 G
b00000000110000000000001100010011 H
b00000000000000000000000000001100 I
b10111111110000000000000011010100 P
b00000000000000000000000000001100 U
b01100 Y
b00110 Z
b00000000000000000000000000001100 \
b00000000000000000000000000000000 ]
b00000000000000000000000000001100 _
b00000000000001100 `
b0000000011000000000000110 c
b10111111110000000000000011011100 g
b10111111110000000000000011010100 h
1i
#56
0i
#57
b10111111110000000000000011010100 G
b00000000011000101110001110110011 H
b00000000000000000000000000000110 I
0L
b0011 N
b10111111110000000000000011011000 P
b00000000000000000000000000001110 U
b00101 X
b00110 Y
b00111 Z
b00000000000000000000000000001010 [
b00000000000000000000000000001100 ]
b00000000000000000000000000001110 _
b00000000000001110 `
b0110011 a
b0000000001100010111000111 c
b110 d
b10111111110000000000000011011010 g
b10111111110000000000000011011000 h
1i
b00000000000000000000000000001010 l
#58
0i
#59
b00000000000000000000000000001110 .
b10111111110000000000000011011000 G
b00000000111000000000111000010011 H
b00000000000000000000000000001110 I
1L
b0000 N
b10111111110000000000000011011100 P
b00000 X
b01110 Y
b11100 Z
b00000000000000000000000000000000 [
b00000000000000000000000000001110 \
b00000000000000000000000000000000 ]
b0010011 a
b0000000011100000000011100 c
b000 d
b10111111110000000000000011100110 g
b10111111110000000000000011011100 h
1i
b00000000000000000000000000000000 l
#60
0i
#61
b00000000000000000000000000001110 C
b10111111110000000000000011011100 G
b00110001110000111001100001100011 H
b00000000000000000000001100010000 I
0J
0L
b0001 N
1O
b10111111110000000000000011100000 P
0S
0T
b00000000000000000000000000000000 U
b00111 X
b11100 Y
b10000 Z
b00000000000000000000000000001110 [
b00000000000000000000000000001110 ]
b00000000000000000000000000000000 _
b00000000000000000 `
b1100011 a
b010 b
b0011000111000011100110000 c
b001 d
b0011000 e
b10111111110000000000001111101100 g
b10111111110000000000000011100000 h
1i
b00000000000000000000000000001110 l
#62
0i
#63
b10111111110000000000000011100000 G
b00000000000101010000010100010011 H
b00000000000000000000000000000001 I
1J
1L
b0000 N
0O
b10111111110000000000000011100100 P
b00000000000000000000000000000100 U
b01010 X
b00001 Y
b01010 Z
b00000000000000000000000000000011 [
b00000000000000000000000000000001 \
b10111111110000000000000000010100 ]
b00000000000000000000000000000100 _
b00000000000000100 `
b0010011 a
b000 b
b0000000000010101000001010 c
b000 d
b0000000 e
b10111111110000000000000011100001 g
b10111111110000000000000011100100 h
1i
b00000000000000000000000000000011 l
#64
0i
#65
b00000000000000000000000000000100 1
b10111111110000000000000011100100 G
b00000000000000001000000001100111 H
b00000000000000000000000000000000 I
b10 M
b10111111110000000000000011101000 P
b10 R
1S
b10111111110000000000000000010100 U
b00001 X
b00000 Y
b00000 Z
b10111111110000000000000000010100 [
b00000000000000000000000000000000 \
b00000000000000000000000000000000 ]
b10111111110000000000000011101000 _
b00000000000010100 `
b1100111 a
b0000000000000000100000000 c
b10111111110000000000000011100100 g
b10111111110000000000000000010100 h
1i
b00000000000000000000000000000100 k
b10111111110000000000000000010100 l
#66
0i
#67
b10111111110000000000000000010100 G
b00001101010000000000000011101111 H
b00000000000000000000000011010100 I
0L
b01 M
b10111111110000000000000000011000 P
0S
b00000000000000000000000000000000 U
b00000 X
b10100 Y
b00001 Z
b00000000000000000000000000000000 [
b10111111110000000000000000011000 _
b00000000000000000 `
b1101111 a
b011 b
b0000110101000000000000001 c
b0000110 e
b10111111110000000000000011101000 g
b10111111110000000000000011101000 h
1i
b00000000000000000000000000000000 l
#68
0i
#69
b10111111110000000000000000011000 (
b10111111110000000000000011101000 G
b00000000101000000000001010010011 H
b00000000000000000000000000001010 I
1L
b00 M
b10111111110000000000000011101100 P
b00 R
1S
1T
b00000000000000000000000000001010 U
b01010 Y
b00101 Z
b00000000000000000000000000001010 \
b00000000000000000000000000000100 ]
b00000000000000000000000000001010 _
b00000000000001010 `
b0010011 a
b000 b
b0000000010100000000000101 c
b0000000 e
b10111111110000000000000011110010 g
b10111111110000000000000011101100 h
1i
#70
0i
#71
b10111111110000000000000011101100 G
b00000000110000000000001100010011 H
b00000000000000000000000000001100 I
b10111111110000000000000011110000 P
b00000000000000000000000000001100 U
b01100 Y
b00110 Z
b00000000000000000000000000001100 \
b00000000000000000000000000000000 ]
b00000000000000000000000000001100 _
b00000000000001100 `
b0000000011000000000000110 c
b10111111110000000000000011111000 g
b10111111110000000000000011110000 h
1i
#72
0i
#73
b10111111110000000000000011110000 G
b00000000011000101111001110110011 H
b00000000000000000000000000000110 I
0L
b0010 N
b10111111110000000000000011110100 P
b00000000000000000000000000001000 U
b00101 X
b00110 Y
b00111 Z
b00000000000000000000000000001010 [
b00000000000000000000000000001100 ]
b00000000000000000000000000001000 _
b00000000000001000 `
b0110011 a
b0000000001100010111100111 c
b111 d
b10111111110000000000000011110110 g
b10111111110000000000000011110100 h
1i
b00000000000000000000000000001010 l
#74
0i
#75
b00000000000000000000000000001000 .
b10111111110000000000000011110100 G
b00000000100000000000111000010011 H
b00000000000000000000000000001000 I
1L
b0000 N
b10111111110000000000000011111000 P
b00000 X
b01000 Y
b11100 Z
b00000000000000000000000000000000 [
b00000000000000000000000000001000 \
b00000000000000000000000000000000 ]
b0010011 a
b0000000010000000000011100 c
b000 d
b10111111110000000000000011111100 g
b10111111110000000000000011111000 h
1i
b00000000000000000000000000000000 l
#76
0i
#77
b00000000000000000000000000001000 C
b10111111110000000000000011111000 G
b00101111110000111001101001100011 H
b00000000000000000000001011110100 I
0J
0L
b0001 N
1O
b10111111110000000000000011111100 P
0S
0T
b00000000000000000000000000000000 U
b00111 X
b11100 Y
b10100 Z
b00000000000000000000000000001000 [
b00000000000000000000000000001000 ]
b00000000000000000000000000000000 _
b00000000000000000 `
b1100011 a
b010 b
b0010111111000011100110100 c
b001 d
b0010111 e
b10111111110000000000001111101100 g
b10111111110000000000000011111100 h
1i
b00000000000000000000000000001000 l
#78
0i
