CPUTOP.vcd
$version Generated by VerilatedVcd $end
$date Thu Dec  5 17:55:39 2024 $end
$timescale 1ps $end

 $scope module TOP $end
  $var wire 32 h a0 [31:0] $end
  $var wire  1 e clk $end
  $var wire  1 f rst $end
  $var wire  1 g trigger $end
  $scope module top $end
   $var wire  4 J ALUControl [3:0] $end
   $var wire  1 G ALUSrcA $end
   $var wire  1 H ALUSrcB $end
   $var wire 32 E ImmExt [31:0] $end
   $var wire 32 D Instr [31:0] $end
   $var wire  1 S LoadSign $end
   $var wire  1 M MemWrite $end
   $var wire 32 C PC [31:0] $end
   $var wire 32 Q PCJALR [31:0] $end
   $var wire 32 L PCPlus4 [31:0] $end
   $var wire  2 I PCSrc [1:0] $end
   $var wire  1 F RegWrite $end
   $var wire  2 N ResultSrc [1:0] $end
   $var wire  2 R SizeSrc [1:0] $end
   $var wire  1 K Zero $end
   $var wire 32 h a0 [31:0] $end
   $var wire  1 e clk $end
   $var wire  5 V rd [4:0] $end
   $var wire  5 T rs1 [4:0] $end
   $var wire  5 U rs2 [4:0] $end
   $var wire  1 f rst $end
   $var wire  1 O signedLess $end
   $var wire  1 g trigger $end
   $var wire  1 P unsignedLess $end
   $scope module ALUTop $end
    $var wire  4 J ALUControl [3:0] $end
    $var wire 32 Q ALUResult [31:0] $end
    $var wire  1 G ALUSrcA $end
    $var wire  1 H ALUSrcB $end
    $var wire 32 E ImmExt [31:0] $end
    $var wire  1 S LoadSign $end
    $var wire  1 M MemWrite $end
    $var wire 32 C PC [31:0] $end
    $var wire 32 L PCPlus4 [31:0] $end
    $var wire 32 i RD1 [31:0] $end
    $var wire 32 Y RD2 [31:0] $end
    $var wire 32 Z ReadData [31:0] $end
    $var wire  1 F RegWrite $end
    $var wire 32 [ Result [31:0] $end
    $var wire 32 Q ResultExt [31:0] $end
    $var wire  2 N ResultSrc [1:0] $end
    $var wire  2 R SizeSrc [1:0] $end
    $var wire 32 W SrcA [31:0] $end
    $var wire 32 X SrcB [31:0] $end
    $var wire 32 Y WriteData [31:0] $end
    $var wire  1 K Zero $end
    $var wire 32 h a0 [31:0] $end
    $var wire  1 e clk $end
    $var wire  5 V rd [4:0] $end
    $var wire  5 T rs1 [4:0] $end
    $var wire  5 U rs2 [4:0] $end
    $var wire  1 O signedLess $end
    $var wire  1 g trigger $end
    $var wire  1 P unsignedLess $end
    $scope module ALU $end
     $var wire  4 J ALUControl [3:0] $end
     $var wire 32 Q ALUResult [31:0] $end
     $var wire 32 W SrcA [31:0] $end
     $var wire 32 X SrcB [31:0] $end
     $var wire  1 K Zero $end
     $var wire  1 O signedLess $end
     $var wire  1 P unsignedLess $end
    $upscope $end
    $scope module ALUMux1 $end
     $var wire  1 G ALUSrcA $end
     $var wire 32 C PC [31:0] $end
     $var wire 32 i RD1 [31:0] $end
     $var wire 32 W SrcA [31:0] $end
    $upscope $end
    $scope module ALUMux2 $end
     $var wire  1 H ALUSrcB $end
     $var wire 32 E ImmExt [31:0] $end
     $var wire 32 Y RD2 [31:0] $end
     $var wire 32 X SrcB [31:0] $end
    $upscope $end
    $scope module ALUMux3 $end
     $var wire 32 Q ALUResult [31:0] $end
     $var wire 32 L PCPlus4 [31:0] $end
     $var wire 32 Z ReadData [31:0] $end
     $var wire 32 [ Result [31:0] $end
     $var wire  2 N ResultSrc [1:0] $end
    $upscope $end
    $scope module DataMemory $end
     $var wire 32 Q ALUResult [31:0] $end
     $var wire  1 S LoadSign $end
     $var wire  1 M MemWrite $end
     $var wire 32 Z ReadData [31:0] $end
     $var wire  2 R SizeSrc [1:0] $end
     $var wire 32 Y WriteData [31:0] $end
     $var wire 17 \ address [16:0] $end
     $var wire  1 e clk $end
    $upscope $end
    $scope module RegisterFile $end
     $var wire  5 T A1 [4:0] $end
     $var wire  5 U A2 [4:0] $end
     $var wire  5 V A3 [4:0] $end
     $var wire 32 i RD1 [31:0] $end
     $var wire 32 Y RD2 [31:0] $end
     $var wire 32 [ WD3 [31:0] $end
     $var wire  1 F WE3 $end
     $var wire 32 h a0 [31:0] $end
     $var wire  1 e clk $end
     $var wire 32 # registerarr[0] [31:0] $end
     $var wire 32 - registerarr[10] [31:0] $end
     $var wire 32 . registerarr[11] [31:0] $end
     $var wire 32 / registerarr[12] [31:0] $end
     $var wire 32 0 registerarr[13] [31:0] $end
     $var wire 32 1 registerarr[14] [31:0] $end
     $var wire 32 2 registerarr[15] [31:0] $end
     $var wire 32 3 registerarr[16] [31:0] $end
     $var wire 32 4 registerarr[17] [31:0] $end
     $var wire 32 5 registerarr[18] [31:0] $end
     $var wire 32 6 registerarr[19] [31:0] $end
     $var wire 32 $ registerarr[1] [31:0] $end
     $var wire 32 7 registerarr[20] [31:0] $end
     $var wire 32 8 registerarr[21] [31:0] $end
     $var wire 32 9 registerarr[22] [31:0] $end
     $var wire 32 : registerarr[23] [31:0] $end
     $var wire 32 ; registerarr[24] [31:0] $end
     $var wire 32 < registerarr[25] [31:0] $end
     $var wire 32 = registerarr[26] [31:0] $end
     $var wire 32 > registerarr[27] [31:0] $end
     $var wire 32 ? registerarr[28] [31:0] $end
     $var wire 32 @ registerarr[29] [31:0] $end
     $var wire 32 % registerarr[2] [31:0] $end
     $var wire 32 A registerarr[30] [31:0] $end
     $var wire 32 B registerarr[31] [31:0] $end
     $var wire 32 & registerarr[3] [31:0] $end
     $var wire 32 ' registerarr[4] [31:0] $end
     $var wire 32 ( registerarr[5] [31:0] $end
     $var wire 32 ) registerarr[6] [31:0] $end
     $var wire 32 * registerarr[7] [31:0] $end
     $var wire 32 + registerarr[8] [31:0] $end
     $var wire 32 , registerarr[9] [31:0] $end
     $var wire  1 g trigger $end
    $upscope $end
   $upscope $end
   $scope module InstrTop $end
    $var wire  4 J ALUControl [3:0] $end
    $var wire  1 G ALUSrcA $end
    $var wire  1 H ALUSrcB $end
    $var wire 32 E ImmExt [31:0] $end
    $var wire 25 _ ImmIn [31:7] $end
    $var wire  3 ^ ImmSrc [2:0] $end
    $var wire 32 D Instr [31:0] $end
    $var wire  1 S LoadSign $end
    $var wire  1 M MemWrite $end
    $var wire 32 C PC [31:0] $end
    $var wire  2 I PCSrc [1:0] $end
    $var wire  1 F RegWrite $end
    $var wire  2 N ResultSrc [1:0] $end
    $var wire  2 R SizeSrc [1:0] $end
    $var wire  1 K Zero $end
    $var wire  3 ` funct3 [2:0] $end
    $var wire  7 a funct7 [6:0] $end
    $var wire  7 ] op [6:0] $end
    $var wire  1 O signedLess $end
    $var wire  1 P unsignedLess $end
    $scope module ControlUnit $end
     $var wire  4 J ALUControl [3:0] $end
     $var wire  1 G ALUSrcA $end
     $var wire  1 H ALUSrcB $end
     $var wire  3 ^ ImmSrc [2:0] $end
     $var wire  1 S LoadSign $end
     $var wire  1 M MemWrite $end
     $var wire  2 I PCSrc [1:0] $end
     $var wire  1 F RegWrite $end
     $var wire  2 N ResultSrc [1:0] $end
     $var wire  2 R SizeSrc [1:0] $end
     $var wire  1 K Zero $end
     $var wire  3 ` funct3 [2:0] $end
     $var wire  7 a funct7 [6:0] $end
     $var wire  7 ] op [6:0] $end
     $var wire  1 O signedLess $end
     $var wire  1 P unsignedLess $end
    $upscope $end
    $scope module Extend $end
     $var wire 32 E ImmExt [31:0] $end
     $var wire 25 _ ImmIn [31:7] $end
     $var wire  3 ^ ImmSrc [2:0] $end
    $upscope $end
    $scope module InstructionMemory $end
     $var wire 32 D Instr [31:0] $end
     $var wire 32 C PC [31:0] $end
     $var wire  1 b ValidAddr $end
    $upscope $end
   $upscope $end
   $scope module PCTop $end
    $var wire 32 E ImmExt [31:0] $end
    $var wire 32 C PC [31:0] $end
    $var wire 32 Q PCJALR [31:0] $end
    $var wire 32 d PCNext [31:0] $end
    $var wire 32 L PCPlus4 [31:0] $end
    $var wire  2 I PCSrc [1:0] $end
    $var wire 32 c PCTarget [31:0] $end
    $var wire  1 e clk $end
    $var wire  1 f rst $end
    $scope module PCMux $end
     $var wire 32 Q PCJALR [31:0] $end
     $var wire 32 d PCNext [31:0] $end
     $var wire 32 L PCPlus4 [31:0] $end
     $var wire  2 I PCSrc [1:0] $end
     $var wire 32 c PCTarget [31:0] $end
    $upscope $end
    $scope module PCReg $end
     $var wire 32 C PC [31:0] $end
     $var wire 32 d PCNext [31:0] $end
     $var wire  1 e clk $end
     $var wire  1 f rst $end
    $upscope $end
   $upscope $end
  $upscope $end
 $upscope $end
$enddefinitions $end


#0
b00000000000000000000000000000000 #
b00000000000000000000000000000000 $
b00000000000000000000000000000000 %
b00000000000000000000000000000000 &
b00000000000000000000000000000000 '
b00000000000000000000000000000000 (
b00000000000000000000000000000000 )
b00000000000000000000000000000000 *
b00000000000000000000000000000000 +
b00000000000000000000000000000000 ,
b00000000000000000000000000000000 -
b00000000000000000000000000000000 .
b00000000000000000000000000000000 /
b00000000000000000000000000000000 0
b00000000000000000000000000000000 1
b00000000000000000000000000000000 2
b00000000000000000000000000000000 3
b00000000000000000000000000000000 4
b00000000000000000000000000000000 5
b00000000000000000000000000000000 6
b00000000000000000000000000000000 7
b00000000000000000000000000000000 8
b00000000000000000000000000000000 9
b00000000000000000000000000000000 :
b00000000000000000000000000000000 ;
b00000000000000000000000000000000 <
b00000000000000000000000000000000 =
b00000000000000000000000000000000 >
b00000000000000000000000000000000 ?
b00000000000000000000000000000000 @
b00000000000000000000000000000000 A
b00000000000000000000000000000000 B
b00000000000000000000000000000000 C
b00000000000000000000000000000000 D
b00000000000000000000000000000000 E
0F
0G
0H
b00 I
b0000 J
0K
b00000000000000000000000000000100 L
0M
b00 N
0O
0P
b00000000000000000000000000000000 Q
b00 R
0S
b00000 T
b00000 U
b00000 V
b00000000000000000000000000000000 W
b00000000000000000000000000000000 X
b00000000000000000000000000000000 Y
b00000000000000000000000000000000 Z
b00000000000000000000000000000000 [
b00000000000000000 \
b0000000 ]
b000 ^
b0000000000000000000000000 _
b000 `
b0000000 a
0b
b00000000000000000000000000000000 c
b00000000000000000000000000000100 d
0e
0f
0g
b00000000000000000000000000000000 h
b00000000000000000000000000000000 i
#1
b10111111110000000000000000000000 C
b00000000000000000000010100010011 D
1F
1H
b10111111110000000000000000000100 L
b01010 V
b0010011 ]
b0000000000000000000001010 _
1b
b10111111110000000000000000000000 c
b10111111110000000000000000000100 d
1e
#2
0e
#3
b10111111110000000000000000000100 C
b00001111111100000000001010010011 D
b00000000000000000000000011111111 E
b10111111110000000000000000001000 L
1O
1P
b00000000000000000000000011111111 Q
b11111 U
b00101 V
b00000000000000000000000011111111 X
b00000000000000000000000011111111 [
b00000000011111111 \
b0000111111110000000000101 _
b0000111 a
b10111111110000000000000100000011 c
b10111111110000000000000000001000 d
1e
#4
0e
#5
b00000000000000000000000011111111 (
b10111111110000000000000000001000 C
b00000000000000000000111000010011 D
b00000000000000000000000000000000 E
b10111111110000000000000000001100 L
0O
0P
b00000000000000000000000000000000 Q
b00000 U
b11100 V
b00000000000000000000000000000000 X
b00000000000000000000000000000000 [
b00000000000000000 \
b0000000000000000000011100 _
b0000000 a
b10111111110000000000000000001000 c
b10111111110000000000000000001100 d
1e
#6
0e
#7
b10111111110000000000000000001100 C
b00000000000000000000111100010011 D
b10111111110000000000000000010000 L
b11110 V
b0000000000000000000011110 _
b10111111110000000000000000001100 c
b10111111110000000000000000010000 d
1e
#8
0e
#9
b10111111110000000000000000010000 C
b00000000000000000000001100010011 D
b10111111110000000000000000010100 L
b00110 V
b0000000000000000000000110 _
b10111111110000000000000000010000 c
b10111111110000000000000000010100 d
1e
#10
0e
#11
b10111111110000000000000000010100 C
b00000001000000000000011000010011 D
b00000000000000000000000000010000 E
b10111111110000000000000000011000 L
1O
1P
b00000000000000000000000000010000 Q
b10000 U
b01100 V
b00000000000000000000000000010000 X
b00000000000000000000000000010000 [
b00000000000010000 \
b0000000100000000000001100 _
b10111111110000000000000000100100 c
b10111111110000000000000000011000 d
1e
#12
0e
#13
b00000000000000000000000000010000 /
b10111111110000000000000000011000 C
b00000000000000000000011010010011 D
b00000000000000000000000000000000 E
b10111111110000000000000000011100 L
0O
0P
b00000000000000000000000000000000 Q
b00000 U
b01101 V
b00000000000000000000000000000000 X
b00000000000000000000000000000000 [
b00000000000000000 \
b0000000000000000000001101 _
b10111111110000000000000000011000 c
b10111111110000000000000000011100 d
1e
#14
0e
#15
b10111111110000000000000000011100 C
b00000000000111110000111100010011 D
b00000000000000000000000000000001 E
b10111111110000000000000000100000 L
1O
1P
b00000000000000000000000000000001 Q
b11110 T
b00001 U
b11110 V
b00000000000000000000000000000001 X
b00000000000000000000000000000001 [
b00000000000000001 \
b0000000000011111000011110 _
b10111111110000000000000000011101 c
b10111111110000000000000000100000 d
1e
#16
0e
#17
b00000000000000000000000000000001 A
b10111111110000000000000000100000 C
b00001111111111110111111100010011 D
b00000000000000000000000011111111 E
b0010 J
b10111111110000000000000000100100 L
b11111 U
b00000000000000000000000000000001 W
b00000000000000000000000011111111 X
b0000111111111111011111110 _
b111 `
b0000111 a
b10111111110000000000000100011111 c
b10111111110000000000000000100100 d
1e
b00000000000000000000000000000001 i
#18
0e
#19
b10111111110000000000000000100100 C
b11111110000000110000110011100011 D
b11111111111111111111111111111000 E
0F
0H
b01 I
b0001 J
1K
b10111111110000000000000000101000 L
0O
0P
b00000000000000000000000000000000 Q
b00110 T
b00000 U
b11001 V
b00000000000000000000000000000000 W
b00000000000000000000000000000000 X
b00000000000000000000000000000000 [
b00000000000000000 \
b1100011 ]
b010 ^
b1111111000000011000011001 _
b000 `
b1111111 a
b10111111110000000000000000011100 c
b10111111110000000000000000011100 d
1e
b00000000000000000000000000000000 i
#20
0e
#21
b10111111110000000000000000011100 C
b00000000000111110000111100010011 D
b00000000000000000000000000000001 E
1F
1H
b00 I
b0000 J
0K
b10111111110000000000000000100000 L
b00000000000000000000000000000010 Q
b11110 T
b00001 U
b11110 V
b00000000000000000000000000000001 W
b00000000000000000000000000000001 X
b00000000000000000000000000000010 [
b00000000000000010 \
b0010011 ]
b000 ^
b0000000000011111000011110 _
b0000000 a
b10111111110000000000000000011101 c
b10111111110000000000000000100000 d
1e
b00000000000000000000000000000001 i
#22
0e
#23
b00000000000000000000000000000010 A
b10111111110000000000000000100000 C
b00001111111111110111111100010011 D
b00000000000000000000000011111111 E
b0010 J
b10111111110000000000000000100100 L
1O
1P
b11111 U
b00000000000000000000000000000010 W
b00000000000000000000000011111111 X
b0000111111111111011111110 _
b111 `
b0000111 a
b10111111110000000000000100011111 c
b10111111110000000000000000100100 d
1e
b00000000000000000000000000000010 i
#24
0e
#25
b10111111110000000000000000100100 C
b11111110000000110000110011100011 D
b11111111111111111111111111111000 E
0F
0H
b01 I
b0001 J
1K
b10111111110000000000000000101000 L
0O
0P
b00000000000000000000000000000000 Q
b00110 T
b00000 U
b11001 V
b00000000000000000000000000000000 W
b00000000000000000000000000000000 X
b00000000000000000000000000000000 [
b00000000000000000 \
b1100011 ]
b010 ^
b1111111000000011000011001 _
b000 `
b1111111 a
b10111111110000000000000000011100 c
b10111111110000000000000000011100 d
1e
b00000000000000000000000000000000 i
#26
0e
#27
b10111111110000000000000000011100 C
b00000000000111110000111100010011 D
b00000000000000000000000000000001 E
1F
1H
b00 I
b0000 J
0K
b10111111110000000000000000100000 L
b00000000000000000000000000000011 Q
b11110 T
b00001 U
b11110 V
b00000000000000000000000000000010 W
b00000000000000000000000000000001 X
b00000000000000000000000000000011 [
b00000000000000011 \
b0010011 ]
b000 ^
b0000000000011111000011110 _
b0000000 a
b10111111110000000000000000011101 c
b10111111110000000000000000100000 d
1e
b00000000000000000000000000000010 i
#28
0e
#29
b00000000000000000000000000000011 A
b10111111110000000000000000100000 C
b00001111111111110111111100010011 D
b00000000000000000000000011111111 E
b0010 J
b10111111110000000000000000100100 L
1O
1P
b11111 U
b00000000000000000000000000000011 W
b00000000000000000000000011111111 X
b0000111111111111011111110 _
b111 `
b0000111 a
b10111111110000000000000100011111 c
b10111111110000000000000000100100 d
1e
b00000000000000000000000000000011 i
#30
0e
#31
b10111111110000000000000000100100 C
b11111110000000110000110011100011 D
b11111111111111111111111111111000 E
0F
0H
b01 I
b0001 J
1K
b10111111110000000000000000101000 L
0O
0P
b00000000000000000000000000000000 Q
b00110 T
b00000 U
b11001 V
b00000000000000000000000000000000 W
b00000000000000000000000000000000 X
b00000000000000000000000000000000 [
b00000000000000000 \
b1100011 ]
b010 ^
b1111111000000011000011001 _
b000 `
b1111111 a
b10111111110000000000000000011100 c
b10111111110000000000000000011100 d
1e
b00000000000000000000000000000000 i
#32
0e
#33
b10111111110000000000000000011100 C
b00000000000111110000111100010011 D
b00000000000000000000000000000001 E
1F
1H
b00 I
b0000 J
0K
b10111111110000000000000000100000 L
b00000000000000000000000000000100 Q
b11110 T
b00001 U
b11110 V
b00000000000000000000000000000011 W
b00000000000000000000000000000001 X
b00000000000000000000000000000100 [
b00000000000000100 \
b0010011 ]
b000 ^
b0000000000011111000011110 _
b0000000 a
b10111111110000000000000000011101 c
b10111111110000000000000000100000 d
1e
b00000000000000000000000000000011 i
#34
0e
#35
b00000000000000000000000000000100 A
b10111111110000000000000000100000 C
b00001111111111110111111100010011 D
b00000000000000000000000011111111 E
b0010 J
b10111111110000000000000000100100 L
1O
1P
b11111 U
b00000000000000000000000000000100 W
b00000000000000000000000011111111 X
b0000111111111111011111110 _
b111 `
b0000111 a
b10111111110000000000000100011111 c
b10111111110000000000000000100100 d
1e
b00000000000000000000000000000100 i
#36
0e
#37
b10111111110000000000000000100100 C
b11111110000000110000110011100011 D
b11111111111111111111111111111000 E
0F
0H
b01 I
b0001 J
1K
b10111111110000000000000000101000 L
0O
0P
b00000000000000000000000000000000 Q
b00110 T
b00000 U
b11001 V
b00000000000000000000000000000000 W
b00000000000000000000000000000000 X
b00000000000000000000000000000000 [
b00000000000000000 \
b1100011 ]
b010 ^
b1111111000000011000011001 _
b000 `
b1111111 a
b10111111110000000000000000011100 c
b10111111110000000000000000011100 d
1e
b00000000000000000000000000000000 i
#38
0e
#39
b10111111110000000000000000011100 C
b00000000000111110000111100010011 D
b00000000000000000000000000000001 E
1F
1H
b00 I
b0000 J
0K
b10111111110000000000000000100000 L
b00000000000000000000000000000101 Q
b11110 T
b00001 U
b11110 V
b00000000000000000000000000000100 W
b00000000000000000000000000000001 X
b00000000000000000000000000000101 [
b00000000000000101 \
b0010011 ]
b000 ^
b0000000000011111000011110 _
b0000000 a
b10111111110000000000000000011101 c
b10111111110000000000000000100000 d
1e
b00000000000000000000000000000100 i
#40
0e
#41
b00000000000000000000000000000101 A
b10111111110000000000000000100000 C
b00001111111111110111111100010011 D
b00000000000000000000000011111111 E
b0010 J
b10111111110000000000000000100100 L
1O
1P
b11111 U
b00000000000000000000000000000101 W
b00000000000000000000000011111111 X
b0000111111111111011111110 _
b111 `
b0000111 a
b10111111110000000000000100011111 c
b10111111110000000000000000100100 d
1e
b00000000000000000000000000000101 i
#42
0e
#43
b10111111110000000000000000100100 C
b11111110000000110000110011100011 D
b11111111111111111111111111111000 E
0F
0H
b01 I
b0001 J
1K
b10111111110000000000000000101000 L
0O
0P
b00000000000000000000000000000000 Q
b00110 T
b00000 U
b11001 V
b00000000000000000000000000000000 W
b00000000000000000000000000000000 X
b00000000000000000000000000000000 [
b00000000000000000 \
b1100011 ]
b010 ^
b1111111000000011000011001 _
b000 `
b1111111 a
b10111111110000000000000000011100 c
b10111111110000000000000000011100 d
1e
b00000000000000000000000000000000 i
#44
0e
#45
b10111111110000000000000000011100 C
b00000000000111110000111100010011 D
b00000000000000000000000000000001 E
1F
1H
b00 I
b0000 J
0K
b10111111110000000000000000100000 L
b00000000000000000000000000000110 Q
b11110 T
b00001 U
b11110 V
b00000000000000000000000000000101 W
b00000000000000000000000000000001 X
b00000000000000000000000000000110 [
b00000000000000110 \
b0010011 ]
b000 ^
b0000000000011111000011110 _
b0000000 a
b10111111110000000000000000011101 c
b10111111110000000000000000100000 d
1e
b00000000000000000000000000000101 i
#46
0e
#47
b00000000000000000000000000000110 A
b10111111110000000000000000100000 C
b00001111111111110111111100010011 D
b00000000000000000000000011111111 E
b0010 J
b10111111110000000000000000100100 L
1O
1P
b11111 U
b00000000000000000000000000000110 W
b00000000000000000000000011111111 X
b0000111111111111011111110 _
b111 `
b0000111 a
b10111111110000000000000100011111 c
b10111111110000000000000000100100 d
1e
b00000000000000000000000000000110 i
#48
0e
#49
b10111111110000000000000000100100 C
b11111110000000110000110011100011 D
b11111111111111111111111111111000 E
0F
0H
b01 I
b0001 J
1K
b10111111110000000000000000101000 L
0O
0P
b00000000000000000000000000000000 Q
b00110 T
b00000 U
b11001 V
b00000000000000000000000000000000 W
b00000000000000000000000000000000 X
b00000000000000000000000000000000 [
b00000000000000000 \
b1100011 ]
b010 ^
b1111111000000011000011001 _
b000 `
b1111111 a
b10111111110000000000000000011100 c
b10111111110000000000000000011100 d
1e
b00000000000000000000000000000000 i
#50
0e
#51
b10111111110000000000000000011100 C
b00000000000111110000111100010011 D
b00000000000000000000000000000001 E
1F
1H
b00 I
b0000 J
0K
b10111111110000000000000000100000 L
b00000000000000000000000000000111 Q
b11110 T
b00001 U
b11110 V
b00000000000000000000000000000110 W
b00000000000000000000000000000001 X
b00000000000000000000000000000111 [
b00000000000000111 \
b0010011 ]
b000 ^
b0000000000011111000011110 _
b0000000 a
b10111111110000000000000000011101 c
b10111111110000000000000000100000 d
1e
b00000000000000000000000000000110 i
#52
0e
#53
b00000000000000000000000000000111 A
b10111111110000000000000000100000 C
b00001111111111110111111100010011 D
b00000000000000000000000011111111 E
b0010 J
b10111111110000000000000000100100 L
1O
1P
b11111 U
b00000000000000000000000000000111 W
b00000000000000000000000011111111 X
b0000111111111111011111110 _
b111 `
b0000111 a
b10111111110000000000000100011111 c
b10111111110000000000000000100100 d
1e
b00000000000000000000000000000111 i
#54
0e
#55
b10111111110000000000000000100100 C
b11111110000000110000110011100011 D
b11111111111111111111111111111000 E
0F
0H
b01 I
b0001 J
1K
b10111111110000000000000000101000 L
0O
0P
b00000000000000000000000000000000 Q
b00110 T
b00000 U
b11001 V
b00000000000000000000000000000000 W
b00000000000000000000000000000000 X
b00000000000000000000000000000000 [
b00000000000000000 \
b1100011 ]
b010 ^
b1111111000000011000011001 _
b000 `
b1111111 a
b10111111110000000000000000011100 c
b10111111110000000000000000011100 d
1e
b00000000000000000000000000000000 i
#56
0e
#57
b10111111110000000000000000011100 C
b00000000000111110000111100010011 D
b00000000000000000000000000000001 E
1F
1H
b00 I
b0000 J
0K
b10111111110000000000000000100000 L
b00000000000000000000000000001000 Q
b11110 T
b00001 U
b11110 V
b00000000000000000000000000000111 W
b00000000000000000000000000000001 X
b00000000000000000000000000001000 [
b00000000000001000 \
b0010011 ]
b000 ^
b0000000000011111000011110 _
b0000000 a
b10111111110000000000000000011101 c
b10111111110000000000000000100000 d
1e
b00000000000000000000000000000111 i
#58
0e
#59
b00000000000000000000000000001000 A
b10111111110000000000000000100000 C
b00001111111111110111111100010011 D
b00000000000000000000000011111111 E
b0010 J
b10111111110000000000000000100100 L
1O
1P
b11111 U
b00000000000000000000000000001000 W
b00000000000000000000000011111111 X
b0000111111111111011111110 _
b111 `
b0000111 a
b10111111110000000000000100011111 c
b10111111110000000000000000100100 d
1e
b00000000000000000000000000001000 i
#60
0e
#61
b10111111110000000000000000100100 C
b11111110000000110000110011100011 D
b11111111111111111111111111111000 E
0F
0H
b01 I
b0001 J
1K
b10111111110000000000000000101000 L
0O
0P
b00000000000000000000000000000000 Q
b00110 T
b00000 U
b11001 V
b00000000000000000000000000000000 W
b00000000000000000000000000000000 X
b00000000000000000000000000000000 [
b00000000000000000 \
b1100011 ]
b010 ^
b1111111000000011000011001 _
b000 `
b1111111 a
b10111111110000000000000000011100 c
b10111111110000000000000000011100 d
1e
b00000000000000000000000000000000 i
#62
0e
#63
b10111111110000000000000000011100 C
b00000000000111110000111100010011 D
b00000000000000000000000000000001 E
1F
1H
b00 I
b0000 J
0K
b10111111110000000000000000100000 L
b00000000000000000000000000001001 Q
b11110 T
b00001 U
b11110 V
b00000000000000000000000000001000 W
b00000000000000000000000000000001 X
b00000000000000000000000000001001 [
b00000000000001001 \
b0010011 ]
b000 ^
b0000000000011111000011110 _
b0000000 a
b10111111110000000000000000011101 c
b10111111110000000000000000100000 d
1e
b00000000000000000000000000001000 i
#64
0e
#65
b00000000000000000000000000001001 A
b10111111110000000000000000100000 C
b00001111111111110111111100010011 D
b00000000000000000000000011111111 E
b0010 J
b10111111110000000000000000100100 L
1O
1P
b11111 U
b00000000000000000000000000001001 W
b00000000000000000000000011111111 X
b0000111111111111011111110 _
b111 `
b0000111 a
b10111111110000000000000100011111 c
b10111111110000000000000000100100 d
1e
b00000000000000000000000000001001 i
#66
0e
#67
b10111111110000000000000000100100 C
b11111110000000110000110011100011 D
b11111111111111111111111111111000 E
0F
0H
b01 I
b0001 J
1K
b10111111110000000000000000101000 L
0O
0P
b00000000000000000000000000000000 Q
b00110 T
b00000 U
b11001 V
b00000000000000000000000000000000 W
b00000000000000000000000000000000 X
b00000000000000000000000000000000 [
b00000000000000000 \
b1100011 ]
b010 ^
b1111111000000011000011001 _
b000 `
b1111111 a
b10111111110000000000000000011100 c
b10111111110000000000000000011100 d
1e
b00000000000000000000000000000000 i
#68
0e
#69
b10111111110000000000000000011100 C
b00000000000111110000111100010011 D
b00000000000000000000000000000001 E
1F
1H
b00 I
b0000 J
0K
b10111111110000000000000000100000 L
b00000000000000000000000000001010 Q
b11110 T
b00001 U
b11110 V
b00000000000000000000000000001001 W
b00000000000000000000000000000001 X
b00000000000000000000000000001010 [
b00000000000001010 \
b0010011 ]
b000 ^
b0000000000011111000011110 _
b0000000 a
b10111111110000000000000000011101 c
b10111111110000000000000000100000 d
1e
b00000000000000000000000000001001 i
#70
0e
#71
b00000000000000000000000000001010 A
b10111111110000000000000000100000 C
b00001111111111110111111100010011 D
b00000000000000000000000011111111 E
b0010 J
b10111111110000000000000000100100 L
1O
1P
b11111 U
b00000000000000000000000000001010 W
b00000000000000000000000011111111 X
b0000111111111111011111110 _
b111 `
b0000111 a
b10111111110000000000000100011111 c
b10111111110000000000000000100100 d
1e
b00000000000000000000000000001010 i
#72
0e
#73
b10111111110000000000000000100100 C
b11111110000000110000110011100011 D
b11111111111111111111111111111000 E
0F
0H
b01 I
b0001 J
1K
b10111111110000000000000000101000 L
0O
0P
b00000000000000000000000000000000 Q
b00110 T
b00000 U
b11001 V
b00000000000000000000000000000000 W
b00000000000000000000000000000000 X
b00000000000000000000000000000000 [
b00000000000000000 \
b1100011 ]
b010 ^
b1111111000000011000011001 _
b000 `
b1111111 a
b10111111110000000000000000011100 c
b10111111110000000000000000011100 d
1e
b00000000000000000000000000000000 i
#74
0e
#75
b10111111110000000000000000011100 C
b00000000000111110000111100010011 D
b00000000000000000000000000000001 E
1F
1H
b00 I
b0000 J
0K
b10111111110000000000000000100000 L
b00000000000000000000000000001011 Q
b11110 T
b00001 U
b11110 V
b00000000000000000000000000001010 W
b00000000000000000000000000000001 X
b00000000000000000000000000001011 [
b00000000000001011 \
b0010011 ]
b000 ^
b0000000000011111000011110 _
b0000000 a
b10111111110000000000000000011101 c
b10111111110000000000000000100000 d
1e
b00000000000000000000000000001010 i
#76
0e
#77
b00000000000000000000000000001011 A
b10111111110000000000000000100000 C
b00001111111111110111111100010011 D
b00000000000000000000000011111111 E
b0010 J
b10111111110000000000000000100100 L
1O
1P
b11111 U
b00000000000000000000000000001011 W
b00000000000000000000000011111111 X
b0000111111111111011111110 _
b111 `
b0000111 a
b10111111110000000000000100011111 c
b10111111110000000000000000100100 d
1e
b00000000000000000000000000001011 i
#78
0e
#79
b10111111110000000000000000100100 C
b11111110000000110000110011100011 D
b11111111111111111111111111111000 E
0F
0H
b01 I
b0001 J
1K
b10111111110000000000000000101000 L
0O
0P
b00000000000000000000000000000000 Q
b00110 T
b00000 U
b11001 V
b00000000000000000000000000000000 W
b00000000000000000000000000000000 X
b00000000000000000000000000000000 [
b00000000000000000 \
b1100011 ]
b010 ^
b1111111000000011000011001 _
b000 `
b1111111 a
b10111111110000000000000000011100 c
b10111111110000000000000000011100 d
1e
b00000000000000000000000000000000 i
#80
0e
#81
b10111111110000000000000000011100 C
b00000000000111110000111100010011 D
b00000000000000000000000000000001 E
1F
1H
b00 I
b0000 J
0K
b10111111110000000000000000100000 L
b00000000000000000000000000001100 Q
b11110 T
b00001 U
b11110 V
b00000000000000000000000000001011 W
b00000000000000000000000000000001 X
b00000000000000000000000000001100 [
b00000000000001100 \
b0010011 ]
b000 ^
b0000000000011111000011110 _
b0000000 a
b10111111110000000000000000011101 c
b10111111110000000000000000100000 d
1e
b00000000000000000000000000001011 i
#82
0e
#83
b00000000000000000000000000001100 A
b10111111110000000000000000100000 C
b00001111111111110111111100010011 D
b00000000000000000000000011111111 E
b0010 J
b10111111110000000000000000100100 L
1O
1P
b11111 U
b00000000000000000000000000001100 W
b00000000000000000000000011111111 X
b0000111111111111011111110 _
b111 `
b0000111 a
b10111111110000000000000100011111 c
b10111111110000000000000000100100 d
1e
b00000000000000000000000000001100 i
#84
0e
#85
b10111111110000000000000000100100 C
b11111110000000110000110011100011 D
b11111111111111111111111111111000 E
0F
0H
b01 I
b0001 J
1K
b10111111110000000000000000101000 L
0O
0P
b00000000000000000000000000000000 Q
b00110 T
b00000 U
b11001 V
b00000000000000000000000000000000 W
b00000000000000000000000000000000 X
b00000000000000000000000000000000 [
b00000000000000000 \
b1100011 ]
b010 ^
b1111111000000011000011001 _
b000 `
b1111111 a
b10111111110000000000000000011100 c
b10111111110000000000000000011100 d
1e
b00000000000000000000000000000000 i
#86
0e
